
skill6.png
size: 256,128
format: RGBA8888
filter: Linear,Linear
repeat: none
cang tay 1
  rotate: true
  xy: 2, 59
  size: 66, 136
  orig: 66, 136
  offset: 0, 0
  index: -1
cang tay 2
  rotate: true
  xy: 2, 2
  size: 55, 102
  orig: 55, 102
  offset: 0, 0
  index: -1
flare cang tay
  rotate: false
  xy: 140, 107
  size: 18, 18
  orig: 18, 18
  offset: 0, 0
  index: -1
