
ship24.png
size: 979,396
format: RGBA8888
filter: Linear,Linear
repeat: none
62
  rotate: false
  xy: 265, 0
  size: 140, 166
  orig: 140, 166
  offset: 0, 0
  index: -1
6body
  rotate: false
  xy: 480, 156
  size: 157, 240
  orig: 157, 240
  offset: 0, 0
  index: -1
6canhT2
  rotate: false
  xy: 639, 102
  size: 131, 294
  orig: 131, 294
  offset: 0, 0
  index: -1
6canhT22
  rotate: false
  xy: 772, 125
  size: 115, 271
  orig: 115, 271
  offset: 0, 0
  index: -1
6canmhT1
  rotate: false
  xy: 247, 168
  size: 231, 228
  orig: 231, 228
  offset: 0, 0
  index: -1
6dia
  rotate: false
  xy: 0, 151
  size: 245, 245
  orig: 245, 245
  offset: 0, 0
  index: -1
6duoi2
  rotate: false
  xy: 0, 43
  size: 184, 106
  orig: 184, 106
  offset: 0, 0
  index: -1
6sung
  rotate: false
  xy: 889, 83
  size: 79, 132
  orig: 79, 132
  offset: 0, 0
  index: -1
6sungT
  rotate: false
  xy: 889, 217
  size: 90, 179
  orig: 90, 179
  offset: 0, 0
  index: -1
6tenlua4
  rotate: false
  xy: 407, 48
  size: 50, 118
  orig: 50, 118
  offset: 0, 0
  index: -1
Layer 16
  rotate: false
  xy: 186, 40
  size: 77, 109
  orig: 77, 109
  offset: 0, 0
  index: -1
duoi1
  rotate: false
  xy: 459, 41
  size: 49, 113
  orig: 49, 113
  offset: 0, 0
  index: -1
duoi2
  rotate: false
  xy: 510, 90
  size: 32, 64
  orig: 32, 64
  offset: 0, 0
  index: -1
