{
"skeleton": { "hash": "sgMmWbPUktPley17wni3uuEab30", "spine": "3.7.94", "width": 173.3, "height": 170.78, "images": "./image/", "audio": "F:/Son PROJECT/son ban ruoi/enemy/dac biet/monster_27/image" },
"bones": [
	{ "name": "root" },
	{ "name": "all", "parent": "root", "scaleX": 0.2, "scaleY": 0.2 },
	{ "name": "16", "parent": "all", "x": -0.05, "y": -90.98 },
	{
		"name": "18",
		"parent": "16",
		"x": 0.97,
		"y": -77.73,
		"scaleX": 0.281,
		"scaleY": 0.281,
		"transform": "noScale"
	},
	{ "name": "gun1", "parent": "18", "x": -0.86, "y": -40.51 },
	{ "name": "19", "parent": "all", "x": -0.24, "y": 46.3 },
	{ "name": "21", "parent": "19", "x": -0.17, "y": 95.2 },
	{ "name": "3", "parent": "21", "x": 41.62, "y": 48.38 },
	{ "name": "4", "parent": "21", "x": -39.74, "y": 48.38, "scaleX": -1 },
	{ "name": "26", "parent": "21", "x": 0.08, "y": 93.44 },
	{ "name": "9", "parent": "26", "length": 36.55, "rotation": 76.92, "x": 5.98, "y": 8.27 },
	{ "name": "8", "parent": "9", "length": 81.03, "rotation": -36.69, "x": 37.22, "y": 0.03 },
	{ "name": "23", "parent": "19", "x": -0.33, "y": 30.73 },
	{ "name": "5", "parent": "23", "length": 84.63, "rotation": -40.07, "x": 90.74, "y": 36.1 },
	{ "name": "7", "parent": "5", "length": 80.66, "rotation": -56.15, "x": 84.9, "y": -1.12 },
	{ "name": "14", "parent": "23", "length": 266.58, "rotation": 46.71, "x": 39.88, "y": 19.82 },
	{ "name": "15", "parent": "23", "length": 248.6, "rotation": 11.37, "x": 23.08, "y": 13.22 },
	{
		"name": "20",
		"parent": "16",
		"rotation": 75.73,
		"x": 70.25,
		"y": 0.21,
		"scaleX": 0.274,
		"scaleY": 0.274,
		"transform": "noScale"
	},
	{ "name": "gun2", "parent": "20", "x": -0.86, "y": -40.51 },
	{
		"name": "22",
		"parent": "16",
		"rotation": -70.38,
		"x": -68.31,
		"y": 0.21,
		"scaleX": 0.274,
		"scaleY": 0.274,
		"transform": "noScale"
	},
	{ "name": "gun3", "parent": "22", "x": -0.86, "y": -40.51 },
	{ "name": "24", "parent": "19", "x": -0.33, "y": 30.73, "scaleX": -1 },
	{ "name": "6", "parent": "24", "length": 84.63, "rotation": -40.07, "x": 90.74, "y": 36.1 },
	{ "name": "10", "parent": "6", "length": 80.66, "rotation": -56.15, "x": 84.9, "y": -1.12 },
	{ "name": "17", "parent": "24", "length": 266.58, "rotation": 46.71, "x": 39.88, "y": 19.82 },
	{ "name": "25", "parent": "24", "length": 248.6, "rotation": 11.37, "x": 23.08, "y": 13.22 },
	{ "name": "27", "parent": "21", "x": 0.08, "y": 93.44, "scaleX": -1 },
	{ "name": "11", "parent": "27", "length": 36.55, "rotation": 76.92, "x": 5.98, "y": 8.27 },
	{ "name": "12", "parent": "11", "length": 81.03, "rotation": -36.69, "x": 37.22, "y": 0.03 }
],
"slots": [
	{ "name": "15", "bone": "15", "attachment": "15" },
	{ "name": "31", "bone": "25", "attachment": "15" },
	{ "name": "14", "bone": "14", "attachment": "14" },
	{ "name": "30", "bone": "17", "attachment": "14" },
	{ "name": "13", "bone": "16", "attachment": "13" },
	{ "name": "16", "bone": "16", "attachment": "13" },
	{ "name": "12", "bone": "all", "attachment": "12" },
	{ "name": "18", "bone": "all", "attachment": "12" },
	{ "name": "11", "bone": "19", "attachment": "11" },
	{ "name": "19", "bone": "19", "attachment": "11" },
	{ "name": "10", "bone": "all", "attachment": "10" },
	{ "name": "9", "bone": "9", "attachment": "9" },
	{ "name": "32", "bone": "11", "attachment": "9" },
	{ "name": "8", "bone": "8", "attachment": "8" },
	{ "name": "33", "bone": "12", "attachment": "8" },
	{ "name": "7", "bone": "21", "attachment": "7" },
	{ "name": "21", "bone": "21", "attachment": "7" },
	{ "name": "6", "bone": "5", "attachment": "6" },
	{ "name": "27", "bone": "6", "attachment": "6" },
	{ "name": "5", "bone": "7", "attachment": "5" },
	{ "name": "29", "bone": "10", "attachment": "5" },
	{ "name": "4", "bone": "5", "attachment": "4" },
	{ "name": "28", "bone": "6", "attachment": "4" },
	{ "name": "3", "bone": "3", "attachment": "3" },
	{ "name": "22", "bone": "4", "attachment": "3" },
	{ "name": "2", "bone": "21", "attachment": "2" },
	{ "name": "20", "bone": "21", "attachment": "2" },
	{ "name": "1", "bone": "18", "attachment": "1" },
	{ "name": "23", "bone": "20", "attachment": "1" },
	{ "name": "25", "bone": "22", "attachment": "1" },
	{ "name": "17", "bone": "18", "attachment": "1" },
	{ "name": "24", "bone": "20", "attachment": "1" },
	{ "name": "26", "bone": "22", "attachment": "1" }
],
"skins": {
	"default": {
		"1": {
			"1": { "x": 30.13, "y": -28.78, "width": 64, "height": 62 }
		},
		"10": {
			"10": { "x": -0.45, "y": 0.51, "width": 63, "height": 56 }
		},
		"11": {
			"11": { "x": 49.79, "y": 54.71, "width": 101, "height": 149 }
		},
		"12": {
			"12": { "x": 43.55, "y": 34.51, "width": 79, "height": 116 }
		},
		"13": {
			"13": { "x": 65.6, "y": 11.99, "width": 133, "height": 251 }
		},
		"14": {
			"14": {
				"type": "mesh",
				"uvs": [ 1, 0.60318, 0.10447, 1, 0, 1, 0, 0.80007, 0.62447, 0, 1, 0 ],
				"triangles": [ 4, 5, 0, 3, 4, 0, 1, 2, 3, 0, 1, 3 ],
				"vertices": [ 240.62, -87.29, 5.51, -38.97, -16.93, -25.2, 4.61, 9.9, 224.92, 68.11, 305.59, 18.63 ],
				"hull": 6,
				"edges": [ 4, 6, 8, 10, 6, 8, 2, 4, 0, 10, 2, 0 ],
				"width": 252,
				"height": 206
			}
		},
		"15": {
			"15": {
				"type": "mesh",
				"uvs": [ 1, 0.45115, 0.70963, 1, 0.43098, 1, 0, 0.41745, 0, 0, 1, 0 ],
				"triangles": [ 3, 4, 5, 3, 5, 0, 2, 3, 0, 1, 2, 0 ],
				"vertices": [ 260.6, -52.07, 191.56, -151.3, 119.28, -156.13, 0.79, -63.62, -4, 8.02, 255.42, 25.35 ],
				"hull": 6,
				"edges": [ 8, 10, 6, 8, 6, 4, 2, 4, 0, 10, 2, 0 ],
				"width": 260,
				"height": 172
			}
		},
		"16": {
			"13": { "x": -64.85, "y": 11.99, "scaleX": -1, "width": 133, "height": 251 }
		},
		"17": {
			"1": { "x": -29.83, "y": -28.78, "scaleX": -1, "width": 64, "height": 62 }
		},
		"18": {
			"12": { "x": -36.81, "y": 34.51, "scaleX": -1, "width": 79, "height": 116 }
		},
		"19": {
			"11": { "x": -48.41, "y": 54.71, "scaleX": -1, "width": 101, "height": 149 }
		},
		"2": {
			"2": { "x": 40.96, "y": -7.99, "width": 83, "height": 66 }
		},
		"20": {
			"2": { "x": -39.51, "y": -7.99, "scaleX": -1, "width": 83, "height": 66 }
		},
		"21": {
			"7": { "x": -41.78, "y": 35.01, "scaleX": -1, "width": 88, "height": 146 }
		},
		"22": {
			"3": { "x": 1.33, "y": -0.87, "width": 73, "height": 61 }
		},
		"23": {
			"1": { "x": 30.13, "y": -28.78, "width": 64, "height": 62 }
		},
		"24": {
			"1": { "x": -29.83, "y": -28.78, "scaleX": -1, "width": 64, "height": 62 }
		},
		"25": {
			"1": { "x": 30.13, "y": -28.78, "width": 64, "height": 62 }
		},
		"26": {
			"1": { "x": -29.83, "y": -28.78, "scaleX": -1, "width": 64, "height": 62 }
		},
		"27": {
			"6": { "x": 44.72, "y": 4.14, "rotation": 40.07, "width": 66, "height": 66 }
		},
		"28": {
			"4": { "x": 3.19, "y": -0.09, "rotation": 40.07, "width": 59, "height": 59 }
		},
		"29": {
			"5": { "x": 30.25, "y": 4.94, "rotation": 96.22, "width": 42, "height": 105 }
		},
		"3": {
			"3": { "x": 1.33, "y": -0.87, "width": 73, "height": 61 }
		},
		"30": {
			"14": {
				"type": "mesh",
				"uvs": [ 1, 0.60318, 0.10447, 1, 0, 1, 0, 0.80007, 0.62447, 0, 1, 0 ],
				"triangles": [ 4, 5, 0, 3, 4, 0, 1, 2, 3, 0, 1, 3 ],
				"vertices": [ 240.62, -87.29, 5.51, -38.97, -16.93, -25.2, 4.61, 9.9, 224.92, 68.11, 305.59, 18.63 ],
				"hull": 6,
				"edges": [ 4, 6, 8, 10, 6, 8, 2, 4, 0, 10, 2, 0 ],
				"width": 252,
				"height": 206
			}
		},
		"31": {
			"15": {
				"type": "mesh",
				"uvs": [ 1, 0.45115, 0.70963, 1, 0.43098, 1, 0, 0.41745, 0, 0, 1, 0 ],
				"triangles": [ 3, 4, 5, 3, 5, 0, 2, 3, 0, 1, 2, 0 ],
				"vertices": [ 260.6, -52.07, 191.56, -151.3, 119.28, -156.13, 0.79, -63.62, -4, 8.02, 255.42, 25.35 ],
				"hull": 6,
				"edges": [ 8, 10, 6, 8, 6, 4, 2, 4, 0, 10, 2, 0 ],
				"width": 260,
				"height": 172
			}
		},
		"32": {
			"9": { "x": 17.8, "y": 0.22, "rotation": -55.52, "width": 31, "height": 37 }
		},
		"33": {
			"8": { "x": 40.32, "y": 1.25, "rotation": 2.57, "width": 95, "height": 16 }
		},
		"4": {
			"4": { "x": 3.19, "y": -0.09, "rotation": 40.07, "width": 59, "height": 59 }
		},
		"5": {
			"5": { "x": 30.25, "y": 4.94, "rotation": 96.22, "width": 42, "height": 105 }
		},
		"6": {
			"6": { "x": 44.72, "y": 4.14, "rotation": 40.07, "width": 66, "height": 66 }
		},
		"7": {
			"7": { "x": 43.46, "y": 35.01, "width": 88, "height": 146 }
		},
		"8": {
			"8": { "x": 40.32, "y": 1.25, "rotation": 2.57, "width": 95, "height": 16 }
		},
		"9": {
			"9": { "x": 17.8, "y": 0.22, "rotation": -55.52, "width": 31, "height": 37 }
		}
	}
},
"events": {
	"attack": {}
},
"animations": {
	"attack": {
		"bones": {
			"12": {
				"rotate": [
					{
						"time": 0,
						"angle": -19,
						"curve": [ 0.333, 0.33, 0.68, 0.71 ]
					},
					{
						"time": 0.1,
						"angle": -7.31,
						"curve": [ 0.382, 0.58, 0.731, 1 ]
					},
					{
						"time": 0.2,
						"angle": 0,
						"curve": [ 0.25, 0, 0.75, 1 ]
					},
					{
						"time": 0.5333,
						"angle": -30.19,
						"curve": [ 0.258, 0, 0.619, 0.45 ]
					},
					{
						"time": 0.6667,
						"angle": -19,
						"curve": [ 0.333, 0.33, 0.68, 0.71 ]
					},
					{
						"time": 0.7667,
						"angle": -7.31,
						"curve": [ 0.382, 0.58, 0.731, 1 ]
					},
					{
						"time": 0.8667,
						"angle": 0,
						"curve": [ 0.25, 0, 0.75, 1 ]
					},
					{
						"time": 1.2,
						"angle": -30.19,
						"curve": [ 0.258, 0, 0.619, 0.45 ]
					},
					{ "time": 1.3333, "angle": -19 }
				]
			},
			"25": {
				"rotate": [
					{
						"time": 0,
						"angle": -11.01,
						"curve": [ 0.381, 0.55, 0.742, 1 ]
					},
					{ "time": 0.0333, "angle": 0 },
					{
						"time": 0.1333,
						"angle": -29.92,
						"curve": [ 0.25, 0, 0.75, 1 ]
					},
					{
						"time": 0.2,
						"angle": 0,
						"curve": [ 0.25, 0, 0.75, 1 ]
					},
					{
						"time": 0.3,
						"angle": -29.92,
						"curve": [ 0.245, 0, 0.637, 0.56 ]
					},
					{
						"time": 0.3333,
						"angle": -11.01,
						"curve": [ 0.381, 0.55, 0.742, 1 ]
					},
					{ "time": 0.3667, "angle": 0 },
					{
						"time": 0.4667,
						"angle": -29.92,
						"curve": [ 0.25, 0, 0.75, 1 ]
					},
					{
						"time": 0.5333,
						"angle": 0,
						"curve": [ 0.25, 0, 0.75, 1 ]
					},
					{
						"time": 0.6333,
						"angle": -29.92,
						"curve": [ 0.245, 0, 0.637, 0.56 ]
					},
					{
						"time": 0.6667,
						"angle": -11.01,
						"curve": [ 0.381, 0.55, 0.742, 1 ]
					},
					{ "time": 0.7, "angle": 0 },
					{
						"time": 0.8,
						"angle": -29.92,
						"curve": [ 0.25, 0, 0.75, 1 ]
					},
					{
						"time": 0.8667,
						"angle": 0,
						"curve": [ 0.25, 0, 0.75, 1 ]
					},
					{
						"time": 0.9667,
						"angle": -29.92,
						"curve": [ 0.245, 0, 0.637, 0.56 ]
					},
					{
						"time": 1,
						"angle": -11.01,
						"curve": [ 0.381, 0.55, 0.742, 1 ]
					},
					{ "time": 1.0333, "angle": 0 },
					{
						"time": 1.1333,
						"angle": -29.92,
						"curve": [ 0.25, 0, 0.75, 1 ]
					},
					{
						"time": 1.2,
						"angle": 0,
						"curve": [ 0.25, 0, 0.75, 1 ]
					},
					{
						"time": 1.3,
						"angle": -29.92,
						"curve": [ 0.245, 0, 0.637, 0.56 ]
					},
					{ "time": 1.3333, "angle": -11.01 }
				]
			},
			"all": {
				"translate": [
					{ "time": 0, "x": 0, "y": 0, "curve": "stepped" },
					{ "time": 0.1667, "x": 0, "y": 0 },
					{ "time": 0.2, "x": 0, "y": 2.27 },
					{ "time": 0.2333, "x": 0, "y": 0 },
					{ "time": 0.2667, "x": 0, "y": 2.27 },
					{ "time": 0.3, "x": 0, "y": 0 },
					{ "time": 0.3333, "x": 0, "y": 2.27 },
					{ "time": 0.3667, "x": 0, "y": 0 },
					{ "time": 0.4, "x": 0, "y": 2.27 },
					{ "time": 0.4333, "x": 0, "y": 0 },
					{ "time": 0.4667, "x": 0, "y": 2.27 },
					{ "time": 0.5, "x": 0, "y": 0 },
					{ "time": 0.5333, "x": 0, "y": 2.27 },
					{ "time": 0.5667, "x": 0, "y": 0 },
					{ "time": 0.6, "x": 0, "y": 2.27 },
					{ "time": 0.6333, "x": 0, "y": 0 },
					{ "time": 0.6667, "x": 0, "y": 2.27 },
					{ "time": 0.7, "x": 0, "y": 0 },
					{ "time": 0.7667, "x": 0, "y": -23.56 },
					{
						"time": 0.9333,
						"x": 0,
						"y": 11.6,
						"curve": [ 0.386, 0.01, 0.554, 1 ]
					},
					{
						"time": 1.0667,
						"x": 0,
						"y": -4.91,
						"curve": [ 0.25, 0, 0.75, 1 ]
					},
					{
						"time": 1.2,
						"x": 0,
						"y": 4.91,
						"curve": [ 0.25, 0, 0.75, 1 ]
					},
					{ "time": 1.3333, "x": 0, "y": 0 }
				]
			},
			"14": {
				"rotate": [
					{
						"time": 0,
						"angle": 0,
						"curve": [ 0.25, 0, 0.75, 1 ]
					},
					{
						"time": 0.1,
						"angle": -29.92,
						"curve": [ 0.25, 0, 0.75, 1 ]
					},
					{
						"time": 0.1667,
						"angle": 0,
						"curve": [ 0.25, 0, 0.75, 1 ]
					},
					{
						"time": 0.2667,
						"angle": -29.92,
						"curve": [ 0.25, 0, 0.75, 1 ]
					},
					{
						"time": 0.3333,
						"angle": 0,
						"curve": [ 0.25, 0, 0.75, 1 ]
					},
					{
						"time": 0.4333,
						"angle": -29.92,
						"curve": [ 0.25, 0, 0.75, 1 ]
					},
					{
						"time": 0.5,
						"angle": 0,
						"curve": [ 0.25, 0, 0.75, 1 ]
					},
					{
						"time": 0.6,
						"angle": -29.92,
						"curve": [ 0.25, 0, 0.75, 1 ]
					},
					{
						"time": 0.6667,
						"angle": 0,
						"curve": [ 0.25, 0, 0.75, 1 ]
					},
					{
						"time": 0.7667,
						"angle": -29.92,
						"curve": [ 0.25, 0, 0.75, 1 ]
					},
					{
						"time": 0.8333,
						"angle": 0,
						"curve": [ 0.25, 0, 0.75, 1 ]
					},
					{
						"time": 0.9333,
						"angle": -29.92,
						"curve": [ 0.25, 0, 0.75, 1 ]
					},
					{
						"time": 1,
						"angle": 0,
						"curve": [ 0.25, 0, 0.75, 1 ]
					},
					{
						"time": 1.1,
						"angle": -29.92,
						"curve": [ 0.25, 0, 0.75, 1 ]
					},
					{
						"time": 1.1667,
						"angle": 0,
						"curve": [ 0.25, 0, 0.75, 1 ]
					},
					{
						"time": 1.2667,
						"angle": -29.92,
						"curve": [ 0.25, 0, 0.75, 1 ]
					},
					{ "time": 1.3333, "angle": 0 }
				]
			},
			"15": {
				"rotate": [
					{
						"time": 0,
						"angle": -11.01,
						"curve": [ 0.381, 0.55, 0.742, 1 ]
					},
					{ "time": 0.0333, "angle": 0 },
					{
						"time": 0.1333,
						"angle": -29.92,
						"curve": [ 0.25, 0, 0.75, 1 ]
					},
					{
						"time": 0.2,
						"angle": 0,
						"curve": [ 0.25, 0, 0.75, 1 ]
					},
					{
						"time": 0.3,
						"angle": -29.92,
						"curve": [ 0.245, 0, 0.637, 0.56 ]
					},
					{
						"time": 0.3333,
						"angle": -11.01,
						"curve": [ 0.381, 0.55, 0.742, 1 ]
					},
					{ "time": 0.3667, "angle": 0 },
					{
						"time": 0.4667,
						"angle": -29.92,
						"curve": [ 0.25, 0, 0.75, 1 ]
					},
					{
						"time": 0.5333,
						"angle": 0,
						"curve": [ 0.25, 0, 0.75, 1 ]
					},
					{
						"time": 0.6333,
						"angle": -29.92,
						"curve": [ 0.245, 0, 0.637, 0.56 ]
					},
					{
						"time": 0.6667,
						"angle": -11.01,
						"curve": [ 0.381, 0.55, 0.742, 1 ]
					},
					{ "time": 0.7, "angle": 0 },
					{
						"time": 0.8,
						"angle": -29.92,
						"curve": [ 0.25, 0, 0.75, 1 ]
					},
					{
						"time": 0.8667,
						"angle": 0,
						"curve": [ 0.25, 0, 0.75, 1 ]
					},
					{
						"time": 0.9667,
						"angle": -29.92,
						"curve": [ 0.245, 0, 0.637, 0.56 ]
					},
					{
						"time": 1,
						"angle": -11.01,
						"curve": [ 0.381, 0.55, 0.742, 1 ]
					},
					{ "time": 1.0333, "angle": 0 },
					{
						"time": 1.1333,
						"angle": -29.92,
						"curve": [ 0.25, 0, 0.75, 1 ]
					},
					{
						"time": 1.2,
						"angle": 0,
						"curve": [ 0.25, 0, 0.75, 1 ]
					},
					{
						"time": 1.3,
						"angle": -29.92,
						"curve": [ 0.245, 0, 0.637, 0.56 ]
					},
					{ "time": 1.3333, "angle": -11.01 }
				]
			},
			"9": {
				"rotate": [
					{
						"time": 0,
						"angle": -7.31,
						"curve": [ 0.382, 0.58, 0.731, 1 ]
					},
					{ "time": 0.1, "angle": 0 },
					{
						"time": 0.4333,
						"angle": -30.19,
						"curve": [ 0.243, 0, 0.655, 0.63 ]
					},
					{
						"time": 0.6667,
						"angle": -7.31,
						"curve": [ 0.382, 0.58, 0.731, 1 ]
					},
					{ "time": 0.7667, "angle": 0 },
					{
						"time": 1.1,
						"angle": -30.19,
						"curve": [ 0.243, 0, 0.655, 0.63 ]
					},
					{ "time": 1.3333, "angle": -7.31 }
				]
			},
			"8": {
				"rotate": [
					{
						"time": 0,
						"angle": -19,
						"curve": [ 0.333, 0.33, 0.68, 0.71 ]
					},
					{
						"time": 0.1,
						"angle": -7.31,
						"curve": [ 0.382, 0.58, 0.731, 1 ]
					},
					{
						"time": 0.2,
						"angle": 0,
						"curve": [ 0.25, 0, 0.75, 1 ]
					},
					{
						"time": 0.5333,
						"angle": -30.19,
						"curve": [ 0.258, 0, 0.619, 0.45 ]
					},
					{
						"time": 0.6667,
						"angle": -19,
						"curve": [ 0.333, 0.33, 0.68, 0.71 ]
					},
					{
						"time": 0.7667,
						"angle": -7.31,
						"curve": [ 0.382, 0.58, 0.731, 1 ]
					},
					{
						"time": 0.8667,
						"angle": 0,
						"curve": [ 0.25, 0, 0.75, 1 ]
					},
					{
						"time": 1.2,
						"angle": -30.19,
						"curve": [ 0.258, 0, 0.619, 0.45 ]
					},
					{ "time": 1.3333, "angle": -19 }
				]
			},
			"16": {
				"translate": [
					{
						"time": 0,
						"x": 0,
						"y": -4.37,
						"curve": [ 0.382, 0.58, 0.731, 1 ]
					},
					{ "time": 0.1667, "x": 0, "y": 18.28 },
					{ "time": 0.3333, "x": 0, "y": 27.34, "curve": "stepped" },
					{ "time": 0.7, "x": 0, "y": 27.34 },
					{ "time": 0.7667, "x": 0, "y": -96.74 },
					{
						"time": 0.9333,
						"x": 0,
						"y": 7.94,
						"curve": [ 0.382, 0.58, 0.731, 1 ]
					},
					{ "time": 1.0667, "x": 0, "y": -49.2 },
					{ "time": 1.1667, "x": 0, "y": -4.37, "curve": "stepped" },
					{ "time": 1.2667, "x": 0, "y": -4.37 }
				],
				"scale": [
					{ "time": 0, "x": 1, "y": 1 },
					{ "time": 0.7, "x": 1.506, "y": 0.836 },
					{ "time": 0.7667, "x": 0.747, "y": 1.819 },
					{ "time": 0.9333, "x": 1.372, "y": 0.732 },
					{ "time": 1.0667, "x": 0.906, "y": 1.264 },
					{ "time": 1.1667, "x": 1.271, "y": 0.912 },
					{ "time": 1.2667, "x": 1, "y": 1 }
				]
			},
			"5": {
				"rotate": [
					{
						"time": 0,
						"angle": -2.63,
						"curve": [ 0.25, 0, 0.75, 1 ]
					},
					{ "time": 0.3333, "angle": -63.5, "curve": "stepped" },
					{
						"time": 0.6667,
						"angle": -63.5,
						"curve": [ 0.25, 0, 0.75, 1 ]
					},
					{
						"time": 0.8333,
						"angle": 35.58,
						"curve": [ 0.25, 0, 0.75, 1 ]
					},
					{
						"time": 1,
						"angle": -9.8,
						"curve": [ 0.25, 0, 0.75, 1 ]
					},
					{
						"time": 1.1333,
						"angle": 6.67,
						"curve": [ 0.25, 0, 0.75, 1 ]
					},
					{ "time": 1.2667, "angle": -2.63 }
				]
			},
			"7": {
				"rotate": [
					{
						"time": 0,
						"angle": -7.45,
						"curve": [ 0.25, 0, 0.75, 1 ]
					},
					{ "time": 0.3333, "angle": -68.32, "curve": "stepped" },
					{
						"time": 0.6667,
						"angle": -68.32,
						"curve": [ 0.25, 0, 0.75, 1 ]
					},
					{
						"time": 0.8333,
						"angle": 30.77,
						"curve": [ 0.25, 0, 0.75, 1 ]
					},
					{
						"time": 1,
						"angle": -14.61,
						"curve": [ 0.25, 0, 0.75, 1 ]
					},
					{
						"time": 1.1333,
						"angle": 1.86,
						"curve": [ 0.25, 0, 0.75, 1 ]
					},
					{ "time": 1.2667, "angle": -7.45 }
				]
			},
			"21": {
				"translate": [
					{
						"time": 0,
						"x": 0,
						"y": -1.25,
						"curve": [ 0.375, 0.62, 0.716, 1 ]
					},
					{ "time": 0.1667, "x": 0, "y": -14.84 },
					{ "time": 0.3333, "x": 0, "y": -18.24, "curve": "stepped" },
					{ "time": 0.7, "x": 0, "y": -18.24 },
					{ "time": 0.7667, "x": 0, "y": 21.42 },
					{ "time": 0.8333, "x": 0, "y": -20.98 },
					{ "time": 0.9, "x": 0, "y": -0.46 },
					{ "time": 0.9667, "x": 0, "y": -1.25 }
				]
			},
			"10": {
				"rotate": [
					{
						"time": 0,
						"angle": -7.45,
						"curve": [ 0.25, 0, 0.75, 1 ]
					},
					{ "time": 0.3333, "angle": -68.32, "curve": "stepped" },
					{
						"time": 0.6667,
						"angle": -68.32,
						"curve": [ 0.25, 0, 0.75, 1 ]
					},
					{
						"time": 0.8333,
						"angle": 30.77,
						"curve": [ 0.25, 0, 0.75, 1 ]
					},
					{
						"time": 1,
						"angle": -14.61,
						"curve": [ 0.25, 0, 0.75, 1 ]
					},
					{
						"time": 1.1333,
						"angle": 1.86,
						"curve": [ 0.25, 0, 0.75, 1 ]
					},
					{ "time": 1.2667, "angle": -7.45 }
				]
			},
			"6": {
				"rotate": [
					{
						"time": 0,
						"angle": -2.63,
						"curve": [ 0.25, 0, 0.75, 1 ]
					},
					{ "time": 0.3333, "angle": -63.5, "curve": "stepped" },
					{
						"time": 0.6667,
						"angle": -63.5,
						"curve": [ 0.25, 0, 0.75, 1 ]
					},
					{
						"time": 0.8333,
						"angle": 35.58,
						"curve": [ 0.25, 0, 0.75, 1 ]
					},
					{
						"time": 1,
						"angle": -9.8,
						"curve": [ 0.25, 0, 0.75, 1 ]
					},
					{
						"time": 1.1333,
						"angle": 6.67,
						"curve": [ 0.25, 0, 0.75, 1 ]
					},
					{ "time": 1.2667, "angle": -2.63 }
				]
			},
			"17": {
				"rotate": [
					{
						"time": 0,
						"angle": 0,
						"curve": [ 0.25, 0, 0.75, 1 ]
					},
					{
						"time": 0.1,
						"angle": -29.92,
						"curve": [ 0.25, 0, 0.75, 1 ]
					},
					{
						"time": 0.1667,
						"angle": 0,
						"curve": [ 0.25, 0, 0.75, 1 ]
					},
					{
						"time": 0.2667,
						"angle": -29.92,
						"curve": [ 0.25, 0, 0.75, 1 ]
					},
					{
						"time": 0.3333,
						"angle": 0,
						"curve": [ 0.25, 0, 0.75, 1 ]
					},
					{
						"time": 0.4333,
						"angle": -29.92,
						"curve": [ 0.25, 0, 0.75, 1 ]
					},
					{
						"time": 0.5,
						"angle": 0,
						"curve": [ 0.25, 0, 0.75, 1 ]
					},
					{
						"time": 0.6,
						"angle": -29.92,
						"curve": [ 0.25, 0, 0.75, 1 ]
					},
					{
						"time": 0.6667,
						"angle": 0,
						"curve": [ 0.25, 0, 0.75, 1 ]
					},
					{
						"time": 0.7667,
						"angle": -29.92,
						"curve": [ 0.25, 0, 0.75, 1 ]
					},
					{
						"time": 0.8333,
						"angle": 0,
						"curve": [ 0.25, 0, 0.75, 1 ]
					},
					{
						"time": 0.9333,
						"angle": -29.92,
						"curve": [ 0.25, 0, 0.75, 1 ]
					},
					{
						"time": 1,
						"angle": 0,
						"curve": [ 0.25, 0, 0.75, 1 ]
					},
					{
						"time": 1.1,
						"angle": -29.92,
						"curve": [ 0.25, 0, 0.75, 1 ]
					},
					{
						"time": 1.1667,
						"angle": 0,
						"curve": [ 0.25, 0, 0.75, 1 ]
					},
					{
						"time": 1.2667,
						"angle": -29.92,
						"curve": [ 0.25, 0, 0.75, 1 ]
					},
					{ "time": 1.3333, "angle": 0 }
				]
			},
			"11": {
				"rotate": [
					{
						"time": 0,
						"angle": -7.31,
						"curve": [ 0.382, 0.58, 0.731, 1 ]
					},
					{ "time": 0.1, "angle": 0 },
					{
						"time": 0.4333,
						"angle": -30.19,
						"curve": [ 0.243, 0, 0.655, 0.63 ]
					},
					{
						"time": 0.6667,
						"angle": -7.31,
						"curve": [ 0.382, 0.58, 0.731, 1 ]
					},
					{ "time": 0.7667, "angle": 0 },
					{
						"time": 1.1,
						"angle": -30.19,
						"curve": [ 0.243, 0, 0.655, 0.63 ]
					},
					{ "time": 1.3333, "angle": -7.31 }
				]
			},
			"18": {
				"translate": [
					{ "time": 0, "x": 0, "y": 0 },
					{ "time": 0.3333, "x": 0, "y": 13.16, "curve": "stepped" },
					{ "time": 0.6667, "x": 0, "y": 13.16 },
					{ "time": 0.7333, "x": 0, "y": -9.83 },
					{ "time": 0.8, "x": 0, "y": 0 }
				]
			},
			"22": {
				"translate": [
					{ "time": 0, "x": 0, "y": 0, "curve": "stepped" },
					{ "time": 0.6667, "x": 0, "y": 0 },
					{ "time": 0.7333, "x": -41.26, "y": 0, "curve": "stepped" },
					{ "time": 0.8, "x": -41.26, "y": 0 },
					{ "time": 0.8667, "x": 0, "y": 0 }
				]
			},
			"20": {
				"translate": [
					{ "time": 0, "x": 0, "y": 0, "curve": "stepped" },
					{ "time": 0.6667, "x": 0, "y": 0 },
					{ "time": 0.7333, "x": 33.52, "y": 0, "curve": "stepped" },
					{ "time": 0.8, "x": 33.52, "y": 0 },
					{ "time": 0.8667, "x": 0, "y": 0 }
				]
			}
		},
		"deform": {
			"default": {
				"14": {
					"14": [
						{
							"time": 0,
							"offset": 1,
							"vertices": [ 14.70592, 7.0E-5, 14.70592, 7.0E-5, 14.70592, 2.0E-5, 1.0E-5, 0.76021, -15.59313, 2.44566, -12.44629 ],
							"curve": [ 0.381, 0.55, 0.742, 1 ]
						},
						{
							"time": 0.0333,
							"curve": [ 0.25, 0, 0.75, 1 ]
						},
						{
							"time": 0.1333,
							"offset": 1,
							"vertices": [ 39.97725, 1.7E-4, 39.97725, 1.7E-4, 39.97725, 2.0E-5, 1.0E-5, 2.06656, -42.38913, 6.64837, -33.83462 ],
							"curve": [ 0.25, 0, 0.75, 1 ]
						},
						{
							"time": 0.2,
							"curve": [ 0.25, 0, 0.75, 1 ]
						},
						{
							"time": 0.3,
							"offset": 1,
							"vertices": [ 39.97725, 1.7E-4, 39.97725, 1.7E-4, 39.97725, 2.0E-5, 1.0E-5, 2.06656, -42.38913, 6.64837, -33.83462 ],
							"curve": [ 0.245, 0, 0.637, 0.56 ]
						},
						{
							"time": 0.3333,
							"offset": 1,
							"vertices": [ 14.70592, 7.0E-5, 14.70592, 7.0E-5, 14.70592, 2.0E-5, 1.0E-5, 0.76021, -15.59313, 2.44566, -12.44629 ],
							"curve": [ 0.381, 0.55, 0.742, 1 ]
						},
						{
							"time": 0.3667,
							"curve": [ 0.25, 0, 0.75, 1 ]
						},
						{
							"time": 0.4667,
							"offset": 1,
							"vertices": [ 39.97725, 1.7E-4, 39.97725, 1.7E-4, 39.97725, 2.0E-5, 1.0E-5, 2.06656, -42.38913, 6.64837, -33.83462 ],
							"curve": [ 0.25, 0, 0.75, 1 ]
						},
						{
							"time": 0.5333,
							"curve": [ 0.25, 0, 0.75, 1 ]
						},
						{
							"time": 0.6333,
							"offset": 1,
							"vertices": [ 39.97725, 1.7E-4, 39.97725, 1.7E-4, 39.97725, 2.0E-5, 1.0E-5, 2.06656, -42.38913, 6.64837, -33.83462 ],
							"curve": [ 0.245, 0, 0.637, 0.56 ]
						},
						{
							"time": 0.6667,
							"offset": 1,
							"vertices": [ 14.70592, 7.0E-5, 14.70592, 7.0E-5, 14.70592, 2.0E-5, 1.0E-5, 0.76021, -15.59313, 2.44566, -12.44629 ],
							"curve": [ 0.381, 0.55, 0.742, 1 ]
						},
						{
							"time": 0.7,
							"curve": [ 0.25, 0, 0.75, 1 ]
						},
						{
							"time": 0.8,
							"offset": 1,
							"vertices": [ 39.97725, 1.7E-4, 39.97725, 1.7E-4, 39.97725, 2.0E-5, 1.0E-5, 2.06656, -42.38913, 6.64837, -33.83462 ],
							"curve": [ 0.25, 0, 0.75, 1 ]
						},
						{
							"time": 0.8667,
							"curve": [ 0.25, 0, 0.75, 1 ]
						},
						{
							"time": 0.9667,
							"offset": 1,
							"vertices": [ 39.97725, 1.7E-4, 39.97725, 1.7E-4, 39.97725, 2.0E-5, 1.0E-5, 2.06656, -42.38913, 6.64837, -33.83462 ],
							"curve": [ 0.245, 0, 0.637, 0.56 ]
						},
						{
							"time": 1,
							"offset": 1,
							"vertices": [ 14.70592, 7.0E-5, 14.70592, 7.0E-5, 14.70592, 2.0E-5, 1.0E-5, 0.76021, -15.59313, 2.44566, -12.44629 ],
							"curve": [ 0.381, 0.55, 0.742, 1 ]
						},
						{
							"time": 1.0333,
							"curve": [ 0.25, 0, 0.75, 1 ]
						},
						{
							"time": 1.1333,
							"offset": 1,
							"vertices": [ 39.97725, 1.7E-4, 39.97725, 1.7E-4, 39.97725, 2.0E-5, 1.0E-5, 2.06656, -42.38913, 6.64837, -33.83462 ],
							"curve": [ 0.25, 0, 0.75, 1 ]
						},
						{
							"time": 1.2,
							"curve": [ 0.25, 0, 0.75, 1 ]
						},
						{
							"time": 1.3,
							"offset": 1,
							"vertices": [ 39.97725, 1.7E-4, 39.97725, 1.7E-4, 39.97725, 2.0E-5, 1.0E-5, 2.06656, -42.38913, 6.64837, -33.83462 ],
							"curve": [ 0.245, 0, 0.637, 0.56 ]
						},
						{
							"time": 1.3333,
							"offset": 1,
							"vertices": [ 14.70592, 7.0E-5, 14.70592, 7.0E-5, 14.70592, 2.0E-5, 1.0E-5, 0.76021, -15.59313, 2.44566, -12.44629 ]
						}
					]
				},
				"15": {
					"15": [
						{
							"time": 0,
							"offset": 1,
							"vertices": [ 25.70152, 3.0E-5, 75.4791, 3.0E-5, 95.65837, 2.0E-5, 54.19291 ],
							"curve": [ 0.303, 0.24, 0.661, 0.65 ]
						},
						{
							"time": 0.0333,
							"offset": 1,
							"vertices": [ 10.86311, 1.0E-5, 31.9023, 1.0E-5, 40.43136, 1.0E-5, 22.9054 ],
							"curve": [ 0.381, 0.55, 0.742, 1 ]
						},
						{
							"time": 0.0667,
							"curve": [ 0.25, 0, 0.75, 1 ]
						},
						{
							"time": 0.1667,
							"offset": 1,
							"vertices": [ 29.53079, 3.0E-5, 86.72473, 3.0E-5, 109.91052, 2.0E-5, 62.26712 ],
							"curve": [ 0.25, 0, 0.75, 1 ]
						},
						{
							"time": 0.2333,
							"curve": [ 0.25, 0, 0.75, 1 ]
						},
						{
							"time": 0.3333,
							"offset": 1,
							"vertices": [ 25.70152, 3.0E-5, 75.4791, 3.0E-5, 95.65837, 2.0E-5, 54.19291 ],
							"curve": [ 0.303, 0.24, 0.661, 0.65 ]
						},
						{
							"time": 0.3667,
							"offset": 1,
							"vertices": [ 10.86311, 1.0E-5, 31.9023, 1.0E-5, 40.43136, 1.0E-5, 22.9054 ],
							"curve": [ 0.381, 0.55, 0.742, 1 ]
						},
						{
							"time": 0.4,
							"curve": [ 0.25, 0, 0.75, 1 ]
						},
						{
							"time": 0.5,
							"offset": 1,
							"vertices": [ 29.53079, 3.0E-5, 86.72473, 3.0E-5, 109.91052, 2.0E-5, 62.26712 ],
							"curve": [ 0.25, 0, 0.75, 1 ]
						},
						{
							"time": 0.5667,
							"curve": [ 0.25, 0, 0.75, 1 ]
						},
						{
							"time": 0.6667,
							"offset": 1,
							"vertices": [ 25.70152, 3.0E-5, 75.4791, 3.0E-5, 95.65837, 2.0E-5, 54.19291 ],
							"curve": [ 0.303, 0.24, 0.661, 0.65 ]
						},
						{
							"time": 0.7,
							"offset": 1,
							"vertices": [ 10.86311, 1.0E-5, 31.9023, 1.0E-5, 40.43136, 1.0E-5, 22.9054 ],
							"curve": [ 0.381, 0.55, 0.742, 1 ]
						},
						{
							"time": 0.7333,
							"curve": [ 0.25, 0, 0.75, 1 ]
						},
						{
							"time": 0.8333,
							"offset": 1,
							"vertices": [ 29.53079, 3.0E-5, 86.72473, 3.0E-5, 109.91052, 2.0E-5, 62.26712 ],
							"curve": [ 0.25, 0, 0.75, 1 ]
						},
						{
							"time": 0.9,
							"curve": [ 0.25, 0, 0.75, 1 ]
						},
						{
							"time": 1,
							"offset": 1,
							"vertices": [ 25.70152, 3.0E-5, 75.4791, 3.0E-5, 95.65837, 2.0E-5, 54.19291 ],
							"curve": [ 0.303, 0.24, 0.661, 0.65 ]
						},
						{
							"time": 1.0333,
							"offset": 1,
							"vertices": [ 10.86311, 1.0E-5, 31.9023, 1.0E-5, 40.43136, 1.0E-5, 22.9054 ],
							"curve": [ 0.381, 0.55, 0.742, 1 ]
						},
						{
							"time": 1.0667,
							"curve": [ 0.25, 0, 0.75, 1 ]
						},
						{
							"time": 1.1667,
							"offset": 1,
							"vertices": [ 29.53079, 3.0E-5, 86.72473, 3.0E-5, 109.91052, 2.0E-5, 62.26712 ],
							"curve": [ 0.25, 0, 0.75, 1 ]
						},
						{
							"time": 1.2333,
							"curve": [ 0.25, 0, 0.75, 1 ]
						},
						{
							"time": 1.3333,
							"offset": 1,
							"vertices": [ 25.70152, 3.0E-5, 75.4791, 3.0E-5, 95.65837, 2.0E-5, 54.19291 ]
						}
					]
				},
				"30": {
					"14": [
						{
							"time": 0,
							"offset": 1,
							"vertices": [ 14.70592, 7.0E-5, 14.70592, 7.0E-5, 14.70592, 2.0E-5, 1.0E-5, 0.76021, -15.59313, 2.44566, -12.44629 ],
							"curve": [ 0.381, 0.55, 0.742, 1 ]
						},
						{
							"time": 0.0333,
							"curve": [ 0.25, 0, 0.75, 1 ]
						},
						{
							"time": 0.1333,
							"offset": 1,
							"vertices": [ 39.97725, 1.7E-4, 39.97725, 1.7E-4, 39.97725, 2.0E-5, 1.0E-5, 2.06656, -42.38913, 6.64837, -33.83462 ],
							"curve": [ 0.25, 0, 0.75, 1 ]
						},
						{
							"time": 0.2,
							"curve": [ 0.25, 0, 0.75, 1 ]
						},
						{
							"time": 0.3,
							"offset": 1,
							"vertices": [ 39.97725, 1.7E-4, 39.97725, 1.7E-4, 39.97725, 2.0E-5, 1.0E-5, 2.06656, -42.38913, 6.64837, -33.83462 ],
							"curve": [ 0.245, 0, 0.637, 0.56 ]
						},
						{
							"time": 0.3333,
							"offset": 1,
							"vertices": [ 14.70592, 7.0E-5, 14.70592, 7.0E-5, 14.70592, 2.0E-5, 1.0E-5, 0.76021, -15.59313, 2.44566, -12.44629 ],
							"curve": [ 0.381, 0.55, 0.742, 1 ]
						},
						{
							"time": 0.3667,
							"curve": [ 0.25, 0, 0.75, 1 ]
						},
						{
							"time": 0.4667,
							"offset": 1,
							"vertices": [ 39.97725, 1.7E-4, 39.97725, 1.7E-4, 39.97725, 2.0E-5, 1.0E-5, 2.06656, -42.38913, 6.64837, -33.83462 ],
							"curve": [ 0.25, 0, 0.75, 1 ]
						},
						{
							"time": 0.5333,
							"curve": [ 0.25, 0, 0.75, 1 ]
						},
						{
							"time": 0.6333,
							"offset": 1,
							"vertices": [ 39.97725, 1.7E-4, 39.97725, 1.7E-4, 39.97725, 2.0E-5, 1.0E-5, 2.06656, -42.38913, 6.64837, -33.83462 ],
							"curve": [ 0.245, 0, 0.637, 0.56 ]
						},
						{
							"time": 0.6667,
							"offset": 1,
							"vertices": [ 14.70592, 7.0E-5, 14.70592, 7.0E-5, 14.70592, 2.0E-5, 1.0E-5, 0.76021, -15.59313, 2.44566, -12.44629 ],
							"curve": [ 0.381, 0.55, 0.742, 1 ]
						},
						{
							"time": 0.7,
							"curve": [ 0.25, 0, 0.75, 1 ]
						},
						{
							"time": 0.8,
							"offset": 1,
							"vertices": [ 39.97725, 1.7E-4, 39.97725, 1.7E-4, 39.97725, 2.0E-5, 1.0E-5, 2.06656, -42.38913, 6.64837, -33.83462 ],
							"curve": [ 0.25, 0, 0.75, 1 ]
						},
						{
							"time": 0.8667,
							"curve": [ 0.25, 0, 0.75, 1 ]
						},
						{
							"time": 0.9667,
							"offset": 1,
							"vertices": [ 39.97725, 1.7E-4, 39.97725, 1.7E-4, 39.97725, 2.0E-5, 1.0E-5, 2.06656, -42.38913, 6.64837, -33.83462 ],
							"curve": [ 0.245, 0, 0.637, 0.56 ]
						},
						{
							"time": 1,
							"offset": 1,
							"vertices": [ 14.70592, 7.0E-5, 14.70592, 7.0E-5, 14.70592, 2.0E-5, 1.0E-5, 0.76021, -15.59313, 2.44566, -12.44629 ],
							"curve": [ 0.381, 0.55, 0.742, 1 ]
						},
						{
							"time": 1.0333,
							"curve": [ 0.25, 0, 0.75, 1 ]
						},
						{
							"time": 1.1333,
							"offset": 1,
							"vertices": [ 39.97725, 1.7E-4, 39.97725, 1.7E-4, 39.97725, 2.0E-5, 1.0E-5, 2.06656, -42.38913, 6.64837, -33.83462 ],
							"curve": [ 0.25, 0, 0.75, 1 ]
						},
						{
							"time": 1.2,
							"curve": [ 0.25, 0, 0.75, 1 ]
						},
						{
							"time": 1.3,
							"offset": 1,
							"vertices": [ 39.97725, 1.7E-4, 39.97725, 1.7E-4, 39.97725, 2.0E-5, 1.0E-5, 2.06656, -42.38913, 6.64837, -33.83462 ],
							"curve": [ 0.245, 0, 0.637, 0.56 ]
						},
						{
							"time": 1.3333,
							"offset": 1,
							"vertices": [ 14.70592, 7.0E-5, 14.70592, 7.0E-5, 14.70592, 2.0E-5, 1.0E-5, 0.76021, -15.59313, 2.44566, -12.44629 ]
						}
					]
				},
				"31": {
					"15": [
						{
							"time": 0,
							"offset": 1,
							"vertices": [ 25.70152, 3.0E-5, 75.4791, 3.0E-5, 95.65837, 2.0E-5, 54.19291 ],
							"curve": [ 0.303, 0.24, 0.661, 0.65 ]
						},
						{
							"time": 0.0333,
							"offset": 1,
							"vertices": [ 10.86311, 1.0E-5, 31.9023, 1.0E-5, 40.43136, 1.0E-5, 22.9054 ],
							"curve": [ 0.381, 0.55, 0.742, 1 ]
						},
						{
							"time": 0.0667,
							"curve": [ 0.25, 0, 0.75, 1 ]
						},
						{
							"time": 0.1667,
							"offset": 1,
							"vertices": [ 29.53079, 3.0E-5, 86.72473, 3.0E-5, 109.91052, 2.0E-5, 62.26712 ],
							"curve": [ 0.25, 0, 0.75, 1 ]
						},
						{
							"time": 0.2333,
							"curve": [ 0.25, 0, 0.75, 1 ]
						},
						{
							"time": 0.3333,
							"offset": 1,
							"vertices": [ 25.70152, 3.0E-5, 75.4791, 3.0E-5, 95.65837, 2.0E-5, 54.19291 ],
							"curve": [ 0.303, 0.24, 0.661, 0.65 ]
						},
						{
							"time": 0.3667,
							"offset": 1,
							"vertices": [ 10.86311, 1.0E-5, 31.9023, 1.0E-5, 40.43136, 1.0E-5, 22.9054 ],
							"curve": [ 0.381, 0.55, 0.742, 1 ]
						},
						{
							"time": 0.4,
							"curve": [ 0.25, 0, 0.75, 1 ]
						},
						{
							"time": 0.5,
							"offset": 1,
							"vertices": [ 29.53079, 3.0E-5, 86.72473, 3.0E-5, 109.91052, 2.0E-5, 62.26712 ],
							"curve": [ 0.25, 0, 0.75, 1 ]
						},
						{
							"time": 0.5667,
							"curve": [ 0.25, 0, 0.75, 1 ]
						},
						{
							"time": 0.6667,
							"offset": 1,
							"vertices": [ 25.70152, 3.0E-5, 75.4791, 3.0E-5, 95.65837, 2.0E-5, 54.19291 ],
							"curve": [ 0.303, 0.24, 0.661, 0.65 ]
						},
						{
							"time": 0.7,
							"offset": 1,
							"vertices": [ 10.86311, 1.0E-5, 31.9023, 1.0E-5, 40.43136, 1.0E-5, 22.9054 ],
							"curve": [ 0.381, 0.55, 0.742, 1 ]
						},
						{
							"time": 0.7333,
							"curve": [ 0.25, 0, 0.75, 1 ]
						},
						{
							"time": 0.8333,
							"offset": 1,
							"vertices": [ 29.53079, 3.0E-5, 86.72473, 3.0E-5, 109.91052, 2.0E-5, 62.26712 ],
							"curve": [ 0.25, 0, 0.75, 1 ]
						},
						{
							"time": 0.9,
							"curve": [ 0.25, 0, 0.75, 1 ]
						},
						{
							"time": 1,
							"offset": 1,
							"vertices": [ 25.70152, 3.0E-5, 75.4791, 3.0E-5, 95.65837, 2.0E-5, 54.19291 ],
							"curve": [ 0.303, 0.24, 0.661, 0.65 ]
						},
						{
							"time": 1.0333,
							"offset": 1,
							"vertices": [ 10.86311, 1.0E-5, 31.9023, 1.0E-5, 40.43136, 1.0E-5, 22.9054 ],
							"curve": [ 0.381, 0.55, 0.742, 1 ]
						},
						{
							"time": 1.0667,
							"curve": [ 0.25, 0, 0.75, 1 ]
						},
						{
							"time": 1.1667,
							"offset": 1,
							"vertices": [ 29.53079, 3.0E-5, 86.72473, 3.0E-5, 109.91052, 2.0E-5, 62.26712 ],
							"curve": [ 0.25, 0, 0.75, 1 ]
						},
						{
							"time": 1.2333,
							"curve": [ 0.25, 0, 0.75, 1 ]
						},
						{
							"time": 1.3333,
							"offset": 1,
							"vertices": [ 25.70152, 3.0E-5, 75.4791, 3.0E-5, 95.65837, 2.0E-5, 54.19291 ]
						}
					]
				}
			}
		},
		"events": [
			{ "time": 0.6667, "name": "attack" }
		]
	},
	"fly": {
		"bones": {
			"all": {
				"translate": [
					{
						"time": 0,
						"x": 0,
						"y": 0,
						"curve": [ 0.386, 0.01, 0.554, 1 ]
					},
					{
						"time": 0.3333,
						"x": 0,
						"y": -11.43,
						"curve": [ 0.386, 0.01, 0.554, 1 ]
					},
					{ "time": 0.6667, "x": 0, "y": 0 }
				]
			},
			"14": {
				"rotate": [
					{
						"time": 0,
						"angle": 0,
						"curve": [ 0.25, 0, 0.75, 1 ]
					},
					{
						"time": 0.1667,
						"angle": -29.92,
						"curve": [ 0.25, 0, 0.75, 1 ]
					},
					{
						"time": 0.3333,
						"angle": 0,
						"curve": [ 0.25, 0, 0.75, 1 ]
					},
					{
						"time": 0.5,
						"angle": -29.92,
						"curve": [ 0.25, 0, 0.75, 1 ]
					},
					{ "time": 0.6667, "angle": 0 }
				]
			},
			"15": {
				"rotate": [
					{
						"time": 0,
						"angle": -11.01,
						"curve": [ 0.381, 0.55, 0.742, 1 ]
					},
					{ "time": 0.0667, "angle": 0 },
					{
						"time": 0.2333,
						"angle": -29.92,
						"curve": [ 0.25, 0, 0.75, 1 ]
					},
					{
						"time": 0.4,
						"angle": 0,
						"curve": [ 0.25, 0, 0.75, 1 ]
					},
					{
						"time": 0.5667,
						"angle": -29.92,
						"curve": [ 0.245, 0, 0.637, 0.56 ]
					},
					{ "time": 0.6667, "angle": -11.01 }
				]
			},
			"9": {
				"rotate": [
					{
						"time": 0,
						"angle": -7.31,
						"curve": [ 0.382, 0.58, 0.731, 1 ]
					},
					{ "time": 0.1, "angle": 0 },
					{
						"time": 0.4333,
						"angle": -30.19,
						"curve": [ 0.243, 0, 0.655, 0.63 ]
					},
					{ "time": 0.6667, "angle": -7.31 }
				]
			},
			"8": {
				"rotate": [
					{
						"time": 0,
						"angle": -19,
						"curve": [ 0.333, 0.33, 0.68, 0.71 ]
					},
					{
						"time": 0.1,
						"angle": -7.31,
						"curve": [ 0.382, 0.58, 0.731, 1 ]
					},
					{
						"time": 0.2,
						"angle": 0,
						"curve": [ 0.25, 0, 0.75, 1 ]
					},
					{
						"time": 0.5333,
						"angle": -30.19,
						"curve": [ 0.258, 0, 0.619, 0.45 ]
					},
					{ "time": 0.6667, "angle": -19 }
				]
			},
			"16": {
				"translate": [
					{
						"time": 0,
						"x": 0,
						"y": -4.37,
						"curve": [ 0.382, 0.58, 0.731, 1 ]
					},
					{
						"time": 0.1,
						"x": 0,
						"y": 0,
						"curve": [ 0.25, 0, 0.75, 1 ]
					},
					{
						"time": 0.4333,
						"x": 0,
						"y": -18.05,
						"curve": [ 0.243, 0, 0.655, 0.63 ]
					},
					{ "time": 0.6667, "x": 0, "y": -4.37 }
				]
			},
			"5": {
				"rotate": [
					{
						"time": 0,
						"angle": -2.63,
						"curve": [ 0.375, 0.62, 0.716, 1 ]
					},
					{
						"time": 0.0667,
						"angle": 0,
						"curve": [ 0.25, 0, 0.75, 1 ]
					},
					{
						"time": 0.4,
						"angle": -20.25,
						"curve": [ 0.243, 0, 0.68, 0.71 ]
					},
					{ "time": 0.6667, "angle": -2.63 }
				]
			},
			"7": {
				"rotate": [
					{
						"time": 0,
						"angle": -7.45,
						"curve": [ 0.381, 0.55, 0.742, 1 ]
					},
					{
						"time": 0.1333,
						"angle": 0,
						"curve": [ 0.25, 0, 0.75, 1 ]
					},
					{
						"time": 0.4667,
						"angle": -20.25,
						"curve": [ 0.245, 0, 0.637, 0.56 ]
					},
					{ "time": 0.6667, "angle": -7.45 }
				]
			},
			"21": {
				"translate": [
					{
						"time": 0,
						"x": 0,
						"y": -1.25,
						"curve": [ 0.375, 0.62, 0.716, 1 ]
					},
					{
						"time": 0.0667,
						"x": 0,
						"y": 0,
						"curve": [ 0.25, 0, 0.75, 1 ]
					},
					{
						"time": 0.4,
						"x": 0,
						"y": -9.63,
						"curve": [ 0.243, 0, 0.68, 0.71 ]
					},
					{ "time": 0.6667, "x": 0, "y": -1.25 }
				]
			},
			"10": {
				"rotate": [
					{
						"time": 0,
						"angle": -7.45,
						"curve": [ 0.381, 0.55, 0.742, 1 ]
					},
					{
						"time": 0.1333,
						"angle": 0,
						"curve": [ 0.25, 0, 0.75, 1 ]
					},
					{
						"time": 0.4667,
						"angle": -20.25,
						"curve": [ 0.245, 0, 0.637, 0.56 ]
					},
					{ "time": 0.6667, "angle": -7.45 }
				]
			},
			"6": {
				"rotate": [
					{
						"time": 0,
						"angle": -2.63,
						"curve": [ 0.375, 0.62, 0.716, 1 ]
					},
					{
						"time": 0.0667,
						"angle": 0,
						"curve": [ 0.25, 0, 0.75, 1 ]
					},
					{
						"time": 0.4,
						"angle": -20.25,
						"curve": [ 0.243, 0, 0.68, 0.71 ]
					},
					{ "time": 0.6667, "angle": -2.63 }
				]
			},
			"17": {
				"rotate": [
					{
						"time": 0,
						"angle": 0,
						"curve": [ 0.25, 0, 0.75, 1 ]
					},
					{
						"time": 0.1667,
						"angle": -29.92,
						"curve": [ 0.25, 0, 0.75, 1 ]
					},
					{
						"time": 0.3333,
						"angle": 0,
						"curve": [ 0.25, 0, 0.75, 1 ]
					},
					{
						"time": 0.5,
						"angle": -29.92,
						"curve": [ 0.25, 0, 0.75, 1 ]
					},
					{ "time": 0.6667, "angle": 0 }
				]
			},
			"25": {
				"rotate": [
					{
						"time": 0,
						"angle": -11.01,
						"curve": [ 0.381, 0.55, 0.742, 1 ]
					},
					{ "time": 0.0667, "angle": 0 },
					{
						"time": 0.2333,
						"angle": -29.92,
						"curve": [ 0.25, 0, 0.75, 1 ]
					},
					{
						"time": 0.4,
						"angle": 0,
						"curve": [ 0.25, 0, 0.75, 1 ]
					},
					{
						"time": 0.5667,
						"angle": -29.92,
						"curve": [ 0.245, 0, 0.637, 0.56 ]
					},
					{ "time": 0.6667, "angle": -11.01 }
				]
			},
			"12": {
				"rotate": [
					{
						"time": 0,
						"angle": -19,
						"curve": [ 0.333, 0.33, 0.68, 0.71 ]
					},
					{
						"time": 0.1,
						"angle": -7.31,
						"curve": [ 0.382, 0.58, 0.731, 1 ]
					},
					{
						"time": 0.2,
						"angle": 0,
						"curve": [ 0.25, 0, 0.75, 1 ]
					},
					{
						"time": 0.5333,
						"angle": -30.19,
						"curve": [ 0.258, 0, 0.619, 0.45 ]
					},
					{ "time": 0.6667, "angle": -19 }
				]
			},
			"11": {
				"rotate": [
					{
						"time": 0,
						"angle": -7.31,
						"curve": [ 0.382, 0.58, 0.731, 1 ]
					},
					{ "time": 0.1, "angle": 0 },
					{
						"time": 0.4333,
						"angle": -30.19,
						"curve": [ 0.243, 0, 0.655, 0.63 ]
					},
					{ "time": 0.6667, "angle": -7.31 }
				]
			}
		},
		"deform": {
			"default": {
				"14": {
					"14": [
						{
							"time": 0,
							"offset": 1,
							"vertices": [ 14.70592, 7.0E-5, 14.70592, 7.0E-5, 14.70592, 2.0E-5, 1.0E-5, 0.76021, -15.59313, 2.44566, -12.44629 ],
							"curve": [ 0.381, 0.55, 0.742, 1 ]
						},
						{
							"time": 0.0667,
							"curve": [ 0.25, 0, 0.75, 1 ]
						},
						{
							"time": 0.2333,
							"offset": 1,
							"vertices": [ 39.97725, 1.7E-4, 39.97725, 1.7E-4, 39.97725, 2.0E-5, 1.0E-5, 2.06656, -42.38913, 6.64837, -33.83462 ],
							"curve": [ 0.25, 0, 0.75, 1 ]
						},
						{
							"time": 0.4,
							"curve": [ 0.25, 0, 0.75, 1 ]
						},
						{
							"time": 0.5667,
							"offset": 1,
							"vertices": [ 39.97725, 1.7E-4, 39.97725, 1.7E-4, 39.97725, 2.0E-5, 1.0E-5, 2.06656, -42.38913, 6.64837, -33.83462 ],
							"curve": [ 0.245, 0, 0.637, 0.56 ]
						},
						{
							"time": 0.6667,
							"offset": 1,
							"vertices": [ 14.70592, 7.0E-5, 14.70592, 7.0E-5, 14.70592, 2.0E-5, 1.0E-5, 0.76021, -15.59313, 2.44566, -12.44629 ]
						}
					]
				},
				"15": {
					"15": [
						{
							"time": 0,
							"offset": 1,
							"vertices": [ 25.70152, 3.0E-5, 75.4791, 3.0E-5, 95.65837, 2.0E-5, 54.19291 ],
							"curve": [ 0.303, 0.24, 0.661, 0.65 ]
						},
						{
							"time": 0.0667,
							"offset": 1,
							"vertices": [ 10.86311, 1.0E-5, 31.9023, 1.0E-5, 40.43136, 1.0E-5, 22.9054 ],
							"curve": [ 0.381, 0.55, 0.742, 1 ]
						},
						{
							"time": 0.1333,
							"curve": [ 0.25, 0, 0.75, 1 ]
						},
						{
							"time": 0.3,
							"offset": 1,
							"vertices": [ 29.53079, 3.0E-5, 86.72473, 3.0E-5, 109.91052, 2.0E-5, 62.26712 ],
							"curve": [ 0.25, 0, 0.75, 1 ]
						},
						{
							"time": 0.4667,
							"curve": [ 0.25, 0, 0.75, 1 ]
						},
						{
							"time": 0.6333,
							"offset": 1,
							"vertices": [ 29.53079, 3.0E-5, 86.72473, 3.0E-5, 109.91052, 2.0E-5, 62.26712 ],
							"curve": [ 0.284, 0, 0.625, 0.38 ]
						},
						{
							"time": 0.6667,
							"offset": 1,
							"vertices": [ 25.70152, 3.0E-5, 75.4791, 3.0E-5, 95.65837, 2.0E-5, 54.19291 ]
						}
					]
				},
				"30": {
					"14": [
						{
							"time": 0,
							"offset": 1,
							"vertices": [ 14.70592, 7.0E-5, 14.70592, 7.0E-5, 14.70592, 2.0E-5, 1.0E-5, 0.76021, -15.59313, 2.44566, -12.44629 ],
							"curve": [ 0.381, 0.55, 0.742, 1 ]
						},
						{
							"time": 0.0667,
							"curve": [ 0.25, 0, 0.75, 1 ]
						},
						{
							"time": 0.2333,
							"offset": 1,
							"vertices": [ 39.97725, 1.7E-4, 39.97725, 1.7E-4, 39.97725, 2.0E-5, 1.0E-5, 2.06656, -42.38913, 6.64837, -33.83462 ],
							"curve": [ 0.25, 0, 0.75, 1 ]
						},
						{
							"time": 0.4,
							"curve": [ 0.25, 0, 0.75, 1 ]
						},
						{
							"time": 0.5667,
							"offset": 1,
							"vertices": [ 39.97725, 1.7E-4, 39.97725, 1.7E-4, 39.97725, 2.0E-5, 1.0E-5, 2.06656, -42.38913, 6.64837, -33.83462 ],
							"curve": [ 0.245, 0, 0.637, 0.56 ]
						},
						{
							"time": 0.6667,
							"offset": 1,
							"vertices": [ 14.70592, 7.0E-5, 14.70592, 7.0E-5, 14.70592, 2.0E-5, 1.0E-5, 0.76021, -15.59313, 2.44566, -12.44629 ]
						}
					]
				},
				"31": {
					"15": [
						{
							"time": 0,
							"offset": 1,
							"vertices": [ 25.70152, 3.0E-5, 75.4791, 3.0E-5, 95.65837, 2.0E-5, 54.19291 ],
							"curve": [ 0.303, 0.24, 0.661, 0.65 ]
						},
						{
							"time": 0.0667,
							"offset": 1,
							"vertices": [ 10.86311, 1.0E-5, 31.9023, 1.0E-5, 40.43136, 1.0E-5, 22.9054 ],
							"curve": [ 0.381, 0.55, 0.742, 1 ]
						},
						{
							"time": 0.1333,
							"curve": [ 0.25, 0, 0.75, 1 ]
						},
						{
							"time": 0.3,
							"offset": 1,
							"vertices": [ 29.53079, 3.0E-5, 86.72473, 3.0E-5, 109.91052, 2.0E-5, 62.26712 ],
							"curve": [ 0.25, 0, 0.75, 1 ]
						},
						{
							"time": 0.4667,
							"curve": [ 0.25, 0, 0.75, 1 ]
						},
						{
							"time": 0.6333,
							"offset": 1,
							"vertices": [ 29.53079, 3.0E-5, 86.72473, 3.0E-5, 109.91052, 2.0E-5, 62.26712 ],
							"curve": [ 0.284, 0, 0.625, 0.38 ]
						},
						{
							"time": 0.6667,
							"offset": 1,
							"vertices": [ 25.70152, 3.0E-5, 75.4791, 3.0E-5, 95.65837, 2.0E-5, 54.19291 ]
						}
					]
				}
			}
		}
	}
}
}