{
"skeleton": { "hash": "Cl43ymIOfaU7m3G367D1wBphgXY", "spine": "3.7.94", "width": 3409.86, "height": 1703.28, "images": "F:/BR1/son ban ruoi/Boss/boss_006/img", "audio": "F:\\BR1\\son ban ruoi\\Boss\\boss_006\\img" },
"bones": [
	{ "name": "root" },
	{ "name": "scale", "parent": "root", "scaleX": 0.2, "scaleY": 0.2 },
	{ "name": "spine", "parent": "scale", "length": 214.3, "rotation": 90, "x": 1.1, "y": -1.42 },
	{ "name": "pipe", "parent": "spine", "length": 222.58, "rotation": 1.26, "x": 338.59, "y": 0.12 },
	{ "name": "flip", "parent": "spine", "x": 151.07 },
	{ "name": "arm", "parent": "flip", "length": 517.84, "rotation": -94.86, "x": -7.09, "y": -165.44 },
	{ "name": "rocket6", "parent": "arm", "length": 113.59, "rotation": 64.1, "x": 744.25, "y": 179.08 },
	{ "name": "wing3", "parent": "flip", "x": -55.33, "y": -494.71 },
	{ "name": "wing", "parent": "wing3", "length": 605.82, "rotation": -109.51, "x": -119.96, "y": -87.95 },
	{ "name": "wing2", "parent": "wing", "length": 637.16, "rotation": -12.83, "x": 605.82 },
	{ "name": "wing4", "parent": "wing3", "length": 367.53, "rotation": -64.96, "x": 83.25, "y": -24.46 },
	{ "name": "wing5", "parent": "wing4", "length": 422.71, "rotation": -32.9, "x": 367.53 },
	{ "name": "gun", "parent": "flip", "length": 225.95, "rotation": -179.48, "x": 441.28, "y": -376.82 },
	{ "name": "gun2", "parent": "gun", "x": 225.95 },
	{ "name": "tail", "parent": "flip", "length": 103.84, "rotation": 180, "x": 203.9, "y": -360.06 },
	{ "name": "gun3", "parent": "arm", "length": 78.54, "rotation": -71.51, "x": 706.83, "y": -231.82 },
	{ "name": "gun4", "parent": "gun3", "x": 114.19, "y": -0.92 },
	{ "name": "gun5", "parent": "gun3", "x": 245.44, "y": -7.6 },
	{ "name": "rocket7", "parent": "arm", "length": 113.59, "rotation": 64.1, "x": 580.61, "y": 231.88 },
	{ "name": "rocket8", "parent": "arm", "length": 113.59, "rotation": 64.1, "x": 827.4, "y": 47.87 },
	{ "name": "rocket9", "parent": "arm", "length": 113.59, "rotation": 64.1, "x": 771.7, "y": -37.31 },
	{ "name": "rocket10", "parent": "arm", "length": 113.59, "rotation": 64.1, "x": 507.45, "y": 123.12 },
	{ "name": "rocket11", "parent": "arm", "length": 113.59, "rotation": 64.1, "x": 609.84, "y": 19.52 },
	{ "name": "flip2", "parent": "spine", "x": 151.07, "scaleY": -1 },
	{ "name": "arm2", "parent": "flip2", "length": 517.84, "rotation": -94.86, "x": -7.09, "y": -165.44 },
	{ "name": "rocket12", "parent": "arm2", "length": 113.59, "rotation": 64.1, "x": 744.25, "y": 179.08 },
	{ "name": "gun6", "parent": "arm2", "length": 78.54, "rotation": -71.51, "x": 706.83, "y": -231.82 },
	{ "name": "gun7", "parent": "gun6", "x": 114.19, "y": -0.92 },
	{ "name": "gun8", "parent": "gun6", "x": 245.44, "y": -7.6 },
	{ "name": "rocket13", "parent": "arm2", "length": 113.59, "rotation": 64.1, "x": 580.61, "y": 231.88 },
	{ "name": "rocket14", "parent": "arm2", "length": 113.59, "rotation": 64.1, "x": 827.4, "y": 47.87 },
	{ "name": "rocket15", "parent": "arm2", "length": 113.59, "rotation": 64.1, "x": 771.7, "y": -37.31 },
	{ "name": "rocket16", "parent": "arm2", "length": 113.59, "rotation": 64.1, "x": 507.45, "y": 123.12 },
	{ "name": "rocket17", "parent": "arm2", "length": 113.59, "rotation": 64.1, "x": 609.84, "y": 19.52 },
	{ "name": "wing6", "parent": "flip2", "x": -55.33, "y": -494.71 },
	{ "name": "wing7", "parent": "wing6", "length": 605.82, "rotation": -109.51, "x": -119.96, "y": -87.95 },
	{ "name": "wing8", "parent": "wing7", "length": 637.16, "rotation": -12.83, "x": 605.82 },
	{ "name": "wing9", "parent": "wing6", "length": 367.53, "rotation": -64.96, "x": 83.25, "y": -24.46 },
	{ "name": "wing10", "parent": "wing9", "length": 422.71, "rotation": -32.9, "x": 367.53 },
	{ "name": "gun9", "parent": "flip2", "length": 225.95, "rotation": -179.48, "x": 441.28, "y": -376.82 },
	{ "name": "gun10", "parent": "gun9", "x": 225.95 },
	{ "name": "tail2", "parent": "flip2", "length": 103.84, "rotation": 180, "x": 203.9, "y": -360.06 }
],
"slots": [
	{ "name": "wing", "bone": "wing3", "attachment": "wing" },
	{ "name": "wing2", "bone": "wing6", "attachment": "wing" },
	{ "name": "arm3", "bone": "arm", "attachment": "arm3" },
	{ "name": "arm4", "bone": "arm2", "attachment": "arm3" },
	{ "name": "gun2", "bone": "gun3", "attachment": "gun2" },
	{ "name": "gun3", "bone": "gun6", "attachment": "gun2" },
	{ "name": "tail", "bone": "tail", "attachment": "tail" },
	{ "name": "tail2", "bone": "tail2", "attachment": "tail" },
	{ "name": "arm2", "bone": "arm", "attachment": "arm2" },
	{ "name": "arm5", "bone": "arm2", "attachment": "arm2" },
	{ "name": "body", "bone": "spine", "attachment": "body" },
	{ "name": "arm", "bone": "arm", "attachment": "arm" },
	{ "name": "arm6", "bone": "arm2", "attachment": "arm" },
	{ "name": "rocket6", "bone": "rocket6", "attachment": "rocket6" },
	{ "name": "rocket12", "bone": "rocket12", "attachment": "rocket6" },
	{ "name": "rocket7", "bone": "rocket7", "attachment": "rocket6" },
	{ "name": "rocket13", "bone": "rocket13", "attachment": "rocket6" },
	{ "name": "rocket8", "bone": "rocket8", "attachment": "rocket6" },
	{ "name": "rocket14", "bone": "rocket14", "attachment": "rocket6" },
	{ "name": "rocket9", "bone": "rocket9", "attachment": "rocket6" },
	{ "name": "rocket15", "bone": "rocket15", "attachment": "rocket6" },
	{ "name": "rocket10", "bone": "rocket10", "attachment": "rocket6" },
	{ "name": "rocket16", "bone": "rocket16", "attachment": "rocket6" },
	{ "name": "rocket11", "bone": "rocket11", "attachment": "rocket6" },
	{ "name": "rocket17", "bone": "rocket17", "attachment": "rocket6" },
	{ "name": "spine", "bone": "spine", "attachment": "spine" },
	{ "name": "pipe", "bone": "pipe", "attachment": "pipe" },
	{ "name": "neck", "bone": "spine", "attachment": "neck" },
	{ "name": "neck_armor", "bone": "spine", "attachment": "neck_armor" },
	{ "name": "gun", "bone": "gun", "attachment": "gun" },
	{ "name": "gun4", "bone": "gun9", "attachment": "gun" }
],
"skins": {
	"default": {
		"arm": {
			"arm": { "x": 460.13, "y": 53.3, "rotation": 4.86, "width": 1003, "height": 678 }
		},
		"arm2": {
			"arm2": { "x": 570.14, "y": -154.62, "rotation": 4.86, "width": 531, "height": 279 }
		},
		"arm3": {
			"arm3": { "x": 365.07, "y": -286.47, "rotation": 4.86, "width": 620, "height": 309 }
		},
		"arm4": {
			"arm3": { "x": 365.07, "y": -286.47, "rotation": 4.86, "width": 620, "height": 309 }
		},
		"arm5": {
			"arm2": { "x": 570.14, "y": -154.62, "rotation": 4.86, "width": 531, "height": 279 }
		},
		"arm6": {
			"arm": { "x": 460.13, "y": 53.3, "rotation": 4.86, "width": 1003, "height": 678 }
		},
		"body": {
			"body": { "x": 55.61, "y": 0.32, "rotation": -90.26, "width": 1029, "height": 779 }
		},
		"gun": {
			"gun": { "x": 120.23, "y": -1.48, "rotation": 89.48, "width": 361, "height": 494 }
		},
		"gun2": {
			"gun2": { "x": 194.09, "y": 38.71, "rotation": 76.37, "width": 431, "height": 573 }
		},
		"gun3": {
			"gun2": { "x": 194.09, "y": 38.71, "rotation": 76.37, "width": 431, "height": 573 }
		},
		"gun4": {
			"gun": { "x": 120.23, "y": -1.48, "rotation": 89.48, "width": 361, "height": 494 }
		},
		"neck": {
			"neck": { "x": -104.89, "y": 0.55, "rotation": -90.26, "width": 200, "height": 246 }
		},
		"neck_armor": {
			"neck_armor": { "x": 27.1, "y": -3.05, "rotation": -90.26, "width": 420, "height": 400 }
		},
		"pipe": {
			"pipe": { "x": 73.92, "y": -5.07, "rotation": -91.52, "width": 435, "height": 467 }
		},
		"rocket10": {
			"rocket6": { "x": 49.62, "y": 4.62, "rotation": -59.24, "width": 104, "height": 114 }
		},
		"rocket11": {
			"rocket6": { "x": 49.62, "y": 4.62, "rotation": -59.24, "width": 104, "height": 114 }
		},
		"rocket12": {
			"rocket6": { "x": 49.62, "y": 4.62, "rotation": -59.24, "width": 104, "height": 114 }
		},
		"rocket13": {
			"rocket6": { "x": 49.62, "y": 4.62, "rotation": -59.24, "width": 104, "height": 114 }
		},
		"rocket14": {
			"rocket6": { "x": 49.62, "y": 4.62, "rotation": -59.24, "width": 104, "height": 114 }
		},
		"rocket15": {
			"rocket6": { "x": 49.62, "y": 4.62, "rotation": -59.24, "width": 104, "height": 114 }
		},
		"rocket16": {
			"rocket6": { "x": 49.62, "y": 4.62, "rotation": -59.24, "width": 104, "height": 114 }
		},
		"rocket17": {
			"rocket6": { "x": 49.62, "y": 4.62, "rotation": -59.24, "width": 104, "height": 114 }
		},
		"rocket6": {
			"rocket6": { "x": 49.62, "y": 4.62, "rotation": -59.24, "width": 104, "height": 114 }
		},
		"rocket7": {
			"rocket6": { "x": 49.62, "y": 4.62, "rotation": -59.24, "width": 104, "height": 114 }
		},
		"rocket8": {
			"rocket6": { "x": 49.62, "y": 4.62, "rotation": -59.24, "width": 104, "height": 114 }
		},
		"rocket9": {
			"rocket6": { "x": 49.62, "y": 4.62, "rotation": -59.24, "width": 104, "height": 114 }
		},
		"spine": {
			"spine": { "x": 148.1, "y": -2.61, "rotation": -90.26, "width": 638, "height": 594 }
		},
		"tail": {
			"tail": { "x": -310.93, "y": 20.37, "rotation": 90, "width": 543, "height": 789 }
		},
		"tail2": {
			"tail": { "x": -310.93, "y": 20.37, "rotation": 90, "width": 543, "height": 789 }
		},
		"wing": {
			"wing": {
				"type": "mesh",
				"uvs": [ 0.52469, 0.01712, 0.66199, 0.08196, 0.64754, 0.1468, 1, 0.51105, 1, 0.89899, 1, 1, 0.88715, 0.88892, 0.77853, 0.81507, 0.63928, 0.71772, 0.50281, 0.64052, 0.34406, 0.5717, 0.17695, 0.50624, 0, 0.46932, 0, 0.29309, 0, 0.25731, 0, 0.22035, 0, 0.12927, 0.14287, 0.05843, 0.22841, 0.02196, 0.3063, 0, 0.42433, 0, 0.21316, 0.35351, 0.37191, 0.42568, 0.53344, 0.51128, 0.67131, 0.60191, 0.81474, 0.70765, 0.93032, 0.81507, 0.55922, 0.10035, 0.39703, 0.0839, 0.27739, 0.11583, 0.17703, 0.15261, 0.66598, 0.31963, 0.55518, 0.2766, 0.39636, 0.22911, 0.25478, 0.21427, 0.08858, 0.23505 ],
				"triangles": [ 6, 4, 5, 6, 26, 4, 26, 3, 4, 6, 7, 26, 7, 25, 26, 26, 25, 3, 7, 8, 25, 8, 24, 25, 8, 9, 24, 25, 24, 3, 9, 23, 24, 9, 10, 23, 23, 31, 24, 24, 31, 3, 10, 22, 23, 10, 11, 22, 23, 32, 31, 23, 22, 32, 11, 21, 22, 11, 12, 21, 12, 13, 21, 22, 21, 33, 22, 33, 32, 33, 21, 34, 13, 35, 21, 21, 35, 34, 32, 2, 31, 31, 2, 3, 13, 14, 35, 32, 27, 2, 32, 33, 27, 14, 15, 35, 35, 30, 34, 35, 15, 30, 34, 29, 33, 33, 28, 27, 33, 29, 28, 15, 16, 30, 34, 30, 29, 16, 17, 30, 30, 18, 29, 30, 17, 18, 2, 27, 1, 29, 19, 28, 29, 18, 19, 27, 28, 0, 28, 20, 0, 27, 0, 1, 28, 19, 20 ],
				"vertices": [ 1, 11, 260.36, 64.3, 1, 1, 11, 437.13, 21.75, 1, 3, 8, 563.36, 469.19, 0.036, 9, -145.55, 448.05, 0.06103, 11, 428.55, -46.39, 0.90297, 2, 9, 420.94, 365.62, 0.94675, 11, 910.03, -356.06, 0.05325, 2, 9, 633.19, 30.29, 0.99999, 11, 964.32, -749.19, 1.0E-5, 1, 9, 688.46, -57.03, 1, 1, 9, 510.11, -35.43, 1, 1, 9, 356.54, -43.22, 1, 1, 9, 158.2, -50.9, 1, 2, 8, 563.79, -66.48, 0.81997, 9, -26.22, -74.15, 0.18003, 1, 8, 355.78, -65.48, 1, 1, 8, 139.21, -71.16, 1, 2, 8, -79.07, -108.4, 0.99731, 10, -160.86, -232.78, 0.00269, 2, 8, -139.26, 61.54, 0.44519, 10, -84.57, -69.43, 0.55481, 2, 8, -151.49, 96.04, 0.24116, 10, -69.08, -36.27, 0.75884, 2, 8, -164.11, 131.68, 0.07626, 10, -53.08, -2.01, 0.92374, 1, 10, -13.65, 82.41, 1, 1, 10, 176.63, 73.52, 1, 1, 10, 287.98, 62.68, 1, 2, 10, 384.5, 42.4, 0.44998, 11, -8.78, 44.82, 0.55002, 1, 11, 135.38, 64.73, 1, 3, 8, 129.12, 91.03, 0.80063, 10, 127.41, -236.66, 0.16589, 11, -73.07, -329.13, 0.03349, 3, 8, 338.27, 86.79, 0.88514, 10, 273.51, -386.39, 0.01937, 11, 130.93, -375.49, 0.09549, 3, 8, 555.25, 70.75, 0.82693, 9, -65.01, 57.76, 0.10934, 11, 340.2, -434.99, 0.06373, 3, 8, 746.44, 40.11, 0.00216, 9, 128.21, 70.33, 0.97068, 11, 521.27, -503.58, 0.02717, 2, 9, 335.49, 73.51, 0.99258, 11, 711.26, -586.55, 0.00742, 2, 9, 514.68, 56.88, 0.9991, 11, 867.46, -675.91, 9.0E-4, 3, 8, 444.85, 477.62, 0.00563, 9, -262.99, 429.97, 0.0017, 11, 314.18, -14.21, 0.99268, 3, 8, 250.72, 426.71, 0.0141, 10, 449.54, -82.7, 0.01062, 11, 113.77, -24.9, 0.97528, 3, 8, 122.59, 346.66, 0.0426, 10, 302.06, -49.88, 0.76898, 11, -27.88, -77.44, 0.18842, 3, 8, 18.5, 269.88, 0.0418, 10, 174.02, -31.6, 0.95012, 11, -145.32, -131.64, 0.00808, 3, 8, 643.83, 310.12, 0.16102, 9, -31.78, 310.82, 0.37094, 11, 475.27, -218.42, 0.46803, 4, 8, 500.35, 306, 0.27638, 9, -170.77, 274.95, 0.10353, 10, 542.79, -343.83, 4.5E-4, 11, 333.91, -193.5, 0.61964, 4, 8, 299.55, 286.41, 0.30742, 9, -362.21, 211.27, 8.4E-4, 10, 385.93, -216.95, 0.09365, 11, 133.28, -172.17, 0.5981, 3, 8, 129.93, 242.43, 0.26956, 10, 234.18, -129.32, 0.5731, 11, -41.72, -181.01, 0.15733, 3, 8, -56.14, 153.97, 0.19639, 10, 39.51, -61.86, 0.8034, 11, -241.82, -230.1, 2.2E-4 ],
				"hull": 21,
				"edges": [ 26, 42, 42, 44, 44, 46, 46, 48, 48, 50, 50, 52, 10, 8, 52, 8, 24, 26, 24, 22, 22, 20, 20, 18, 18, 16, 16, 14, 14, 12, 12, 10, 32, 34, 34, 36, 36, 38, 38, 40, 40, 0, 0, 2, 2, 4, 4, 54, 56, 58, 58, 60, 30, 32, 60, 30, 8, 6, 4, 6, 6, 62, 62, 64, 66, 68, 68, 70, 26, 28, 28, 30, 70, 28, 56, 54 ],
				"width": 1233,
				"height": 1023
			}
		},
		"wing2": {
			"wing": {
				"type": "mesh",
				"uvs": [ 0.52469, 0.01712, 0.66199, 0.08196, 0.64754, 0.1468, 1, 0.51105, 1, 0.89899, 1, 1, 0.88715, 0.88892, 0.77853, 0.81507, 0.63928, 0.71772, 0.50281, 0.64052, 0.34406, 0.5717, 0.17695, 0.50624, 0, 0.46932, 0, 0.29309, 0, 0.25731, 0, 0.22035, 0, 0.12927, 0.14287, 0.05843, 0.22841, 0.02196, 0.3063, 0, 0.42433, 0, 0.21316, 0.35351, 0.37191, 0.42568, 0.53344, 0.51128, 0.67131, 0.60191, 0.81474, 0.70765, 0.93032, 0.81507, 0.55922, 0.10035, 0.39703, 0.0839, 0.27739, 0.11583, 0.17703, 0.15261, 0.66598, 0.31963, 0.55518, 0.2766, 0.39636, 0.22911, 0.25478, 0.21427, 0.08858, 0.23505 ],
				"triangles": [ 6, 4, 5, 6, 26, 4, 26, 3, 4, 6, 7, 26, 7, 25, 26, 26, 25, 3, 7, 8, 25, 8, 24, 25, 8, 9, 24, 25, 24, 3, 9, 23, 24, 9, 10, 23, 23, 31, 24, 24, 31, 3, 10, 22, 23, 10, 11, 22, 23, 32, 31, 23, 22, 32, 11, 21, 22, 11, 12, 21, 12, 13, 21, 22, 21, 33, 22, 33, 32, 33, 21, 34, 13, 35, 21, 21, 35, 34, 32, 2, 31, 31, 2, 3, 13, 14, 35, 32, 27, 2, 32, 33, 27, 14, 15, 35, 35, 30, 34, 35, 15, 30, 34, 29, 33, 33, 28, 27, 33, 29, 28, 15, 16, 30, 34, 30, 29, 16, 17, 30, 30, 18, 29, 30, 17, 18, 2, 27, 1, 29, 19, 28, 29, 18, 19, 27, 28, 0, 28, 20, 0, 27, 0, 1, 28, 19, 20 ],
				"vertices": [ 1, 38, 260.36, 64.3, 1, 1, 38, 437.13, 21.75, 1, 3, 35, 563.36, 469.19, 0.036, 36, -145.55, 448.05, 0.06103, 38, 428.55, -46.39, 0.90297, 2, 36, 420.94, 365.62, 0.94675, 38, 910.03, -356.06, 0.05325, 2, 36, 633.19, 30.29, 0.99999, 38, 964.32, -749.19, 1.0E-5, 1, 36, 688.46, -57.03, 1, 1, 36, 510.11, -35.43, 1, 1, 36, 356.54, -43.22, 1, 1, 36, 158.2, -50.9, 1, 2, 35, 563.79, -66.48, 0.81997, 36, -26.22, -74.15, 0.18003, 1, 35, 355.78, -65.48, 1, 1, 35, 139.21, -71.16, 1, 2, 35, -79.07, -108.4, 0.99731, 37, -160.86, -232.78, 0.00269, 2, 35, -139.26, 61.54, 0.44519, 37, -84.57, -69.43, 0.55481, 2, 35, -151.49, 96.04, 0.24116, 37, -69.08, -36.27, 0.75884, 2, 35, -164.11, 131.68, 0.07626, 37, -53.08, -2.01, 0.92374, 1, 37, -13.65, 82.41, 1, 1, 37, 176.63, 73.52, 1, 1, 37, 287.98, 62.68, 1, 2, 37, 384.5, 42.4, 0.44998, 38, -8.78, 44.82, 0.55002, 1, 38, 135.38, 64.73, 1, 3, 35, 129.12, 91.03, 0.80063, 37, 127.41, -236.66, 0.16589, 38, -73.07, -329.13, 0.03349, 3, 35, 338.27, 86.79, 0.88514, 37, 273.51, -386.39, 0.01937, 38, 130.93, -375.49, 0.09549, 3, 35, 555.25, 70.75, 0.82693, 36, -65.01, 57.76, 0.10934, 38, 340.2, -434.99, 0.06373, 3, 35, 746.44, 40.11, 0.00216, 36, 128.21, 70.33, 0.97068, 38, 521.27, -503.58, 0.02717, 2, 36, 335.49, 73.51, 0.99258, 38, 711.26, -586.55, 0.00742, 2, 36, 514.68, 56.88, 0.9991, 38, 867.46, -675.91, 9.0E-4, 3, 35, 444.85, 477.62, 0.00563, 36, -262.99, 429.97, 0.0017, 38, 314.18, -14.21, 0.99268, 3, 35, 250.72, 426.71, 0.0141, 37, 449.54, -82.7, 0.01062, 38, 113.77, -24.9, 0.97528, 3, 35, 122.59, 346.66, 0.0426, 37, 302.06, -49.88, 0.76898, 38, -27.88, -77.44, 0.18842, 3, 35, 18.5, 269.88, 0.0418, 37, 174.02, -31.6, 0.95012, 38, -145.32, -131.64, 0.00808, 3, 35, 643.83, 310.12, 0.16102, 36, -31.78, 310.82, 0.37094, 38, 475.27, -218.42, 0.46803, 4, 35, 500.35, 306, 0.27638, 36, -170.77, 274.95, 0.10353, 37, 542.79, -343.83, 4.5E-4, 38, 333.91, -193.5, 0.61964, 4, 35, 299.55, 286.41, 0.30742, 36, -362.21, 211.27, 8.4E-4, 37, 385.93, -216.95, 0.09365, 38, 133.28, -172.17, 0.5981, 3, 35, 129.93, 242.43, 0.26956, 37, 234.18, -129.32, 0.5731, 38, -41.72, -181.01, 0.15733, 3, 35, -56.14, 153.97, 0.19639, 37, 39.51, -61.86, 0.8034, 38, -241.82, -230.1, 2.2E-4 ],
				"hull": 21,
				"edges": [ 26, 42, 42, 44, 44, 46, 46, 48, 48, 50, 50, 52, 10, 8, 52, 8, 24, 26, 24, 22, 22, 20, 20, 18, 18, 16, 16, 14, 14, 12, 12, 10, 32, 34, 34, 36, 36, 38, 38, 40, 40, 0, 0, 2, 2, 4, 4, 54, 56, 58, 58, 60, 30, 32, 60, 30, 8, 6, 4, 6, 6, 62, 62, 64, 66, 68, 68, 70, 26, 28, 28, 30, 70, 28, 56, 54 ],
				"width": 1233,
				"height": 1023
			}
		}
	}
},
"animations": {
	"attack1": {
		"bones": {
			"spine": {
				"rotate": [
					{ "time": 0, "angle": 0, "curve": "stepped" },
					{ "time": 0.3333, "angle": 0, "curve": "stepped" },
					{ "time": 2.8333, "angle": 0, "curve": "stepped" },
					{ "time": 3.1667, "angle": 0, "curve": "stepped" },
					{ "time": 3.5, "angle": 0 }
				],
				"translate": [
					{
						"time": 0,
						"x": 0,
						"y": 0,
						"curve": [ 0.514, 0.01, 0.518, 0.99 ]
					},
					{
						"time": 0.3333,
						"x": 0,
						"y": 81.27,
						"curve": [ 0.613, 0.01, 1, 0.77 ]
					},
					{ "time": 0.5, "x": 0, "y": -59.1 },
					{ "time": 0.5667, "x": 0, "y": -27.33 },
					{ "time": 0.6333, "x": 0, "y": -59.1 },
					{ "time": 0.7, "x": 0, "y": -27.33 },
					{ "time": 0.7667, "x": 0, "y": -59.1 },
					{ "time": 0.8333, "x": 0, "y": -27.33 },
					{ "time": 0.9, "x": 0, "y": -59.1 },
					{ "time": 0.9667, "x": 0, "y": -27.33 },
					{ "time": 1.0333, "x": 0, "y": -59.1 },
					{ "time": 1.1, "x": 0, "y": -27.33 },
					{ "time": 1.1667, "x": 0, "y": -59.1 },
					{ "time": 1.2333, "x": 0, "y": -27.33 },
					{ "time": 1.3, "x": 0, "y": -59.1 },
					{ "time": 1.3667, "x": 0, "y": -27.33 },
					{ "time": 1.4333, "x": 0, "y": -59.1 },
					{ "time": 1.5, "x": 0, "y": -27.33 },
					{ "time": 1.5667, "x": 0, "y": -59.1 },
					{ "time": 1.6333, "x": 0, "y": -27.33 },
					{ "time": 1.7, "x": 0, "y": -59.1 },
					{ "time": 1.7667, "x": 0, "y": -27.33 },
					{ "time": 1.8333, "x": 0, "y": -59.1 },
					{ "time": 1.9, "x": 0, "y": -27.33 },
					{ "time": 1.9667, "x": 0, "y": -59.1 },
					{ "time": 2.0333, "x": 0, "y": -27.33 },
					{ "time": 2.1, "x": 0, "y": -59.1 },
					{ "time": 2.1667, "x": 0, "y": -27.33 },
					{ "time": 2.2333, "x": 0, "y": -59.1 },
					{ "time": 2.3, "x": 0, "y": -27.33 },
					{ "time": 2.3667, "x": 0, "y": -59.1 },
					{ "time": 2.4333, "x": 0, "y": -27.33 },
					{ "time": 2.5, "x": 0, "y": -59.1 },
					{ "time": 2.5667, "x": 0, "y": -27.33 },
					{ "time": 2.6333, "x": 0, "y": -59.1 },
					{ "time": 2.7, "x": 0, "y": -27.33 },
					{ "time": 2.7667, "x": 0, "y": -59.1 },
					{ "time": 2.8333, "x": 0, "y": -27.33 },
					{
						"time": 3.1667,
						"x": 0,
						"y": 81.27,
						"curve": [ 0.613, 0.01, 1, 0.77 ]
					},
					{ "time": 3.5, "x": 0, "y": 0 }
				],
				"scale": [
					{ "time": 0, "x": 1, "y": 1, "curve": "stepped" },
					{ "time": 0.3333, "x": 1, "y": 1, "curve": "stepped" },
					{ "time": 2.8333, "x": 1, "y": 1, "curve": "stepped" },
					{ "time": 3.1667, "x": 1, "y": 1, "curve": "stepped" },
					{ "time": 3.5, "x": 1, "y": 1 }
				]
			},
			"wing7": {
				"rotate": [
					{
						"time": 0,
						"angle": 0,
						"curve": [ 0.25, 0, 0.75, 1 ]
					},
					{
						"time": 0.3333,
						"angle": -27.27,
						"curve": [ 0.25, 0, 0.75, 1 ]
					},
					{
						"time": 0.5,
						"angle": 27.53,
						"curve": [ 0.25, 0, 0.75, 1 ]
					},
					{
						"time": 0.6667,
						"angle": -3.78,
						"curve": [ 0.25, 0, 0.75, 1 ]
					},
					{
						"time": 0.8333,
						"angle": 27.53,
						"curve": [ 0.25, 0, 0.75, 1 ]
					},
					{
						"time": 1,
						"angle": -3.78,
						"curve": [ 0.25, 0, 0.75, 1 ]
					},
					{
						"time": 1.1667,
						"angle": 27.53,
						"curve": [ 0.25, 0, 0.75, 1 ]
					},
					{
						"time": 1.3333,
						"angle": -3.78,
						"curve": [ 0.25, 0, 0.75, 1 ]
					},
					{
						"time": 1.5,
						"angle": 27.53,
						"curve": [ 0.25, 0, 0.75, 1 ]
					},
					{
						"time": 1.6667,
						"angle": -3.78,
						"curve": [ 0.25, 0, 0.75, 1 ]
					},
					{
						"time": 1.8333,
						"angle": 27.53,
						"curve": [ 0.25, 0, 0.75, 1 ]
					},
					{
						"time": 2,
						"angle": -3.78,
						"curve": [ 0.25, 0, 0.75, 1 ]
					},
					{
						"time": 2.1667,
						"angle": 27.53,
						"curve": [ 0.25, 0, 0.75, 1 ]
					},
					{
						"time": 2.3333,
						"angle": -3.78,
						"curve": [ 0.25, 0, 0.75, 1 ]
					},
					{
						"time": 2.5,
						"angle": 27.53,
						"curve": [ 0.25, 0, 0.75, 1 ]
					},
					{
						"time": 2.6667,
						"angle": -3.78,
						"curve": [ 0.25, 0, 0.75, 1 ]
					},
					{ "time": 2.8333, "angle": 27.53 },
					{
						"time": 3.1667,
						"angle": -27.27,
						"curve": [ 0.25, 0, 0.75, 1 ]
					},
					{ "time": 3.5, "angle": 0 }
				],
				"translate": [
					{ "time": 0, "x": 0, "y": 0, "curve": "stepped" },
					{ "time": 0.3333, "x": 0, "y": 0, "curve": "stepped" },
					{ "time": 2.8333, "x": 0, "y": 0, "curve": "stepped" },
					{ "time": 3.1667, "x": 0, "y": 0, "curve": "stepped" },
					{ "time": 3.5, "x": 0, "y": 0 }
				],
				"scale": [
					{ "time": 0, "x": 1, "y": 1, "curve": "stepped" },
					{ "time": 0.3333, "x": 1, "y": 1, "curve": "stepped" },
					{ "time": 2.8333, "x": 1, "y": 1, "curve": "stepped" },
					{ "time": 3.1667, "x": 1, "y": 1, "curve": "stepped" },
					{ "time": 3.5, "x": 1, "y": 1 }
				]
			},
			"wing": {
				"rotate": [
					{
						"time": 0,
						"angle": 0,
						"curve": [ 0.25, 0, 0.75, 1 ]
					},
					{
						"time": 0.3333,
						"angle": -27.27,
						"curve": [ 0.25, 0, 0.75, 1 ]
					},
					{
						"time": 0.5,
						"angle": 27.53,
						"curve": [ 0.25, 0, 0.75, 1 ]
					},
					{
						"time": 0.6667,
						"angle": -3.78,
						"curve": [ 0.25, 0, 0.75, 1 ]
					},
					{
						"time": 0.8333,
						"angle": 27.53,
						"curve": [ 0.25, 0, 0.75, 1 ]
					},
					{
						"time": 1,
						"angle": -3.78,
						"curve": [ 0.25, 0, 0.75, 1 ]
					},
					{
						"time": 1.1667,
						"angle": 27.53,
						"curve": [ 0.25, 0, 0.75, 1 ]
					},
					{
						"time": 1.3333,
						"angle": -3.78,
						"curve": [ 0.25, 0, 0.75, 1 ]
					},
					{
						"time": 1.5,
						"angle": 27.53,
						"curve": [ 0.25, 0, 0.75, 1 ]
					},
					{
						"time": 1.6667,
						"angle": -3.78,
						"curve": [ 0.25, 0, 0.75, 1 ]
					},
					{
						"time": 1.8333,
						"angle": 27.53,
						"curve": [ 0.25, 0, 0.75, 1 ]
					},
					{
						"time": 2,
						"angle": -3.78,
						"curve": [ 0.25, 0, 0.75, 1 ]
					},
					{
						"time": 2.1667,
						"angle": 27.53,
						"curve": [ 0.25, 0, 0.75, 1 ]
					},
					{
						"time": 2.3333,
						"angle": -3.78,
						"curve": [ 0.25, 0, 0.75, 1 ]
					},
					{
						"time": 2.5,
						"angle": 27.53,
						"curve": [ 0.25, 0, 0.75, 1 ]
					},
					{
						"time": 2.6667,
						"angle": -3.78,
						"curve": [ 0.25, 0, 0.75, 1 ]
					},
					{ "time": 2.8333, "angle": 27.53 },
					{
						"time": 3.1667,
						"angle": -27.27,
						"curve": [ 0.25, 0, 0.75, 1 ]
					},
					{ "time": 3.5, "angle": 0 }
				],
				"translate": [
					{ "time": 0, "x": 0, "y": 0, "curve": "stepped" },
					{ "time": 0.3333, "x": 0, "y": 0, "curve": "stepped" },
					{ "time": 2.8333, "x": 0, "y": 0, "curve": "stepped" },
					{ "time": 3.1667, "x": 0, "y": 0, "curve": "stepped" },
					{ "time": 3.5, "x": 0, "y": 0 }
				],
				"scale": [
					{ "time": 0, "x": 1, "y": 1, "curve": "stepped" },
					{ "time": 0.3333, "x": 1, "y": 1, "curve": "stepped" },
					{ "time": 2.8333, "x": 1, "y": 1, "curve": "stepped" },
					{ "time": 3.1667, "x": 1, "y": 1, "curve": "stepped" },
					{ "time": 3.5, "x": 1, "y": 1 }
				]
			},
			"wing4": {
				"rotate": [
					{
						"time": 0,
						"angle": -9.16,
						"curve": [ 0.36, 0.64, 0.695, 1 ]
					},
					{
						"time": 0.0333,
						"angle": -8,
						"curve": [ 0.25, 0, 0.75, 1 ]
					},
					{
						"time": 0.3667,
						"angle": -35.27,
						"curve": [ 0.25, 0, 0.75, 1 ]
					},
					{
						"time": 0.5333,
						"angle": 19.53,
						"curve": [ 0.25, 0, 0.75, 1 ]
					},
					{
						"time": 0.7,
						"angle": -11.78,
						"curve": [ 0.25, 0, 0.75, 1 ]
					},
					{
						"time": 0.8667,
						"angle": 19.53,
						"curve": [ 0.25, 0, 0.75, 1 ]
					},
					{
						"time": 1.0333,
						"angle": -11.78,
						"curve": [ 0.25, 0, 0.75, 1 ]
					},
					{
						"time": 1.2,
						"angle": 19.53,
						"curve": [ 0.25, 0, 0.75, 1 ]
					},
					{
						"time": 1.3667,
						"angle": -11.78,
						"curve": [ 0.25, 0, 0.75, 1 ]
					},
					{
						"time": 1.5333,
						"angle": 19.53,
						"curve": [ 0.25, 0, 0.75, 1 ]
					},
					{
						"time": 1.7,
						"angle": -11.78,
						"curve": [ 0.25, 0, 0.75, 1 ]
					},
					{
						"time": 1.8667,
						"angle": 19.53,
						"curve": [ 0.25, 0, 0.75, 1 ]
					},
					{
						"time": 2.0333,
						"angle": -11.78,
						"curve": [ 0.25, 0, 0.75, 1 ]
					},
					{
						"time": 2.2,
						"angle": 19.53,
						"curve": [ 0.25, 0, 0.75, 1 ]
					},
					{
						"time": 2.3667,
						"angle": -11.78,
						"curve": [ 0.25, 0, 0.75, 1 ]
					},
					{
						"time": 2.5333,
						"angle": 19.53,
						"curve": [ 0.25, 0, 0.75, 1 ]
					},
					{
						"time": 2.7,
						"angle": -11.78,
						"curve": [ 0.25, 0, 0.75, 1 ]
					},
					{ "time": 2.8667, "angle": 19.53 },
					{
						"time": 3.2,
						"angle": -35.27,
						"curve": [ 0.245, 0, 0.711, 0.83 ]
					},
					{ "time": 3.5, "angle": -9.16 }
				],
				"translate": [
					{ "time": 0, "x": 0, "y": 0, "curve": "stepped" },
					{ "time": 0.3333, "x": 0, "y": 0, "curve": "stepped" },
					{ "time": 2.8333, "x": 0, "y": 0, "curve": "stepped" },
					{ "time": 3.1667, "x": 0, "y": 0, "curve": "stepped" },
					{ "time": 3.5, "x": 0, "y": 0 }
				],
				"scale": [
					{ "time": 0, "x": 1, "y": 1, "curve": "stepped" },
					{ "time": 0.3333, "x": 1, "y": 1, "curve": "stepped" },
					{ "time": 2.8333, "x": 1, "y": 1, "curve": "stepped" },
					{ "time": 3.1667, "x": 1, "y": 1, "curve": "stepped" },
					{ "time": 3.5, "x": 1, "y": 1 }
				]
			},
			"wing9": {
				"rotate": [
					{
						"time": 0,
						"angle": -9.16,
						"curve": [ 0.36, 0.64, 0.695, 1 ]
					},
					{
						"time": 0.0333,
						"angle": -8,
						"curve": [ 0.25, 0, 0.75, 1 ]
					},
					{
						"time": 0.3667,
						"angle": -35.27,
						"curve": [ 0.25, 0, 0.75, 1 ]
					},
					{
						"time": 0.5333,
						"angle": 19.53,
						"curve": [ 0.25, 0, 0.75, 1 ]
					},
					{
						"time": 0.7,
						"angle": -11.78,
						"curve": [ 0.25, 0, 0.75, 1 ]
					},
					{
						"time": 0.8667,
						"angle": 19.53,
						"curve": [ 0.25, 0, 0.75, 1 ]
					},
					{
						"time": 1.0333,
						"angle": -11.78,
						"curve": [ 0.25, 0, 0.75, 1 ]
					},
					{
						"time": 1.2,
						"angle": 19.53,
						"curve": [ 0.25, 0, 0.75, 1 ]
					},
					{
						"time": 1.3667,
						"angle": -11.78,
						"curve": [ 0.25, 0, 0.75, 1 ]
					},
					{
						"time": 1.5333,
						"angle": 19.53,
						"curve": [ 0.25, 0, 0.75, 1 ]
					},
					{
						"time": 1.7,
						"angle": -11.78,
						"curve": [ 0.25, 0, 0.75, 1 ]
					},
					{
						"time": 1.8667,
						"angle": 19.53,
						"curve": [ 0.25, 0, 0.75, 1 ]
					},
					{
						"time": 2.0333,
						"angle": -11.78,
						"curve": [ 0.25, 0, 0.75, 1 ]
					},
					{
						"time": 2.2,
						"angle": 19.53,
						"curve": [ 0.25, 0, 0.75, 1 ]
					},
					{
						"time": 2.3667,
						"angle": -11.78,
						"curve": [ 0.25, 0, 0.75, 1 ]
					},
					{
						"time": 2.5333,
						"angle": 19.53,
						"curve": [ 0.25, 0, 0.75, 1 ]
					},
					{
						"time": 2.7,
						"angle": -11.78,
						"curve": [ 0.25, 0, 0.75, 1 ]
					},
					{ "time": 2.8667, "angle": 19.53 },
					{
						"time": 3.2,
						"angle": -35.27,
						"curve": [ 0.245, 0, 0.711, 0.83 ]
					},
					{ "time": 3.5, "angle": -9.16 }
				],
				"translate": [
					{ "time": 0, "x": 0, "y": 0, "curve": "stepped" },
					{ "time": 0.3333, "x": 0, "y": 0, "curve": "stepped" },
					{ "time": 2.8333, "x": 0, "y": 0, "curve": "stepped" },
					{ "time": 3.1667, "x": 0, "y": 0, "curve": "stepped" },
					{ "time": 3.5, "x": 0, "y": 0 }
				],
				"scale": [
					{ "time": 0, "x": 1, "y": 1, "curve": "stepped" },
					{ "time": 0.3333, "x": 1, "y": 1, "curve": "stepped" },
					{ "time": 2.8333, "x": 1, "y": 1, "curve": "stepped" },
					{ "time": 3.1667, "x": 1, "y": 1, "curve": "stepped" },
					{ "time": 3.5, "x": 1, "y": 1 }
				]
			},
			"arm2": {
				"rotate": [
					{ "time": 0, "angle": 0, "curve": "stepped" },
					{ "time": 0.3333, "angle": 0, "curve": "stepped" },
					{ "time": 2.8333, "angle": 0, "curve": "stepped" },
					{ "time": 3.1667, "angle": 0, "curve": "stepped" },
					{ "time": 3.5, "angle": 0 }
				],
				"translate": [
					{ "time": 0, "x": 0, "y": 0, "curve": "stepped" },
					{ "time": 0.3333, "x": 0, "y": 0, "curve": "stepped" },
					{ "time": 2.8333, "x": 0, "y": 0, "curve": "stepped" },
					{ "time": 3.1667, "x": 0, "y": 0, "curve": "stepped" },
					{ "time": 3.5, "x": 0, "y": 0 }
				],
				"scale": [
					{ "time": 0, "x": 1, "y": 1, "curve": "stepped" },
					{ "time": 0.3333, "x": 1, "y": 1, "curve": "stepped" },
					{ "time": 2.8333, "x": 1, "y": 1, "curve": "stepped" },
					{ "time": 3.1667, "x": 1, "y": 1, "curve": "stepped" },
					{ "time": 3.5, "x": 1, "y": 1 }
				]
			},
			"arm": {
				"rotate": [
					{ "time": 0, "angle": 0, "curve": "stepped" },
					{ "time": 0.3333, "angle": 0, "curve": "stepped" },
					{ "time": 2.8333, "angle": 0, "curve": "stepped" },
					{ "time": 3.1667, "angle": 0, "curve": "stepped" },
					{ "time": 3.5, "angle": 0 }
				],
				"translate": [
					{ "time": 0, "x": 0, "y": 0, "curve": "stepped" },
					{ "time": 0.3333, "x": 0, "y": 0, "curve": "stepped" },
					{ "time": 2.8333, "x": 0, "y": 0, "curve": "stepped" },
					{ "time": 3.1667, "x": 0, "y": 0, "curve": "stepped" },
					{ "time": 3.5, "x": 0, "y": 0 }
				],
				"scale": [
					{ "time": 0, "x": 1, "y": 1, "curve": "stepped" },
					{ "time": 0.3333, "x": 1, "y": 1, "curve": "stepped" },
					{ "time": 2.8333, "x": 1, "y": 1, "curve": "stepped" },
					{ "time": 3.1667, "x": 1, "y": 1, "curve": "stepped" },
					{ "time": 3.5, "x": 1, "y": 1 }
				]
			},
			"tail2": {
				"rotate": [
					{
						"time": 0,
						"angle": 0,
						"curve": [ 0.25, 0, 0.75, 1 ]
					},
					{
						"time": 0.1667,
						"angle": 13.94,
						"curve": [ 0.25, 0, 0.75, 1 ]
					},
					{
						"time": 0.3333,
						"angle": 0,
						"curve": [ 0.25, 0, 0.75, 1 ]
					},
					{
						"time": 0.5,
						"angle": 13.94,
						"curve": [ 0.25, 0, 0.75, 1 ]
					},
					{
						"time": 0.6667,
						"angle": 0,
						"curve": [ 0.25, 0, 0.75, 1 ]
					},
					{
						"time": 0.8333,
						"angle": 13.94,
						"curve": [ 0.25, 0, 0.75, 1 ]
					},
					{
						"time": 1,
						"angle": 0,
						"curve": [ 0.25, 0, 0.75, 1 ]
					},
					{
						"time": 1.1667,
						"angle": 13.94,
						"curve": [ 0.25, 0, 0.75, 1 ]
					},
					{
						"time": 1.3333,
						"angle": 0,
						"curve": [ 0.25, 0, 0.75, 1 ]
					},
					{
						"time": 1.5,
						"angle": 13.94,
						"curve": [ 0.25, 0, 0.75, 1 ]
					},
					{
						"time": 1.6667,
						"angle": 0,
						"curve": [ 0.25, 0, 0.75, 1 ]
					},
					{
						"time": 1.8333,
						"angle": 13.94,
						"curve": [ 0.25, 0, 0.75, 1 ]
					},
					{
						"time": 2,
						"angle": 0,
						"curve": [ 0.25, 0, 0.75, 1 ]
					},
					{
						"time": 2.1667,
						"angle": 13.94,
						"curve": [ 0.25, 0, 0.75, 1 ]
					},
					{
						"time": 2.3333,
						"angle": 0,
						"curve": [ 0.25, 0, 0.75, 1 ]
					},
					{
						"time": 2.5,
						"angle": 13.94,
						"curve": [ 0.25, 0, 0.75, 1 ]
					},
					{
						"time": 2.6667,
						"angle": 0,
						"curve": [ 0.25, 0, 0.75, 1 ]
					},
					{
						"time": 2.8333,
						"angle": 13.94,
						"curve": [ 0.25, 0, 0.75, 1 ]
					},
					{ "time": 3.1667, "angle": 0, "curve": "stepped" },
					{ "time": 3.5, "angle": 0 }
				],
				"translate": [
					{ "time": 0, "x": 0, "y": 0, "curve": "stepped" },
					{ "time": 0.3333, "x": 0, "y": 0, "curve": "stepped" },
					{ "time": 2.8333, "x": 0, "y": 0, "curve": "stepped" },
					{ "time": 3.1667, "x": 0, "y": 0, "curve": "stepped" },
					{ "time": 3.5, "x": 0, "y": 0 }
				],
				"scale": [
					{ "time": 0, "x": 1, "y": 1, "curve": "stepped" },
					{ "time": 0.3333, "x": 1, "y": 1, "curve": "stepped" },
					{ "time": 2.8333, "x": 1, "y": 1, "curve": "stepped" },
					{ "time": 3.1667, "x": 1, "y": 1, "curve": "stepped" },
					{ "time": 3.5, "x": 1, "y": 1 }
				]
			},
			"tail": {
				"rotate": [
					{
						"time": 0,
						"angle": 0,
						"curve": [ 0.25, 0, 0.75, 1 ]
					},
					{
						"time": 0.1667,
						"angle": 13.94,
						"curve": [ 0.25, 0, 0.75, 1 ]
					},
					{
						"time": 0.3333,
						"angle": 0,
						"curve": [ 0.25, 0, 0.75, 1 ]
					},
					{
						"time": 0.5,
						"angle": 13.94,
						"curve": [ 0.25, 0, 0.75, 1 ]
					},
					{
						"time": 0.6667,
						"angle": 0,
						"curve": [ 0.25, 0, 0.75, 1 ]
					},
					{
						"time": 0.8333,
						"angle": 13.94,
						"curve": [ 0.25, 0, 0.75, 1 ]
					},
					{
						"time": 1,
						"angle": 0,
						"curve": [ 0.25, 0, 0.75, 1 ]
					},
					{
						"time": 1.1667,
						"angle": 13.94,
						"curve": [ 0.25, 0, 0.75, 1 ]
					},
					{
						"time": 1.3333,
						"angle": 0,
						"curve": [ 0.25, 0, 0.75, 1 ]
					},
					{
						"time": 1.5,
						"angle": 13.94,
						"curve": [ 0.25, 0, 0.75, 1 ]
					},
					{
						"time": 1.6667,
						"angle": 0,
						"curve": [ 0.25, 0, 0.75, 1 ]
					},
					{
						"time": 1.8333,
						"angle": 13.94,
						"curve": [ 0.25, 0, 0.75, 1 ]
					},
					{
						"time": 2,
						"angle": 0,
						"curve": [ 0.25, 0, 0.75, 1 ]
					},
					{
						"time": 2.1667,
						"angle": 13.94,
						"curve": [ 0.25, 0, 0.75, 1 ]
					},
					{
						"time": 2.3333,
						"angle": 0,
						"curve": [ 0.25, 0, 0.75, 1 ]
					},
					{
						"time": 2.5,
						"angle": 13.94,
						"curve": [ 0.25, 0, 0.75, 1 ]
					},
					{
						"time": 2.6667,
						"angle": 0,
						"curve": [ 0.25, 0, 0.75, 1 ]
					},
					{
						"time": 2.8333,
						"angle": 13.94,
						"curve": [ 0.25, 0, 0.75, 1 ]
					},
					{ "time": 3.1667, "angle": 0, "curve": "stepped" },
					{ "time": 3.5, "angle": 0 }
				],
				"translate": [
					{ "time": 0, "x": 0, "y": 0, "curve": "stepped" },
					{ "time": 0.3333, "x": 0, "y": 0, "curve": "stepped" },
					{ "time": 2.8333, "x": 0, "y": 0, "curve": "stepped" },
					{ "time": 3.1667, "x": 0, "y": 0, "curve": "stepped" },
					{ "time": 3.5, "x": 0, "y": 0 }
				],
				"scale": [
					{ "time": 0, "x": 1, "y": 1, "curve": "stepped" },
					{ "time": 0.3333, "x": 1, "y": 1, "curve": "stepped" },
					{ "time": 2.8333, "x": 1, "y": 1, "curve": "stepped" },
					{ "time": 3.1667, "x": 1, "y": 1, "curve": "stepped" },
					{ "time": 3.5, "x": 1, "y": 1 }
				]
			},
			"pipe": {
				"rotate": [
					{ "time": 0, "angle": 0, "curve": "stepped" },
					{ "time": 0.3333, "angle": 0, "curve": "stepped" },
					{ "time": 2.8333, "angle": 0, "curve": "stepped" },
					{ "time": 3.1667, "angle": 0, "curve": "stepped" },
					{ "time": 3.5, "angle": 0 }
				],
				"translate": [
					{ "time": 0, "x": 0, "y": 0, "curve": "stepped" },
					{ "time": 0.3333, "x": 0, "y": 0, "curve": "stepped" },
					{ "time": 2.8333, "x": 0, "y": 0, "curve": "stepped" },
					{ "time": 3.1667, "x": 0, "y": 0, "curve": "stepped" },
					{ "time": 3.5, "x": 0, "y": 0 }
				],
				"scale": [
					{ "time": 0, "x": 1, "y": 1, "curve": "stepped" },
					{ "time": 0.3333, "x": 1, "y": 1, "curve": "stepped" },
					{ "time": 2.8333, "x": 1, "y": 1, "curve": "stepped" },
					{ "time": 3.1667, "x": 1, "y": 1, "curve": "stepped" },
					{ "time": 3.5, "x": 1, "y": 1 }
				]
			},
			"gun9": {
				"rotate": [
					{ "time": 0, "angle": 0, "curve": "stepped" },
					{ "time": 0.3333, "angle": 0, "curve": "stepped" },
					{ "time": 2.8333, "angle": 0, "curve": "stepped" },
					{ "time": 3.1667, "angle": 0, "curve": "stepped" },
					{ "time": 3.5, "angle": 0 }
				],
				"translate": [
					{ "time": 0, "x": 0, "y": 0 },
					{ "time": 0.3333, "x": 154.91, "y": 0 },
					{ "time": 0.5, "x": 43.69, "y": 0 },
					{ "time": 0.5667, "x": 67.52, "y": 0 },
					{ "time": 0.6333, "x": 43.69, "y": 0 },
					{ "time": 0.7, "x": 67.52, "y": 0 },
					{ "time": 0.7667, "x": 43.69, "y": 0 },
					{ "time": 0.8333, "x": 67.52, "y": 0 },
					{ "time": 0.9, "x": 43.69, "y": 0 },
					{ "time": 0.9667, "x": 67.52, "y": 0 },
					{ "time": 1.0333, "x": 43.69, "y": 0 },
					{ "time": 1.1, "x": 67.52, "y": 0 },
					{ "time": 1.1667, "x": 43.69, "y": 0 },
					{ "time": 1.2333, "x": 67.52, "y": 0 },
					{ "time": 1.3, "x": 43.69, "y": 0 },
					{ "time": 1.3667, "x": 67.52, "y": 0 },
					{ "time": 1.4333, "x": 43.69, "y": 0 },
					{ "time": 1.5, "x": 67.52, "y": 0 },
					{ "time": 1.5667, "x": 43.69, "y": 0 },
					{ "time": 1.6333, "x": 67.52, "y": 0 },
					{ "time": 1.7, "x": 43.69, "y": 0 },
					{ "time": 1.7667, "x": 67.52, "y": 0 },
					{ "time": 1.8333, "x": 43.69, "y": 0 },
					{ "time": 1.9, "x": 67.52, "y": 0 },
					{ "time": 1.9667, "x": 43.69, "y": 0 },
					{ "time": 2.0333, "x": 67.52, "y": 0 },
					{ "time": 2.1, "x": 43.69, "y": 0 },
					{ "time": 2.1667, "x": 67.52, "y": 0 },
					{ "time": 2.2333, "x": 43.69, "y": 0 },
					{ "time": 2.3, "x": 67.52, "y": 0 },
					{ "time": 2.3667, "x": 43.69, "y": 0 },
					{ "time": 2.4333, "x": 67.52, "y": 0 },
					{ "time": 2.5, "x": 43.69, "y": 0 },
					{ "time": 2.5667, "x": 67.52, "y": 0 },
					{ "time": 2.6333, "x": 43.69, "y": 0 },
					{ "time": 2.7, "x": 67.52, "y": 0 },
					{ "time": 2.7667, "x": 43.69, "y": 0 },
					{ "time": 2.8333, "x": 67.52, "y": 0 },
					{ "time": 3.1667, "x": 154.91, "y": 0 },
					{ "time": 3.5, "x": 0, "y": 0 }
				],
				"scale": [
					{ "time": 0, "x": 1, "y": 1 },
					{ "time": 0.3333, "x": 1.3, "y": 1.3, "curve": "stepped" },
					{ "time": 2.8333, "x": 1.3, "y": 1.3, "curve": "stepped" },
					{ "time": 3.1667, "x": 1.3, "y": 1.3 },
					{ "time": 3.5, "x": 1, "y": 1 }
				]
			},
			"gun": {
				"rotate": [
					{ "time": 0, "angle": 0, "curve": "stepped" },
					{ "time": 0.3333, "angle": 0, "curve": "stepped" },
					{ "time": 2.8333, "angle": 0, "curve": "stepped" },
					{ "time": 3.1667, "angle": 0, "curve": "stepped" },
					{ "time": 3.5, "angle": 0 }
				],
				"translate": [
					{ "time": 0, "x": 0, "y": 0 },
					{ "time": 0.3333, "x": 154.91, "y": 0 },
					{ "time": 0.5, "x": 43.69, "y": 0 },
					{ "time": 0.5667, "x": 67.52, "y": 0 },
					{ "time": 0.6333, "x": 43.69, "y": 0 },
					{ "time": 0.7, "x": 67.52, "y": 0 },
					{ "time": 0.7667, "x": 43.69, "y": 0 },
					{ "time": 0.8333, "x": 67.52, "y": 0 },
					{ "time": 0.9, "x": 43.69, "y": 0 },
					{ "time": 0.9667, "x": 67.52, "y": 0 },
					{ "time": 1.0333, "x": 43.69, "y": 0 },
					{ "time": 1.1, "x": 67.52, "y": 0 },
					{ "time": 1.1667, "x": 43.69, "y": 0 },
					{ "time": 1.2333, "x": 67.52, "y": 0 },
					{ "time": 1.3, "x": 43.69, "y": 0 },
					{ "time": 1.3667, "x": 67.52, "y": 0 },
					{ "time": 1.4333, "x": 43.69, "y": 0 },
					{ "time": 1.5, "x": 67.52, "y": 0 },
					{ "time": 1.5667, "x": 43.69, "y": 0 },
					{ "time": 1.6333, "x": 67.52, "y": 0 },
					{ "time": 1.7, "x": 43.69, "y": 0 },
					{ "time": 1.7667, "x": 67.52, "y": 0 },
					{ "time": 1.8333, "x": 43.69, "y": 0 },
					{ "time": 1.9, "x": 67.52, "y": 0 },
					{ "time": 1.9667, "x": 43.69, "y": 0 },
					{ "time": 2.0333, "x": 67.52, "y": 0 },
					{ "time": 2.1, "x": 43.69, "y": 0 },
					{ "time": 2.1667, "x": 67.52, "y": 0 },
					{ "time": 2.2333, "x": 43.69, "y": 0 },
					{ "time": 2.3, "x": 67.52, "y": 0 },
					{ "time": 2.3667, "x": 43.69, "y": 0 },
					{ "time": 2.4333, "x": 67.52, "y": 0 },
					{ "time": 2.5, "x": 43.69, "y": 0 },
					{ "time": 2.5667, "x": 67.52, "y": 0 },
					{ "time": 2.6333, "x": 43.69, "y": 0 },
					{ "time": 2.7, "x": 67.52, "y": 0 },
					{ "time": 2.7667, "x": 43.69, "y": 0 },
					{ "time": 2.8333, "x": 67.52, "y": 0 },
					{ "time": 3.1667, "x": 154.91, "y": 0 },
					{ "time": 3.5, "x": 0, "y": 0 }
				],
				"scale": [
					{ "time": 0, "x": 1, "y": 1 },
					{ "time": 0.3333, "x": 1.3, "y": 1.3, "curve": "stepped" },
					{ "time": 2.8333, "x": 1.3, "y": 1.3, "curve": "stepped" },
					{ "time": 3.1667, "x": 1.3, "y": 1.3 },
					{ "time": 3.5, "x": 1, "y": 1 }
				]
			},
			"scale": {
				"rotate": [
					{ "time": 0, "angle": 0, "curve": "stepped" },
					{ "time": 0.3333, "angle": 0, "curve": "stepped" },
					{ "time": 2.8333, "angle": 0, "curve": "stepped" },
					{ "time": 3.1667, "angle": 0, "curve": "stepped" },
					{ "time": 3.5, "angle": 0 }
				],
				"translate": [
					{ "time": 0, "x": 0, "y": 0, "curve": "stepped" },
					{ "time": 0.3333, "x": 0, "y": 0, "curve": "stepped" },
					{ "time": 2.8333, "x": 0, "y": 0, "curve": "stepped" },
					{ "time": 3.1667, "x": 0, "y": 0, "curve": "stepped" },
					{ "time": 3.5, "x": 0, "y": 0 }
				],
				"scale": [
					{ "time": 0, "x": 1, "y": 1, "curve": "stepped" },
					{ "time": 0.3333, "x": 1, "y": 1, "curve": "stepped" },
					{ "time": 2.8333, "x": 1, "y": 1, "curve": "stepped" },
					{ "time": 3.1667, "x": 1, "y": 1, "curve": "stepped" },
					{ "time": 3.5, "x": 1, "y": 1 }
				]
			},
			"flip": {
				"rotate": [
					{ "time": 0, "angle": 0, "curve": "stepped" },
					{ "time": 0.3333, "angle": 0, "curve": "stepped" },
					{ "time": 2.8333, "angle": 0, "curve": "stepped" },
					{ "time": 3.1667, "angle": 0, "curve": "stepped" },
					{ "time": 3.5, "angle": 0 }
				],
				"translate": [
					{ "time": 0, "x": 0, "y": 0, "curve": "stepped" },
					{ "time": 0.3333, "x": 0, "y": 0, "curve": "stepped" },
					{ "time": 2.8333, "x": 0, "y": 0, "curve": "stepped" },
					{ "time": 3.1667, "x": 0, "y": 0, "curve": "stepped" },
					{ "time": 3.5, "x": 0, "y": 0 }
				],
				"scale": [
					{ "time": 0, "x": 1, "y": 1, "curve": "stepped" },
					{ "time": 0.3333, "x": 1, "y": 1, "curve": "stepped" },
					{ "time": 2.8333, "x": 1, "y": 1, "curve": "stepped" },
					{ "time": 3.1667, "x": 1, "y": 1, "curve": "stepped" },
					{ "time": 3.5, "x": 1, "y": 1 }
				]
			},
			"rocket6": {
				"rotate": [
					{ "time": 0, "angle": 0, "curve": "stepped" },
					{ "time": 0.3333, "angle": 0, "curve": "stepped" },
					{ "time": 2.8333, "angle": 0, "curve": "stepped" },
					{ "time": 3.1667, "angle": 0, "curve": "stepped" },
					{ "time": 3.5, "angle": 0 }
				],
				"translate": [
					{ "time": 0, "x": 0, "y": 0, "curve": "stepped" },
					{ "time": 0.3333, "x": 0, "y": 0, "curve": "stepped" },
					{ "time": 2.8333, "x": 0, "y": 0, "curve": "stepped" },
					{ "time": 3.1667, "x": 0, "y": 0, "curve": "stepped" },
					{ "time": 3.5, "x": 0, "y": 0 }
				],
				"scale": [
					{ "time": 0, "x": 1, "y": 1, "curve": "stepped" },
					{ "time": 0.3333, "x": 1, "y": 1, "curve": "stepped" },
					{ "time": 2.8333, "x": 1, "y": 1, "curve": "stepped" },
					{ "time": 3.1667, "x": 1, "y": 1, "curve": "stepped" },
					{ "time": 3.5, "x": 1, "y": 1 }
				]
			},
			"wing3": {
				"rotate": [
					{ "time": 0, "angle": 0, "curve": "stepped" },
					{ "time": 0.3333, "angle": 0, "curve": "stepped" },
					{ "time": 2.8333, "angle": 0, "curve": "stepped" },
					{ "time": 3.1667, "angle": 0, "curve": "stepped" },
					{ "time": 3.5, "angle": 0 }
				],
				"translate": [
					{ "time": 0, "x": 0, "y": 0, "curve": "stepped" },
					{ "time": 0.3333, "x": 0, "y": 0, "curve": "stepped" },
					{ "time": 2.8333, "x": 0, "y": 0, "curve": "stepped" },
					{ "time": 3.1667, "x": 0, "y": 0, "curve": "stepped" },
					{ "time": 3.5, "x": 0, "y": 0 }
				],
				"scale": [
					{ "time": 0, "x": 1, "y": 1, "curve": "stepped" },
					{ "time": 0.3333, "x": 1, "y": 1, "curve": "stepped" },
					{ "time": 2.8333, "x": 1, "y": 1, "curve": "stepped" },
					{ "time": 3.1667, "x": 1, "y": 1, "curve": "stepped" },
					{ "time": 3.5, "x": 1, "y": 1 }
				]
			},
			"wing2": {
				"rotate": [
					{ "time": 0, "angle": 0, "curve": "stepped" },
					{ "time": 0.3333, "angle": 0, "curve": "stepped" },
					{ "time": 2.8333, "angle": 0, "curve": "stepped" },
					{ "time": 3.1667, "angle": 0, "curve": "stepped" },
					{ "time": 3.5, "angle": 0 }
				],
				"translate": [
					{ "time": 0, "x": 0, "y": 0, "curve": "stepped" },
					{ "time": 0.3333, "x": 0, "y": 0, "curve": "stepped" },
					{ "time": 2.8333, "x": 0, "y": 0, "curve": "stepped" },
					{ "time": 3.1667, "x": 0, "y": 0, "curve": "stepped" },
					{ "time": 3.5, "x": 0, "y": 0 }
				],
				"scale": [
					{ "time": 0, "x": 1, "y": 1, "curve": "stepped" },
					{ "time": 0.3333, "x": 1, "y": 1, "curve": "stepped" },
					{ "time": 2.8333, "x": 1, "y": 1, "curve": "stepped" },
					{ "time": 3.1667, "x": 1, "y": 1, "curve": "stepped" },
					{ "time": 3.5, "x": 1, "y": 1 }
				]
			},
			"wing5": {
				"rotate": [
					{ "time": 0, "angle": 0, "curve": "stepped" },
					{ "time": 0.3333, "angle": 0, "curve": "stepped" },
					{ "time": 2.8333, "angle": 0, "curve": "stepped" },
					{ "time": 3.1667, "angle": 0, "curve": "stepped" },
					{ "time": 3.5, "angle": 0 }
				],
				"translate": [
					{ "time": 0, "x": 0, "y": 0, "curve": "stepped" },
					{ "time": 0.3333, "x": 0, "y": 0, "curve": "stepped" },
					{ "time": 2.8333, "x": 0, "y": 0, "curve": "stepped" },
					{ "time": 3.1667, "x": 0, "y": 0, "curve": "stepped" },
					{ "time": 3.5, "x": 0, "y": 0 }
				],
				"scale": [
					{ "time": 0, "x": 1, "y": 1, "curve": "stepped" },
					{ "time": 0.3333, "x": 1, "y": 1, "curve": "stepped" },
					{ "time": 2.8333, "x": 1, "y": 1, "curve": "stepped" },
					{ "time": 3.1667, "x": 1, "y": 1, "curve": "stepped" },
					{ "time": 3.5, "x": 1, "y": 1 }
				]
			},
			"gun2": {
				"rotate": [
					{ "time": 0, "angle": 0, "curve": "stepped" },
					{ "time": 0.3333, "angle": 0, "curve": "stepped" },
					{ "time": 2.8333, "angle": 0, "curve": "stepped" },
					{ "time": 3.1667, "angle": 0, "curve": "stepped" },
					{ "time": 3.5, "angle": 0 }
				],
				"translate": [
					{ "time": 0, "x": 0, "y": 0, "curve": "stepped" },
					{ "time": 0.3333, "x": 0, "y": 0, "curve": "stepped" },
					{ "time": 2.8333, "x": 0, "y": 0, "curve": "stepped" },
					{ "time": 3.1667, "x": 0, "y": 0, "curve": "stepped" },
					{ "time": 3.5, "x": 0, "y": 0 }
				],
				"scale": [
					{ "time": 0, "x": 1, "y": 1, "curve": "stepped" },
					{ "time": 0.3333, "x": 1, "y": 1, "curve": "stepped" },
					{ "time": 2.8333, "x": 1, "y": 1, "curve": "stepped" },
					{ "time": 3.1667, "x": 1, "y": 1, "curve": "stepped" },
					{ "time": 3.5, "x": 1, "y": 1 }
				]
			},
			"gun4": {
				"rotate": [
					{ "time": 0, "angle": 0, "curve": "stepped" },
					{ "time": 0.3333, "angle": 0, "curve": "stepped" },
					{ "time": 2.8333, "angle": 0, "curve": "stepped" },
					{ "time": 3.1667, "angle": 0, "curve": "stepped" },
					{ "time": 3.5, "angle": 0 }
				],
				"translate": [
					{ "time": 0, "x": 0, "y": 0, "curve": "stepped" },
					{ "time": 0.3333, "x": 0, "y": 0, "curve": "stepped" },
					{ "time": 2.8333, "x": 0, "y": 0, "curve": "stepped" },
					{ "time": 3.1667, "x": 0, "y": 0, "curve": "stepped" },
					{ "time": 3.5, "x": 0, "y": 0 }
				],
				"scale": [
					{ "time": 0, "x": 1, "y": 1, "curve": "stepped" },
					{ "time": 0.3333, "x": 1, "y": 1, "curve": "stepped" },
					{ "time": 2.8333, "x": 1, "y": 1, "curve": "stepped" },
					{ "time": 3.1667, "x": 1, "y": 1, "curve": "stepped" },
					{ "time": 3.5, "x": 1, "y": 1 }
				]
			},
			"gun5": {
				"rotate": [
					{ "time": 0, "angle": 0, "curve": "stepped" },
					{ "time": 0.3333, "angle": 0, "curve": "stepped" },
					{ "time": 2.8333, "angle": 0, "curve": "stepped" },
					{ "time": 3.1667, "angle": 0, "curve": "stepped" },
					{ "time": 3.5, "angle": 0 }
				],
				"translate": [
					{ "time": 0, "x": 0, "y": 0, "curve": "stepped" },
					{ "time": 0.3333, "x": 0, "y": 0, "curve": "stepped" },
					{ "time": 2.8333, "x": 0, "y": 0, "curve": "stepped" },
					{ "time": 3.1667, "x": 0, "y": 0, "curve": "stepped" },
					{ "time": 3.5, "x": 0, "y": 0 }
				],
				"scale": [
					{ "time": 0, "x": 1, "y": 1, "curve": "stepped" },
					{ "time": 0.3333, "x": 1, "y": 1, "curve": "stepped" },
					{ "time": 2.8333, "x": 1, "y": 1, "curve": "stepped" },
					{ "time": 3.1667, "x": 1, "y": 1, "curve": "stepped" },
					{ "time": 3.5, "x": 1, "y": 1 }
				]
			},
			"rocket7": {
				"rotate": [
					{ "time": 0, "angle": 0, "curve": "stepped" },
					{ "time": 0.3333, "angle": 0, "curve": "stepped" },
					{ "time": 2.8333, "angle": 0, "curve": "stepped" },
					{ "time": 3.1667, "angle": 0, "curve": "stepped" },
					{ "time": 3.5, "angle": 0 }
				],
				"translate": [
					{ "time": 0, "x": 0, "y": 0, "curve": "stepped" },
					{ "time": 0.3333, "x": 0, "y": 0, "curve": "stepped" },
					{ "time": 2.8333, "x": 0, "y": 0, "curve": "stepped" },
					{ "time": 3.1667, "x": 0, "y": 0, "curve": "stepped" },
					{ "time": 3.5, "x": 0, "y": 0 }
				],
				"scale": [
					{ "time": 0, "x": 1, "y": 1, "curve": "stepped" },
					{ "time": 0.3333, "x": 1, "y": 1, "curve": "stepped" },
					{ "time": 2.8333, "x": 1, "y": 1, "curve": "stepped" },
					{ "time": 3.1667, "x": 1, "y": 1, "curve": "stepped" },
					{ "time": 3.5, "x": 1, "y": 1 }
				]
			},
			"rocket8": {
				"rotate": [
					{ "time": 0, "angle": 0, "curve": "stepped" },
					{ "time": 0.3333, "angle": 0, "curve": "stepped" },
					{ "time": 2.8333, "angle": 0, "curve": "stepped" },
					{ "time": 3.1667, "angle": 0, "curve": "stepped" },
					{ "time": 3.5, "angle": 0 }
				],
				"translate": [
					{ "time": 0, "x": 0, "y": 0, "curve": "stepped" },
					{ "time": 0.3333, "x": 0, "y": 0, "curve": "stepped" },
					{ "time": 2.8333, "x": 0, "y": 0, "curve": "stepped" },
					{ "time": 3.1667, "x": 0, "y": 0, "curve": "stepped" },
					{ "time": 3.5, "x": 0, "y": 0 }
				],
				"scale": [
					{ "time": 0, "x": 1, "y": 1, "curve": "stepped" },
					{ "time": 0.3333, "x": 1, "y": 1, "curve": "stepped" },
					{ "time": 2.8333, "x": 1, "y": 1, "curve": "stepped" },
					{ "time": 3.1667, "x": 1, "y": 1, "curve": "stepped" },
					{ "time": 3.5, "x": 1, "y": 1 }
				]
			},
			"rocket9": {
				"rotate": [
					{ "time": 0, "angle": 0, "curve": "stepped" },
					{ "time": 0.3333, "angle": 0, "curve": "stepped" },
					{ "time": 2.8333, "angle": 0, "curve": "stepped" },
					{ "time": 3.1667, "angle": 0, "curve": "stepped" },
					{ "time": 3.5, "angle": 0 }
				],
				"translate": [
					{ "time": 0, "x": 0, "y": 0, "curve": "stepped" },
					{ "time": 0.3333, "x": 0, "y": 0, "curve": "stepped" },
					{ "time": 2.8333, "x": 0, "y": 0, "curve": "stepped" },
					{ "time": 3.1667, "x": 0, "y": 0, "curve": "stepped" },
					{ "time": 3.5, "x": 0, "y": 0 }
				],
				"scale": [
					{ "time": 0, "x": 1, "y": 1, "curve": "stepped" },
					{ "time": 0.3333, "x": 1, "y": 1, "curve": "stepped" },
					{ "time": 2.8333, "x": 1, "y": 1, "curve": "stepped" },
					{ "time": 3.1667, "x": 1, "y": 1, "curve": "stepped" },
					{ "time": 3.5, "x": 1, "y": 1 }
				]
			},
			"rocket10": {
				"rotate": [
					{ "time": 0, "angle": 0, "curve": "stepped" },
					{ "time": 0.3333, "angle": 0, "curve": "stepped" },
					{ "time": 2.8333, "angle": 0, "curve": "stepped" },
					{ "time": 3.1667, "angle": 0, "curve": "stepped" },
					{ "time": 3.5, "angle": 0 }
				],
				"translate": [
					{ "time": 0, "x": 0, "y": 0, "curve": "stepped" },
					{ "time": 0.3333, "x": 0, "y": 0, "curve": "stepped" },
					{ "time": 2.8333, "x": 0, "y": 0, "curve": "stepped" },
					{ "time": 3.1667, "x": 0, "y": 0, "curve": "stepped" },
					{ "time": 3.5, "x": 0, "y": 0 }
				],
				"scale": [
					{ "time": 0, "x": 1, "y": 1, "curve": "stepped" },
					{ "time": 0.3333, "x": 1, "y": 1, "curve": "stepped" },
					{ "time": 2.8333, "x": 1, "y": 1, "curve": "stepped" },
					{ "time": 3.1667, "x": 1, "y": 1, "curve": "stepped" },
					{ "time": 3.5, "x": 1, "y": 1 }
				]
			},
			"rocket11": {
				"rotate": [
					{ "time": 0, "angle": 0, "curve": "stepped" },
					{ "time": 0.3333, "angle": 0, "curve": "stepped" },
					{ "time": 2.8333, "angle": 0, "curve": "stepped" },
					{ "time": 3.1667, "angle": 0, "curve": "stepped" },
					{ "time": 3.5, "angle": 0 }
				],
				"translate": [
					{ "time": 0, "x": 0, "y": 0, "curve": "stepped" },
					{ "time": 0.3333, "x": 0, "y": 0, "curve": "stepped" },
					{ "time": 2.8333, "x": 0, "y": 0, "curve": "stepped" },
					{ "time": 3.1667, "x": 0, "y": 0, "curve": "stepped" },
					{ "time": 3.5, "x": 0, "y": 0 }
				],
				"scale": [
					{ "time": 0, "x": 1, "y": 1, "curve": "stepped" },
					{ "time": 0.3333, "x": 1, "y": 1, "curve": "stepped" },
					{ "time": 2.8333, "x": 1, "y": 1, "curve": "stepped" },
					{ "time": 3.1667, "x": 1, "y": 1, "curve": "stepped" },
					{ "time": 3.5, "x": 1, "y": 1 }
				]
			},
			"flip2": {
				"rotate": [
					{ "time": 0, "angle": 0, "curve": "stepped" },
					{ "time": 0.3333, "angle": 0, "curve": "stepped" },
					{ "time": 2.8333, "angle": 0, "curve": "stepped" },
					{ "time": 3.1667, "angle": 0, "curve": "stepped" },
					{ "time": 3.5, "angle": 0 }
				],
				"translate": [
					{ "time": 0, "x": 0, "y": 0, "curve": "stepped" },
					{ "time": 0.3333, "x": 0, "y": 0, "curve": "stepped" },
					{ "time": 2.8333, "x": 0, "y": 0, "curve": "stepped" },
					{ "time": 3.1667, "x": 0, "y": 0, "curve": "stepped" },
					{ "time": 3.5, "x": 0, "y": 0 }
				],
				"scale": [
					{ "time": 0, "x": 1, "y": 1, "curve": "stepped" },
					{ "time": 0.3333, "x": 1, "y": 1, "curve": "stepped" },
					{ "time": 2.8333, "x": 1, "y": 1, "curve": "stepped" },
					{ "time": 3.1667, "x": 1, "y": 1, "curve": "stepped" },
					{ "time": 3.5, "x": 1, "y": 1 }
				]
			},
			"rocket12": {
				"rotate": [
					{ "time": 0, "angle": 0, "curve": "stepped" },
					{ "time": 0.3333, "angle": 0, "curve": "stepped" },
					{ "time": 2.8333, "angle": 0, "curve": "stepped" },
					{ "time": 3.1667, "angle": 0, "curve": "stepped" },
					{ "time": 3.5, "angle": 0 }
				],
				"translate": [
					{ "time": 0, "x": 0, "y": 0, "curve": "stepped" },
					{ "time": 0.3333, "x": 0, "y": 0, "curve": "stepped" },
					{ "time": 2.8333, "x": 0, "y": 0, "curve": "stepped" },
					{ "time": 3.1667, "x": 0, "y": 0, "curve": "stepped" },
					{ "time": 3.5, "x": 0, "y": 0 }
				],
				"scale": [
					{ "time": 0, "x": 1, "y": 1, "curve": "stepped" },
					{ "time": 0.3333, "x": 1, "y": 1, "curve": "stepped" },
					{ "time": 2.8333, "x": 1, "y": 1, "curve": "stepped" },
					{ "time": 3.1667, "x": 1, "y": 1, "curve": "stepped" },
					{ "time": 3.5, "x": 1, "y": 1 }
				]
			},
			"gun7": {
				"rotate": [
					{ "time": 0, "angle": 0, "curve": "stepped" },
					{ "time": 0.3333, "angle": 0, "curve": "stepped" },
					{ "time": 2.8333, "angle": 0, "curve": "stepped" },
					{ "time": 3.1667, "angle": 0, "curve": "stepped" },
					{ "time": 3.5, "angle": 0 }
				],
				"translate": [
					{ "time": 0, "x": 0, "y": 0, "curve": "stepped" },
					{ "time": 0.3333, "x": 0, "y": 0, "curve": "stepped" },
					{ "time": 2.8333, "x": 0, "y": 0, "curve": "stepped" },
					{ "time": 3.1667, "x": 0, "y": 0, "curve": "stepped" },
					{ "time": 3.5, "x": 0, "y": 0 }
				],
				"scale": [
					{ "time": 0, "x": 1, "y": 1, "curve": "stepped" },
					{ "time": 0.3333, "x": 1, "y": 1, "curve": "stepped" },
					{ "time": 2.8333, "x": 1, "y": 1, "curve": "stepped" },
					{ "time": 3.1667, "x": 1, "y": 1, "curve": "stepped" },
					{ "time": 3.5, "x": 1, "y": 1 }
				]
			},
			"gun8": {
				"rotate": [
					{ "time": 0, "angle": 0, "curve": "stepped" },
					{ "time": 0.3333, "angle": 0, "curve": "stepped" },
					{ "time": 2.8333, "angle": 0, "curve": "stepped" },
					{ "time": 3.1667, "angle": 0, "curve": "stepped" },
					{ "time": 3.5, "angle": 0 }
				],
				"translate": [
					{ "time": 0, "x": 0, "y": 0, "curve": "stepped" },
					{ "time": 0.3333, "x": 0, "y": 0, "curve": "stepped" },
					{ "time": 2.8333, "x": 0, "y": 0, "curve": "stepped" },
					{ "time": 3.1667, "x": 0, "y": 0, "curve": "stepped" },
					{ "time": 3.5, "x": 0, "y": 0 }
				],
				"scale": [
					{ "time": 0, "x": 1, "y": 1, "curve": "stepped" },
					{ "time": 0.3333, "x": 1, "y": 1, "curve": "stepped" },
					{ "time": 2.8333, "x": 1, "y": 1, "curve": "stepped" },
					{ "time": 3.1667, "x": 1, "y": 1, "curve": "stepped" },
					{ "time": 3.5, "x": 1, "y": 1 }
				]
			},
			"rocket13": {
				"rotate": [
					{ "time": 0, "angle": 0, "curve": "stepped" },
					{ "time": 0.3333, "angle": 0, "curve": "stepped" },
					{ "time": 2.8333, "angle": 0, "curve": "stepped" },
					{ "time": 3.1667, "angle": 0, "curve": "stepped" },
					{ "time": 3.5, "angle": 0 }
				],
				"translate": [
					{ "time": 0, "x": 0, "y": 0, "curve": "stepped" },
					{ "time": 0.3333, "x": 0, "y": 0, "curve": "stepped" },
					{ "time": 2.8333, "x": 0, "y": 0, "curve": "stepped" },
					{ "time": 3.1667, "x": 0, "y": 0, "curve": "stepped" },
					{ "time": 3.5, "x": 0, "y": 0 }
				],
				"scale": [
					{ "time": 0, "x": 1, "y": 1, "curve": "stepped" },
					{ "time": 0.3333, "x": 1, "y": 1, "curve": "stepped" },
					{ "time": 2.8333, "x": 1, "y": 1, "curve": "stepped" },
					{ "time": 3.1667, "x": 1, "y": 1, "curve": "stepped" },
					{ "time": 3.5, "x": 1, "y": 1 }
				]
			},
			"rocket14": {
				"rotate": [
					{ "time": 0, "angle": 0, "curve": "stepped" },
					{ "time": 0.3333, "angle": 0, "curve": "stepped" },
					{ "time": 2.8333, "angle": 0, "curve": "stepped" },
					{ "time": 3.1667, "angle": 0, "curve": "stepped" },
					{ "time": 3.5, "angle": 0 }
				],
				"translate": [
					{ "time": 0, "x": 0, "y": 0, "curve": "stepped" },
					{ "time": 0.3333, "x": 0, "y": 0, "curve": "stepped" },
					{ "time": 2.8333, "x": 0, "y": 0, "curve": "stepped" },
					{ "time": 3.1667, "x": 0, "y": 0, "curve": "stepped" },
					{ "time": 3.5, "x": 0, "y": 0 }
				],
				"scale": [
					{ "time": 0, "x": 1, "y": 1, "curve": "stepped" },
					{ "time": 0.3333, "x": 1, "y": 1, "curve": "stepped" },
					{ "time": 2.8333, "x": 1, "y": 1, "curve": "stepped" },
					{ "time": 3.1667, "x": 1, "y": 1, "curve": "stepped" },
					{ "time": 3.5, "x": 1, "y": 1 }
				]
			},
			"rocket15": {
				"rotate": [
					{ "time": 0, "angle": 0, "curve": "stepped" },
					{ "time": 0.3333, "angle": 0, "curve": "stepped" },
					{ "time": 2.8333, "angle": 0, "curve": "stepped" },
					{ "time": 3.1667, "angle": 0, "curve": "stepped" },
					{ "time": 3.5, "angle": 0 }
				],
				"translate": [
					{ "time": 0, "x": 0, "y": 0, "curve": "stepped" },
					{ "time": 0.3333, "x": 0, "y": 0, "curve": "stepped" },
					{ "time": 2.8333, "x": 0, "y": 0, "curve": "stepped" },
					{ "time": 3.1667, "x": 0, "y": 0, "curve": "stepped" },
					{ "time": 3.5, "x": 0, "y": 0 }
				],
				"scale": [
					{ "time": 0, "x": 1, "y": 1, "curve": "stepped" },
					{ "time": 0.3333, "x": 1, "y": 1, "curve": "stepped" },
					{ "time": 2.8333, "x": 1, "y": 1, "curve": "stepped" },
					{ "time": 3.1667, "x": 1, "y": 1, "curve": "stepped" },
					{ "time": 3.5, "x": 1, "y": 1 }
				]
			},
			"rocket16": {
				"rotate": [
					{ "time": 0, "angle": 0, "curve": "stepped" },
					{ "time": 0.3333, "angle": 0, "curve": "stepped" },
					{ "time": 2.8333, "angle": 0, "curve": "stepped" },
					{ "time": 3.1667, "angle": 0, "curve": "stepped" },
					{ "time": 3.5, "angle": 0 }
				],
				"translate": [
					{ "time": 0, "x": 0, "y": 0, "curve": "stepped" },
					{ "time": 0.3333, "x": 0, "y": 0, "curve": "stepped" },
					{ "time": 2.8333, "x": 0, "y": 0, "curve": "stepped" },
					{ "time": 3.1667, "x": 0, "y": 0, "curve": "stepped" },
					{ "time": 3.5, "x": 0, "y": 0 }
				],
				"scale": [
					{ "time": 0, "x": 1, "y": 1, "curve": "stepped" },
					{ "time": 0.3333, "x": 1, "y": 1, "curve": "stepped" },
					{ "time": 2.8333, "x": 1, "y": 1, "curve": "stepped" },
					{ "time": 3.1667, "x": 1, "y": 1, "curve": "stepped" },
					{ "time": 3.5, "x": 1, "y": 1 }
				]
			},
			"rocket17": {
				"rotate": [
					{ "time": 0, "angle": 0, "curve": "stepped" },
					{ "time": 0.3333, "angle": 0, "curve": "stepped" },
					{ "time": 2.8333, "angle": 0, "curve": "stepped" },
					{ "time": 3.1667, "angle": 0, "curve": "stepped" },
					{ "time": 3.5, "angle": 0 }
				],
				"translate": [
					{ "time": 0, "x": 0, "y": 0, "curve": "stepped" },
					{ "time": 0.3333, "x": 0, "y": 0, "curve": "stepped" },
					{ "time": 2.8333, "x": 0, "y": 0, "curve": "stepped" },
					{ "time": 3.1667, "x": 0, "y": 0, "curve": "stepped" },
					{ "time": 3.5, "x": 0, "y": 0 }
				],
				"scale": [
					{ "time": 0, "x": 1, "y": 1, "curve": "stepped" },
					{ "time": 0.3333, "x": 1, "y": 1, "curve": "stepped" },
					{ "time": 2.8333, "x": 1, "y": 1, "curve": "stepped" },
					{ "time": 3.1667, "x": 1, "y": 1, "curve": "stepped" },
					{ "time": 3.5, "x": 1, "y": 1 }
				]
			},
			"wing6": {
				"rotate": [
					{ "time": 0, "angle": 0, "curve": "stepped" },
					{ "time": 0.3333, "angle": 0, "curve": "stepped" },
					{ "time": 2.8333, "angle": 0, "curve": "stepped" },
					{ "time": 3.1667, "angle": 0, "curve": "stepped" },
					{ "time": 3.5, "angle": 0 }
				],
				"translate": [
					{ "time": 0, "x": 0, "y": 0, "curve": "stepped" },
					{ "time": 0.3333, "x": 0, "y": 0, "curve": "stepped" },
					{ "time": 2.8333, "x": 0, "y": 0, "curve": "stepped" },
					{ "time": 3.1667, "x": 0, "y": 0, "curve": "stepped" },
					{ "time": 3.5, "x": 0, "y": 0 }
				],
				"scale": [
					{ "time": 0, "x": 1, "y": 1, "curve": "stepped" },
					{ "time": 0.3333, "x": 1, "y": 1, "curve": "stepped" },
					{ "time": 2.8333, "x": 1, "y": 1, "curve": "stepped" },
					{ "time": 3.1667, "x": 1, "y": 1, "curve": "stepped" },
					{ "time": 3.5, "x": 1, "y": 1 }
				]
			},
			"wing8": {
				"rotate": [
					{ "time": 0, "angle": 0, "curve": "stepped" },
					{ "time": 0.3333, "angle": 0, "curve": "stepped" },
					{ "time": 2.8333, "angle": 0, "curve": "stepped" },
					{ "time": 3.1667, "angle": 0, "curve": "stepped" },
					{ "time": 3.5, "angle": 0 }
				],
				"translate": [
					{ "time": 0, "x": 0, "y": 0, "curve": "stepped" },
					{ "time": 0.3333, "x": 0, "y": 0, "curve": "stepped" },
					{ "time": 2.8333, "x": 0, "y": 0, "curve": "stepped" },
					{ "time": 3.1667, "x": 0, "y": 0, "curve": "stepped" },
					{ "time": 3.5, "x": 0, "y": 0 }
				],
				"scale": [
					{ "time": 0, "x": 1, "y": 1, "curve": "stepped" },
					{ "time": 0.3333, "x": 1, "y": 1, "curve": "stepped" },
					{ "time": 2.8333, "x": 1, "y": 1, "curve": "stepped" },
					{ "time": 3.1667, "x": 1, "y": 1, "curve": "stepped" },
					{ "time": 3.5, "x": 1, "y": 1 }
				]
			},
			"wing10": {
				"rotate": [
					{ "time": 0, "angle": 0, "curve": "stepped" },
					{ "time": 0.3333, "angle": 0, "curve": "stepped" },
					{ "time": 2.8333, "angle": 0, "curve": "stepped" },
					{ "time": 3.1667, "angle": 0, "curve": "stepped" },
					{ "time": 3.5, "angle": 0 }
				],
				"translate": [
					{ "time": 0, "x": 0, "y": 0, "curve": "stepped" },
					{ "time": 0.3333, "x": 0, "y": 0, "curve": "stepped" },
					{ "time": 2.8333, "x": 0, "y": 0, "curve": "stepped" },
					{ "time": 3.1667, "x": 0, "y": 0, "curve": "stepped" },
					{ "time": 3.5, "x": 0, "y": 0 }
				],
				"scale": [
					{ "time": 0, "x": 1, "y": 1, "curve": "stepped" },
					{ "time": 0.3333, "x": 1, "y": 1, "curve": "stepped" },
					{ "time": 2.8333, "x": 1, "y": 1, "curve": "stepped" },
					{ "time": 3.1667, "x": 1, "y": 1, "curve": "stepped" },
					{ "time": 3.5, "x": 1, "y": 1 }
				]
			},
			"gun10": {
				"rotate": [
					{ "time": 0, "angle": 0, "curve": "stepped" },
					{ "time": 0.3333, "angle": 0, "curve": "stepped" },
					{ "time": 2.8333, "angle": 0, "curve": "stepped" },
					{ "time": 3.1667, "angle": 0, "curve": "stepped" },
					{ "time": 3.5, "angle": 0 }
				],
				"translate": [
					{ "time": 0, "x": 0, "y": 0, "curve": "stepped" },
					{ "time": 0.3333, "x": 0, "y": 0, "curve": "stepped" },
					{ "time": 2.8333, "x": 0, "y": 0, "curve": "stepped" },
					{ "time": 3.1667, "x": 0, "y": 0, "curve": "stepped" },
					{ "time": 3.5, "x": 0, "y": 0 }
				],
				"scale": [
					{ "time": 0, "x": 1, "y": 1, "curve": "stepped" },
					{ "time": 0.3333, "x": 1, "y": 1, "curve": "stepped" },
					{ "time": 2.8333, "x": 1, "y": 1, "curve": "stepped" },
					{ "time": 3.1667, "x": 1, "y": 1, "curve": "stepped" },
					{ "time": 3.5, "x": 1, "y": 1 }
				]
			}
		}
	},
	"attack2": {
		"slots": {
			"rocket6": {
				"attachment": [
					{ "time": 0.4333, "name": null },
					{ "time": 2.6667, "name": "rocket6" }
				]
			},
			"rocket7": {
				"attachment": [
					{ "time": 2.4333, "name": null },
					{ "time": 3, "name": "rocket6" }
				]
			},
			"rocket8": {
				"attachment": [
					{ "time": 0.8333, "name": null },
					{ "time": 2.7333, "name": "rocket6" }
				]
			},
			"rocket9": {
				"attachment": [
					{ "time": 1.2333, "name": null },
					{ "time": 2.8, "name": "rocket6" }
				]
			},
			"rocket10": {
				"attachment": [
					{ "time": 2.0333, "name": null },
					{ "time": 2.9333, "name": "rocket6" }
				]
			},
			"rocket11": {
				"attachment": [
					{ "time": 1.6333, "name": null },
					{ "time": 2.8667, "name": "rocket6" }
				]
			},
			"rocket12": {
				"attachment": [
					{ "time": 0.4333, "name": null },
					{ "time": 2.6667, "name": "rocket6" }
				]
			},
			"rocket13": {
				"attachment": [
					{ "time": 2.4333, "name": null },
					{ "time": 3, "name": "rocket6" }
				]
			},
			"rocket14": {
				"attachment": [
					{ "time": 0.8333, "name": null },
					{ "time": 2.7333, "name": "rocket6" }
				]
			},
			"rocket15": {
				"attachment": [
					{ "time": 1.2333, "name": null },
					{ "time": 2.8, "name": "rocket6" }
				]
			},
			"rocket16": {
				"attachment": [
					{ "time": 2.0333, "name": null },
					{ "time": 2.9333, "name": "rocket6" }
				]
			},
			"rocket17": {
				"attachment": [
					{ "time": 1.6333, "name": null },
					{ "time": 2.8667, "name": "rocket6" }
				]
			}
		},
		"bones": {
			"wing": {
				"rotate": [
					{ "time": 0, "angle": -6.65 },
					{
						"time": 0.0667,
						"angle": 0,
						"curve": [ 0.514, 0.01, 0.518, 0.99 ]
					},
					{
						"time": 0.4,
						"angle": -33.27,
						"curve": [ 0.25, 0, 0.75, 1 ]
					},
					{
						"time": 0.5,
						"angle": 24.84,
						"curve": [ 0.25, 0, 0.75, 1 ]
					},
					{
						"time": 0.8,
						"angle": -33.27,
						"curve": [ 0.25, 0, 0.75, 1 ]
					},
					{
						"time": 0.9,
						"angle": 24.84,
						"curve": [ 0.25, 0, 0.75, 1 ]
					},
					{
						"time": 1.2,
						"angle": -33.27,
						"curve": [ 0.25, 0, 0.75, 1 ]
					},
					{
						"time": 1.3,
						"angle": 24.84,
						"curve": [ 0.25, 0, 0.75, 1 ]
					},
					{
						"time": 1.6,
						"angle": -33.27,
						"curve": [ 0.25, 0, 0.75, 1 ]
					},
					{
						"time": 1.7,
						"angle": 24.84,
						"curve": [ 0.25, 0, 0.75, 1 ]
					},
					{
						"time": 2,
						"angle": -33.27,
						"curve": [ 0.25, 0, 0.75, 1 ]
					},
					{
						"time": 2.1,
						"angle": 24.84,
						"curve": [ 0.25, 0, 0.75, 1 ]
					},
					{
						"time": 2.4,
						"angle": -33.27,
						"curve": [ 0.25, 0, 0.75, 1 ]
					},
					{
						"time": 2.5,
						"angle": 24.84,
						"curve": [ 0.25, 0, 0.75, 1 ]
					},
					{ "time": 2.8, "angle": -33.27 },
					{ "time": 3.0667, "angle": -6.65 }
				]
			},
			"gun9": {
				"translate": [
					{ "time": 0, "x": 0, "y": 0 },
					{ "time": 0.1, "x": 0, "y": -25.9 },
					{ "time": 0.2, "x": 0, "y": 0 },
					{ "time": 0.3, "x": 0, "y": -25.9 },
					{ "time": 0.4, "x": 0, "y": 0 },
					{ "time": 0.5, "x": 0, "y": -25.9 },
					{ "time": 0.6, "x": 0, "y": 0 },
					{ "time": 0.7, "x": 0, "y": -25.9 },
					{ "time": 0.8333, "x": 0, "y": 0 },
					{ "time": 0.9333, "x": 0, "y": -25.9 },
					{ "time": 1.0333, "x": 0, "y": 0 },
					{ "time": 1.1333, "x": 0, "y": -25.9 },
					{ "time": 1.2333, "x": 0, "y": 0 },
					{ "time": 1.3333, "x": 0, "y": -25.9 },
					{ "time": 1.4333, "x": 0, "y": 0 },
					{ "time": 1.5333, "x": 0, "y": -25.9 },
					{ "time": 1.6333, "x": 0, "y": 0 },
					{ "time": 1.7333, "x": 0, "y": -25.9 },
					{ "time": 1.8333, "x": 0, "y": 0 },
					{ "time": 1.9333, "x": 0, "y": -25.9 },
					{ "time": 2.0333, "x": 0, "y": 0 },
					{ "time": 2.1333, "x": 0, "y": -25.9 },
					{ "time": 2.2333, "x": 0, "y": 0 },
					{ "time": 2.3667, "x": 0, "y": -25.9 },
					{ "time": 2.4667, "x": 0, "y": 0 },
					{ "time": 2.5667, "x": 0, "y": -25.9 },
					{ "time": 2.6667, "x": 0, "y": 0 },
					{ "time": 2.7667, "x": 0, "y": -25.9 },
					{ "time": 2.8667, "x": 0, "y": 0 },
					{ "time": 2.9667, "x": 0, "y": -25.9 },
					{ "time": 3.0667, "x": 0, "y": 0 }
				]
			},
			"spine": {
				"translate": [
					{
						"time": 0,
						"x": 0,
						"y": 0,
						"curve": [ 0.514, 0.01, 0.518, 0.99 ]
					},
					{
						"time": 0.3333,
						"x": 0,
						"y": -80.75,
						"curve": [ 0.25, 0, 0.75, 1 ]
					},
					{
						"time": 0.4333,
						"x": 0,
						"y": 86.07,
						"curve": [ 0.25, 0, 0.75, 1 ]
					},
					{
						"time": 0.7333,
						"x": 0,
						"y": -80.75,
						"curve": [ 0.25, 0, 0.75, 1 ]
					},
					{
						"time": 0.8333,
						"x": 0,
						"y": 86.07,
						"curve": [ 0.25, 0, 0.75, 1 ]
					},
					{
						"time": 1.1333,
						"x": 0,
						"y": -80.75,
						"curve": [ 0.25, 0, 0.75, 1 ]
					},
					{
						"time": 1.2333,
						"x": 0,
						"y": 86.07,
						"curve": [ 0.25, 0, 0.75, 1 ]
					},
					{
						"time": 1.5333,
						"x": 0,
						"y": -80.75,
						"curve": [ 0.25, 0, 0.75, 1 ]
					},
					{
						"time": 1.6333,
						"x": 0,
						"y": 86.07,
						"curve": [ 0.25, 0, 0.75, 1 ]
					},
					{
						"time": 1.9333,
						"x": 0,
						"y": -80.75,
						"curve": [ 0.25, 0, 0.75, 1 ]
					},
					{
						"time": 2.0333,
						"x": 0,
						"y": 86.07,
						"curve": [ 0.25, 0, 0.75, 1 ]
					},
					{
						"time": 2.3333,
						"x": 0,
						"y": -80.75,
						"curve": [ 0.25, 0, 0.75, 1 ]
					},
					{
						"time": 2.4333,
						"x": 0,
						"y": 86.07,
						"curve": [ 0.25, 0, 0.75, 1 ]
					},
					{ "time": 2.7333, "x": 0, "y": -80.75 },
					{ "time": 3.0667, "x": 0, "y": 0 }
				]
			},
			"wing7": {
				"rotate": [
					{ "time": 0, "angle": -6.65 },
					{
						"time": 0.0667,
						"angle": 0,
						"curve": [ 0.514, 0.01, 0.518, 0.99 ]
					},
					{
						"time": 0.4,
						"angle": -33.27,
						"curve": [ 0.25, 0, 0.75, 1 ]
					},
					{
						"time": 0.5,
						"angle": 24.84,
						"curve": [ 0.25, 0, 0.75, 1 ]
					},
					{
						"time": 0.8,
						"angle": -33.27,
						"curve": [ 0.25, 0, 0.75, 1 ]
					},
					{
						"time": 0.9,
						"angle": 24.84,
						"curve": [ 0.25, 0, 0.75, 1 ]
					},
					{
						"time": 1.2,
						"angle": -33.27,
						"curve": [ 0.25, 0, 0.75, 1 ]
					},
					{
						"time": 1.3,
						"angle": 24.84,
						"curve": [ 0.25, 0, 0.75, 1 ]
					},
					{
						"time": 1.6,
						"angle": -33.27,
						"curve": [ 0.25, 0, 0.75, 1 ]
					},
					{
						"time": 1.7,
						"angle": 24.84,
						"curve": [ 0.25, 0, 0.75, 1 ]
					},
					{
						"time": 2,
						"angle": -33.27,
						"curve": [ 0.25, 0, 0.75, 1 ]
					},
					{
						"time": 2.1,
						"angle": 24.84,
						"curve": [ 0.25, 0, 0.75, 1 ]
					},
					{
						"time": 2.4,
						"angle": -33.27,
						"curve": [ 0.25, 0, 0.75, 1 ]
					},
					{
						"time": 2.5,
						"angle": 24.84,
						"curve": [ 0.25, 0, 0.75, 1 ]
					},
					{ "time": 2.8, "angle": -33.27 },
					{ "time": 3.0667, "angle": -6.65 }
				]
			},
			"gun": {
				"translate": [
					{ "time": 0, "x": 0, "y": 0 },
					{ "time": 0.1, "x": 0, "y": -25.9 },
					{ "time": 0.2, "x": 0, "y": 0 },
					{ "time": 0.3, "x": 0, "y": -25.9 },
					{ "time": 0.4, "x": 0, "y": 0 },
					{ "time": 0.5, "x": 0, "y": -25.9 },
					{ "time": 0.6, "x": 0, "y": 0 },
					{ "time": 0.7, "x": 0, "y": -25.9 },
					{ "time": 0.8333, "x": 0, "y": 0 },
					{ "time": 0.9333, "x": 0, "y": -25.9 },
					{ "time": 1.0333, "x": 0, "y": 0 },
					{ "time": 1.1333, "x": 0, "y": -25.9 },
					{ "time": 1.2333, "x": 0, "y": 0 },
					{ "time": 1.3333, "x": 0, "y": -25.9 },
					{ "time": 1.4333, "x": 0, "y": 0 },
					{ "time": 1.5333, "x": 0, "y": -25.9 },
					{ "time": 1.6333, "x": 0, "y": 0 },
					{ "time": 1.7333, "x": 0, "y": -25.9 },
					{ "time": 1.8333, "x": 0, "y": 0 },
					{ "time": 1.9333, "x": 0, "y": -25.9 },
					{ "time": 2.0333, "x": 0, "y": 0 },
					{ "time": 2.1333, "x": 0, "y": -25.9 },
					{ "time": 2.2333, "x": 0, "y": 0 },
					{ "time": 2.3667, "x": 0, "y": -25.9 },
					{ "time": 2.4667, "x": 0, "y": 0 },
					{ "time": 2.5667, "x": 0, "y": -25.9 },
					{ "time": 2.6667, "x": 0, "y": 0 },
					{ "time": 2.7667, "x": 0, "y": -25.9 },
					{ "time": 2.8667, "x": 0, "y": 0 },
					{ "time": 2.9667, "x": 0, "y": -25.9 },
					{ "time": 3.0667, "x": 0, "y": 0 }
				]
			},
			"wing4": {
				"rotate": [
					{ "time": 0, "angle": -14.66 },
					{
						"time": 0.0667,
						"angle": -8,
						"curve": [ 0.514, 0.01, 0.518, 0.99 ]
					},
					{
						"time": 0.4,
						"angle": -41.28,
						"curve": [ 0.25, 0, 0.75, 1 ]
					},
					{
						"time": 0.5,
						"angle": 16.84,
						"curve": [ 0.25, 0, 0.75, 1 ]
					},
					{
						"time": 0.8,
						"angle": -41.28,
						"curve": [ 0.25, 0, 0.75, 1 ]
					},
					{
						"time": 0.9,
						"angle": 16.84,
						"curve": [ 0.25, 0, 0.75, 1 ]
					},
					{
						"time": 1.2,
						"angle": -41.28,
						"curve": [ 0.25, 0, 0.75, 1 ]
					},
					{
						"time": 1.3,
						"angle": 16.84,
						"curve": [ 0.25, 0, 0.75, 1 ]
					},
					{
						"time": 1.6,
						"angle": -41.28,
						"curve": [ 0.25, 0, 0.75, 1 ]
					},
					{
						"time": 1.7,
						"angle": 16.84,
						"curve": [ 0.25, 0, 0.75, 1 ]
					},
					{
						"time": 2,
						"angle": -41.28,
						"curve": [ 0.25, 0, 0.75, 1 ]
					},
					{
						"time": 2.1,
						"angle": 16.84,
						"curve": [ 0.25, 0, 0.75, 1 ]
					},
					{
						"time": 2.4,
						"angle": -41.28,
						"curve": [ 0.25, 0, 0.75, 1 ]
					},
					{
						"time": 2.5,
						"angle": 16.84,
						"curve": [ 0.25, 0, 0.75, 1 ]
					},
					{ "time": 2.8, "angle": -41.28 },
					{ "time": 3.0667, "angle": -14.66 }
				]
			},
			"wing9": {
				"rotate": [
					{ "time": 0, "angle": -14.66 },
					{
						"time": 0.0667,
						"angle": -8,
						"curve": [ 0.514, 0.01, 0.518, 0.99 ]
					},
					{
						"time": 0.4,
						"angle": -41.28,
						"curve": [ 0.25, 0, 0.75, 1 ]
					},
					{
						"time": 0.5,
						"angle": 16.84,
						"curve": [ 0.25, 0, 0.75, 1 ]
					},
					{
						"time": 0.8,
						"angle": -41.28,
						"curve": [ 0.25, 0, 0.75, 1 ]
					},
					{
						"time": 0.9,
						"angle": 16.84,
						"curve": [ 0.25, 0, 0.75, 1 ]
					},
					{
						"time": 1.2,
						"angle": -41.28,
						"curve": [ 0.25, 0, 0.75, 1 ]
					},
					{
						"time": 1.3,
						"angle": 16.84,
						"curve": [ 0.25, 0, 0.75, 1 ]
					},
					{
						"time": 1.6,
						"angle": -41.28,
						"curve": [ 0.25, 0, 0.75, 1 ]
					},
					{
						"time": 1.7,
						"angle": 16.84,
						"curve": [ 0.25, 0, 0.75, 1 ]
					},
					{
						"time": 2,
						"angle": -41.28,
						"curve": [ 0.25, 0, 0.75, 1 ]
					},
					{
						"time": 2.1,
						"angle": 16.84,
						"curve": [ 0.25, 0, 0.75, 1 ]
					},
					{
						"time": 2.4,
						"angle": -41.28,
						"curve": [ 0.25, 0, 0.75, 1 ]
					},
					{
						"time": 2.5,
						"angle": 16.84,
						"curve": [ 0.25, 0, 0.75, 1 ]
					},
					{ "time": 2.8, "angle": -41.28 },
					{ "time": 3.0667, "angle": -14.66 }
				]
			},
			"tail2": {
				"rotate": [
					{
						"time": 0,
						"angle": 0,
						"curve": [ 0.25, 0, 0.75, 1 ]
					},
					{ "time": 0.3333, "angle": -11.46 },
					{ "time": 0.4333, "angle": 2.74 },
					{ "time": 0.7667, "angle": -11.46 },
					{ "time": 0.8667, "angle": 2.74 },
					{ "time": 1.2, "angle": -11.46 },
					{ "time": 1.3, "angle": 2.74 },
					{ "time": 1.6333, "angle": -11.46 },
					{ "time": 1.7333, "angle": 2.74 },
					{ "time": 2.0667, "angle": -11.46 },
					{ "time": 2.1667, "angle": 2.74 },
					{ "time": 2.5, "angle": -11.46 },
					{ "time": 3.0667, "angle": 0 }
				]
			},
			"tail": {
				"rotate": [
					{
						"time": 0,
						"angle": 0,
						"curve": [ 0.25, 0, 0.75, 1 ]
					},
					{ "time": 0.3333, "angle": -11.46 },
					{ "time": 0.4333, "angle": 2.74 },
					{ "time": 0.7667, "angle": -11.46 },
					{ "time": 0.8667, "angle": 2.74 },
					{ "time": 1.2, "angle": -11.46 },
					{ "time": 1.3, "angle": 2.74 },
					{ "time": 1.6333, "angle": -11.46 },
					{ "time": 1.7333, "angle": 2.74 },
					{ "time": 2.0667, "angle": -11.46 },
					{ "time": 2.1667, "angle": 2.74 },
					{ "time": 2.5, "angle": -11.46 },
					{ "time": 3.0667, "angle": 0 }
				]
			},
			"pipe": {
				"translate": [
					{ "time": 0, "x": 0, "y": 0 },
					{ "time": 0.1, "x": -28.84, "y": 0 },
					{ "time": 0.2, "x": 0, "y": 0 },
					{ "time": 0.3, "x": -28.84, "y": 0 },
					{ "time": 0.4, "x": 0, "y": 0 },
					{ "time": 0.5, "x": -28.84, "y": 0 },
					{ "time": 0.6, "x": 0, "y": 0 },
					{ "time": 0.7, "x": -28.84, "y": 0 },
					{ "time": 0.8333, "x": 0, "y": 0 },
					{ "time": 0.9333, "x": -28.84, "y": 0 },
					{ "time": 1.0333, "x": 0, "y": 0 },
					{ "time": 1.1333, "x": -28.84, "y": 0 },
					{ "time": 1.2333, "x": 0, "y": 0 },
					{ "time": 1.3333, "x": -28.84, "y": 0 },
					{ "time": 1.4333, "x": 0, "y": 0 },
					{ "time": 1.5333, "x": -28.84, "y": 0 },
					{ "time": 1.6333, "x": 0, "y": 0 },
					{ "time": 1.7333, "x": -28.84, "y": 0 },
					{ "time": 1.8333, "x": 0, "y": 0 },
					{ "time": 1.9333, "x": -28.84, "y": 0 },
					{ "time": 2.0333, "x": 0, "y": 0 },
					{ "time": 2.1333, "x": -28.84, "y": 0 },
					{ "time": 2.2333, "x": 0, "y": 0 },
					{ "time": 2.3667, "x": -28.84, "y": 0 },
					{ "time": 2.4667, "x": 0, "y": 0 },
					{ "time": 2.5667, "x": -28.84, "y": 0 },
					{ "time": 2.6667, "x": 0, "y": 0 },
					{ "time": 2.7667, "x": -28.84, "y": 0 },
					{ "time": 2.8667, "x": 0, "y": 0 },
					{ "time": 2.9667, "x": -28.84, "y": 0 },
					{ "time": 3.0667, "x": 0, "y": 0 }
				]
			}
		}
	},
	"idle": {
		"bones": {
			"spine": {
				"translate": [
					{
						"time": 0,
						"x": 0,
						"y": 0,
						"curve": [ 0.514, 0.01, 0.518, 0.99 ]
					},
					{
						"time": 0.5,
						"x": 0,
						"y": -51.24,
						"curve": [ 0.514, 0.01, 0.518, 0.99 ]
					},
					{ "time": 1, "x": 0, "y": 0 }
				]
			},
			"wing7": {
				"rotate": [
					{
						"time": 0,
						"angle": 0,
						"curve": [ 0.514, 0.01, 0.518, 0.99 ]
					},
					{
						"time": 0.5,
						"angle": 32.01,
						"curve": [ 0.514, 0.01, 0.518, 0.99 ]
					},
					{ "time": 1, "angle": 0 }
				]
			},
			"wing": {
				"rotate": [
					{
						"time": 0,
						"angle": 0,
						"curve": [ 0.514, 0.01, 0.518, 0.99 ]
					},
					{
						"time": 0.5,
						"angle": 32.01,
						"curve": [ 0.514, 0.01, 0.518, 0.99 ]
					},
					{ "time": 1, "angle": 0 }
				]
			},
			"wing4": {
				"rotate": [
					{
						"time": 0,
						"angle": -8,
						"curve": [ 0.514, 0.01, 0.518, 0.99 ]
					},
					{
						"time": 0.5,
						"angle": 29.6,
						"curve": [ 0.514, 0.01, 0.518, 0.99 ]
					},
					{ "time": 1, "angle": -8 }
				]
			},
			"wing9": {
				"rotate": [
					{
						"time": 0,
						"angle": -8,
						"curve": [ 0.514, 0.01, 0.518, 0.99 ]
					},
					{
						"time": 0.5,
						"angle": 29.6,
						"curve": [ 0.514, 0.01, 0.518, 0.99 ]
					},
					{ "time": 1, "angle": -8 }
				]
			},
			"arm2": {
				"translate": [
					{ "time": 0, "x": 0, "y": 0 },
					{ "time": 0.1, "x": 0, "y": -15.89 },
					{ "time": 0.2, "x": 0, "y": 0 },
					{ "time": 0.3, "x": 0, "y": -15.89 },
					{ "time": 0.4, "x": 0, "y": 0 },
					{ "time": 0.5, "x": 0, "y": -15.89 },
					{ "time": 0.6, "x": 0, "y": 0 },
					{ "time": 0.7, "x": 0, "y": -15.89 },
					{ "time": 0.8, "x": 0, "y": 0 },
					{ "time": 0.9, "x": 0, "y": -15.89 },
					{ "time": 1, "x": 0, "y": 0 }
				]
			},
			"arm": {
				"translate": [
					{ "time": 0, "x": 0, "y": 0 },
					{ "time": 0.1, "x": 0, "y": -15.89 },
					{ "time": 0.2, "x": 0, "y": 0 },
					{ "time": 0.3, "x": 0, "y": -15.89 },
					{ "time": 0.4, "x": 0, "y": 0 },
					{ "time": 0.5, "x": 0, "y": -15.89 },
					{ "time": 0.6, "x": 0, "y": 0 },
					{ "time": 0.7, "x": 0, "y": -15.89 },
					{ "time": 0.8, "x": 0, "y": 0 },
					{ "time": 0.9, "x": 0, "y": -15.89 },
					{ "time": 1, "x": 0, "y": 0 }
				]
			},
			"tail2": {
				"rotate": [
					{
						"time": 0,
						"angle": 0,
						"curve": [ 0.25, 0, 0.75, 1 ]
					},
					{
						"time": 0.1667,
						"angle": 13.94,
						"curve": [ 0.25, 0, 0.75, 1 ]
					},
					{
						"time": 0.3333,
						"angle": 0,
						"curve": [ 0.25, 0, 0.75, 1 ]
					},
					{
						"time": 0.5,
						"angle": 13.94,
						"curve": [ 0.25, 0, 0.75, 1 ]
					},
					{
						"time": 0.6667,
						"angle": 0,
						"curve": [ 0.25, 0, 0.75, 1 ]
					},
					{
						"time": 0.8333,
						"angle": 13.94,
						"curve": [ 0.25, 0, 0.75, 1 ]
					},
					{ "time": 1, "angle": 0 }
				]
			},
			"tail": {
				"rotate": [
					{
						"time": 0,
						"angle": 0,
						"curve": [ 0.25, 0, 0.75, 1 ]
					},
					{
						"time": 0.1667,
						"angle": 13.94,
						"curve": [ 0.25, 0, 0.75, 1 ]
					},
					{
						"time": 0.3333,
						"angle": 0,
						"curve": [ 0.25, 0, 0.75, 1 ]
					},
					{
						"time": 0.5,
						"angle": 13.94,
						"curve": [ 0.25, 0, 0.75, 1 ]
					},
					{
						"time": 0.6667,
						"angle": 0,
						"curve": [ 0.25, 0, 0.75, 1 ]
					},
					{
						"time": 0.8333,
						"angle": 13.94,
						"curve": [ 0.25, 0, 0.75, 1 ]
					},
					{ "time": 1, "angle": 0 }
				]
			},
			"pipe": {
				"translate": [
					{ "time": 0, "x": 0, "y": 0 },
					{ "time": 0.1, "x": -28.84, "y": 0 },
					{ "time": 0.2, "x": 0, "y": 0 },
					{ "time": 0.3, "x": -28.84, "y": 0 },
					{ "time": 0.4, "x": 0, "y": 0 },
					{ "time": 0.5, "x": -28.84, "y": 0 },
					{ "time": 0.6, "x": 0, "y": 0 },
					{ "time": 0.7, "x": -28.84, "y": 0 },
					{ "time": 0.8, "x": 0, "y": 0 },
					{ "time": 0.9, "x": -28.84, "y": 0 },
					{ "time": 1, "x": 0, "y": 0 }
				]
			},
			"gun9": {
				"translate": [
					{ "time": 0, "x": 0, "y": 0 },
					{ "time": 0.1, "x": 0, "y": -25.9 },
					{ "time": 0.2, "x": 0, "y": 0 },
					{ "time": 0.3, "x": 0, "y": -25.9 },
					{ "time": 0.4, "x": 0, "y": 0 },
					{ "time": 0.5, "x": 0, "y": -25.9 },
					{ "time": 0.6, "x": 0, "y": 0 },
					{ "time": 0.7, "x": 0, "y": -25.9 },
					{ "time": 0.8, "x": 0, "y": 0 },
					{ "time": 0.9, "x": 0, "y": -25.9 },
					{ "time": 1, "x": 0, "y": 0 }
				]
			},
			"gun": {
				"translate": [
					{ "time": 0, "x": 0, "y": 0 },
					{ "time": 0.1, "x": 0, "y": -25.9 },
					{ "time": 0.2, "x": 0, "y": 0 },
					{ "time": 0.3, "x": 0, "y": -25.9 },
					{ "time": 0.4, "x": 0, "y": 0 },
					{ "time": 0.5, "x": 0, "y": -25.9 },
					{ "time": 0.6, "x": 0, "y": 0 },
					{ "time": 0.7, "x": 0, "y": -25.9 },
					{ "time": 0.8, "x": 0, "y": 0 },
					{ "time": 0.9, "x": 0, "y": -25.9 },
					{ "time": 1, "x": 0, "y": 0 }
				]
			}
		}
	}
}
}