
boss36.png
size: 497,453
format: RGBA8888
filter: Linear,Linear
repeat: none
1
  rotate: false
  xy: 431, 162
  size: 51, 52
  orig: 51, 52
  offset: 0, 0
  index: -1
10
  rotate: false
  xy: 307, 95
  size: 92, 77
  orig: 92, 77
  offset: 0, 0
  index: -1
11
  rotate: false
  xy: 310, 174
  size: 119, 111
  orig: 119, 111
  offset: 0, 0
  index: -1
12
  rotate: false
  xy: 0, 11
  size: 191, 169
  orig: 191, 169
  offset: 0, 0
  index: -1
13
  rotate: false
  xy: 0, 182
  size: 200, 271
  orig: 200, 271
  offset: 0, 0
  index: -1
14
  rotate: false
  xy: 315, 10
  size: 54, 38
  orig: 54, 38
  offset: 0, 0
  index: -1
15
  rotate: false
  xy: 431, 216
  size: 38, 69
  orig: 38, 69
  offset: 0, 0
  index: -1
16
  rotate: false
  xy: 202, 177
  size: 106, 216
  orig: 106, 216
  offset: 0, 0
  index: -1
17
  rotate: false
  xy: 461, 312
  size: 21, 81
  orig: 21, 81
  offset: 0, 0
  index: -1
18
  rotate: false
  xy: 202, 395
  size: 295, 58
  orig: 295, 58
  offset: 0, 0
  index: -1
2
  rotate: false
  xy: 426, 115
  size: 53, 45
  orig: 53, 45
  offset: 0, 0
  index: -1
3
  rotate: false
  xy: 315, 50
  size: 53, 43
  orig: 53, 43
  offset: 0, 0
  index: -1
4
  rotate: false
  xy: 193, 63
  size: 112, 112
  orig: 112, 112
  offset: 0, 0
  index: -1
5
  rotate: false
  xy: 401, 106
  size: 23, 66
  orig: 23, 66
  offset: 0, 0
  index: -1
6
  rotate: false
  xy: 290, 0
  size: 23, 61
  orig: 23, 61
  offset: 0, 0
  index: -1
7
  rotate: false
  xy: 193, 10
  size: 95, 51
  orig: 95, 51
  offset: 0, 0
  index: -1
8
  rotate: false
  xy: 370, 53
  size: 40, 40
  orig: 40, 40
  offset: 0, 0
  index: -1
9
  rotate: false
  xy: 310, 287
  size: 149, 106
  orig: 149, 106
  offset: 0, 0
  index: -1
