
Boss24.png
size: 512,512
format: RGBA8888
filter: Linear,Linear
repeat: none
cang
  rotate: false
  xy: 114, 320
  size: 25, 37
  orig: 25, 37
  offset: 0, 0
  index: -1
cang tay 1
  rotate: false
  xy: 208, 368
  size: 66, 136
  orig: 66, 136
  offset: 0, 0
  index: -1
cang tay 2
  rotate: true
  xy: 355, 449
  size: 55, 102
  orig: 55, 102
  offset: 0, 0
  index: -1
canh
  rotate: false
  xy: 114, 359
  size: 92, 145
  orig: 92, 145
  offset: 0, 0
  index: -1
canh1
  rotate: false
  xy: 2, 92
  size: 59, 218
  orig: 59, 218
  offset: 0, 0
  index: -1
chan phai 2
  rotate: false
  xy: 355, 414
  size: 68, 33
  orig: 68, 33
  offset: 0, 0
  index: -1
chan phai1
  rotate: true
  xy: 63, 238
  size: 72, 54
  orig: 72, 54
  offset: 0, 0
  index: -1
co cang tay
  rotate: false
  xy: 63, 200
  size: 36, 36
  orig: 36, 36
  offset: 0, 0
  index: -1
dau
  rotate: false
  xy: 276, 414
  size: 77, 90
  orig: 77, 90
  offset: 0, 0
  index: -1
duoi
  rotate: true
  xy: 2, 2
  size: 88, 56
  orig: 88, 56
  offset: 0, 0
  index: -1
flare cang tay
  rotate: false
  xy: 63, 180
  size: 18, 18
  orig: 18, 18
  offset: 0, 0
  index: -1
flare chan
  rotate: false
  xy: 459, 462
  size: 42, 42
  orig: 42, 42
  offset: 0, 0
  index: -1
flare mat
  rotate: false
  xy: 425, 425
  size: 22, 22
  orig: 22, 22
  offset: 0, 0
  index: -1
flare than
  rotate: false
  xy: 350, 384
  size: 18, 28
  orig: 18, 28
  offset: 0, 0
  index: -1
sung
  rotate: true
  xy: 276, 372
  size: 40, 72
  orig: 40, 72
  offset: 0, 0
  index: -1
than
  rotate: false
  xy: 2, 312
  size: 110, 192
  orig: 110, 192
  offset: 0, 0
  index: -1
