
26.png
size: 374,170
format: RGBA8888
filter: Linear,Linear
repeat: none
Hue/Saturation 1
  rotate: false
  xy: 188, 2
  size: 120, 166
  orig: 120, 166
  offset: 0, 0
  index: -1
Hue/Saturation 1 copy
  rotate: false
  xy: 2, 12
  size: 184, 156
  orig: 184, 156
  offset: 0, 0
  index: -1
Layer 2
  rotate: true
  xy: 310, 102
  size: 66, 62
  orig: 66, 62
  offset: 0, 0
  index: -1
dau
  rotate: false
  xy: 310, 28
  size: 56, 72
  orig: 56, 72
  offset: 0, 0
  index: -1
