%YAML 1.1
%TAG !u! tag:unity3d.com,2011:
--- !u!114 &11400000
MonoBehaviour:
  m_ObjectHideFlags: 0
  m_CorrespondingSourceObject: {fileID: 0}
  m_PrefabInstance: {fileID: 0}
  m_PrefabAsset: {fileID: 0}
  m_GameObject: {fileID: 0}
  m_Enabled: 1
  m_EditorHideFlags: 0
  m_Script: {fileID: 11500000, guid: f1b3b4b945939a54ea0b23d3396115fb, type: 3}
  m_Name: 22_SkeletonData
  m_EditorClassIdentifier: 
  atlasAssets:
  - {fileID: 11400000, guid: d9f2c69b6037ae949b5d135592a09424, type: 2}
  scale: 0.01
  skeletonJSON: {fileID: 4900000, guid: 4967868e4e3626749a933e8fb1c9f52b, type: 3}
  fromAnimation: []
  toAnimation: []
  duration: []
  defaultMix: 0.2
  controller: {fileID: 0}
