
1new.png
size: 119,61
format: RGBA8888
filter: Linear,Linear
repeat: none
body
  rotate: false
  xy: 0, 0
  size: 40, 61
  orig: 40, 61
  offset: 0, 0
  index: -1
canhL2
  rotate: false
  xy: 42, 35
  size: 52, 26
  orig: 52, 26
  offset: 0, 0
  index: -1
handL1
  rotate: false
  xy: 82, 1
  size: 16, 27
  orig: 16, 27
  offset: 0, 0
  index: -1
head
  rotate: false
  xy: 96, 30
  size: 23, 31
  orig: 23, 31
  offset: 0, 0
  index: -1
neck
  rotate: false
  xy: 42, 6
  size: 38, 27
  orig: 38, 27
  offset: 0, 0
  index: -1
