{
  "__type__": "cc.AnimationClip",
  "_name": "animCamera",
  "_objFlags": 0,
  "_native": "",
  "_duration": 0.8333333333333334,
  "sample": 60,
  "speed": 1,
  "wrapMode": 1,
  "curveData": {
    "props": {
      "x": [
        {
          "frame": 0,
          "value": 0
        },
        {
          "frame": 0.08333333333333333,
          "value": 15
        },
        {
          "frame": 0.25,
          "value": -12
        },
        {
          "frame": 0.4166666666666667,
          "value": 8
        },
        {
          "frame": 0.5833333333333334,
          "value": -5
        },
        {
          "frame": 0.75,
          "value": 2
        },
        {
          "frame": 0.8333333333333334,
          "value": 0
        }
      ]
    }
  },
  "events": []
}