{
  "__type__": "cc.AnimationClip",
  "_name": "animChooseShipOff",
  "_objFlags": 0,
  "_native": "",
  "_duration": 0,
  "sample": 60,
  "speed": 1,
  "wrapMode": 1,
  "curveData": {
    "paths": {
      "flareEndCard": {
        "props": {
          "active": [
            {
              "frame": 0,
              "value": false
            }
          ]
        }
      },
      "flareEndCard2": {
        "props": {
          "active": [
            {
              "frame": 0,
              "value": false
            }
          ]
        }
      },
      "flareEndCard3": {
        "props": {
          "active": [
            {
              "frame": 0,
              "value": false
            }
          ]
        }
      },
      "flareEndCard4": {
        "props": {
          "active": [
            {
              "frame": 0,
              "value": false
            }
          ]
        }
      },
      "hand_old": {
        "props": {
          "active": [
            {
              "frame": 0,
              "value": false
            }
          ]
        }
      }
    }
  },
  "events": []
}