{
  "__type__": "cc.AnimationClip",
  "_name": "button",
  "_objFlags": 0,
  "_native": "",
  "_duration": 0.5,
  "sample": 60,
  "speed": 0.6,
  "wrapMode": 2,
  "curveData": {
    "props": {
      "scale": [
        {
          "frame": 0,
          "value": {
            "__type__": "cc.Vec2",
            "x": 1.2,
            "y": 1.2
          }
        },
        {
          "frame": 0.25,
          "value": {
            "__type__": "cc.Vec2",
            "x": 1.1,
            "y": 1.1
          }
        },
        {
          "frame": 0.5,
          "value": {
            "__type__": "cc.Vec2",
            "x": 1.2,
            "y": 1.2
          }
        }
      ]
    }
  },
  "events": []
}