{
  "__type__": "cc.AnimationClip",
  "_name": "chooseCard3",
  "_objFlags": 0,
  "_native": "",
  "_duration": 1.25,
  "sample": 60,
  "speed": 0.45,
  "wrapMode": 2,
  "curveData": {
    "paths": {
      "flareEndCard_1": {
        "props": {
          "active": [
            {
              "frame": 0,
              "value": true
            },
            {
              "frame": 0.25,
              "value": false
            }
          ]
        }
      },
      "flareEndCard_2": {
        "props": {
          "active": [
            {
              "frame": 0,
              "value": false
            },
            {
              "frame": 0.4166666666666667,
              "value": true
            },
            {
              "frame": 0.6666666666666666,
              "value": false
            }
          ]
        }
      },
      "flareEndCard_3": {
        "props": {
          "active": [
            {
              "frame": 0,
              "value": false
            },
            {
              "frame": 0.8333333333333334,
              "value": true
            },
            {
              "frame": 1.0833333333333333,
              "value": false
            }
          ]
        }
      },
      "hand_old": {
        "props": {
          "scale": [
            {
              "frame": 0,
              "value": {
                "__type__": "cc.Vec2",
                "x": 0.8,
                "y": 0.8
              }
            },
            {
              "frame": 0.08333333333333333,
              "value": {
                "__type__": "cc.Vec2",
                "x": 0.75,
                "y": 0.75
              }
            },
            {
              "frame": 0.16666666666666666,
              "value": {
                "__type__": "cc.Vec2",
                "x": 0.8,
                "y": 0.8
              }
            },
            {
              "frame": 0.25,
              "value": {
                "__type__": "cc.Vec2",
                "x": 0.75,
                "y": 0.75
              }
            },
            {
              "frame": 0.4166666666666667,
              "value": {
                "__type__": "cc.Vec2",
                "x": 0.75,
                "y": 0.75
              }
            },
            {
              "frame": 0.5,
              "value": {
                "__type__": "cc.Vec2",
                "x": 0.8,
                "y": 0.8
              }
            },
            {
              "frame": 0.5833333333333334,
              "value": {
                "__type__": "cc.Vec2",
                "x": 0.75,
                "y": 0.75
              }
            },
            {
              "frame": 0.6666666666666666,
              "value": {
                "__type__": "cc.Vec2",
                "x": 0.8,
                "y": 0.8
              }
            },
            {
              "frame": 0.8333333333333334,
              "value": {
                "__type__": "cc.Vec2",
                "x": 0.75,
                "y": 0.75
              }
            },
            {
              "frame": 0.9166666666666666,
              "value": {
                "__type__": "cc.Vec2",
                "x": 0.8,
                "y": 0.8
              }
            },
            {
              "frame": 1,
              "value": {
                "__type__": "cc.Vec2",
                "x": 0.75,
                "y": 0.75
              }
            },
            {
              "frame": 1.0833333333333333,
              "value": {
                "__type__": "cc.Vec2",
                "x": 0.8,
                "y": 0.8
              }
            },
            {
              "frame": 1.25,
              "value": {
                "__type__": "cc.Vec2",
                "x": 0.75,
                "y": 0.75
              }
            }
          ],
          "position": [
            {
              "frame": 0,
              "value": [
                5.643,
                89.983,
                0
              ]
            },
            {
              "frame": 0.25,
              "value": [
                5.643,
                89.983,
                0
              ]
            },
            {
              "frame": 0.4166666666666667,
              "value": [
                111.628,
                -121.09,
                0
              ]
            },
            {
              "frame": 0.6666666666666666,
              "value": [
                111.628,
                -121.09,
                0
              ]
            },
            {
              "frame": 0.8333333333333334,
              "value": [
                -98.797,
                -119.967,
                0
              ]
            },
            {
              "frame": 1.0833333333333333,
              "value": [
                -98.797,
                -121.09,
                0
              ]
            },
            {
              "frame": 1.25,
              "value": [
                5.643,
                89.983,
                0
              ]
            }
          ],
          "active": [
            {
              "frame": 0,
              "value": true
            }
          ]
        }
      }
    }
  },
  "events": []
}