{
  "__type__": "cc.AnimationClip",
  "_name": "choose_bullet",
  "_objFlags": 0,
  "_native": "",
  "_duration": 4.766666666666667,
  "sample": 60,
  "speed": 0.8,
  "wrapMode": 2,
  "curveData": {
    "paths": {
      "boder_1": {
        "props": {
          "active": [
            {
              "frame": 0,
              "value": true
            },
            {
              "frame": 0.16666666666666666,
              "value": false
            },
            {
              "frame": 0.3333333333333333,
              "value": true
            },
            {
              "frame": 0.5,
              "value": false
            },
            {
              "frame": 0.6666666666666666,
              "value": true
            },
            {
              "frame": 0.8333333333333334,
              "value": false
            },
            {
              "frame": 1,
              "value": true
            },
            {
              "frame": 1.1666666666666667,
              "value": false
            }
          ]
        }
      },
      "boder_2": {
        "props": {
          "active": [
            {
              "frame": 0,
              "value": false
            },
            {
              "frame": 1.8333333333333333,
              "value": true
            },
            {
              "frame": 2,
              "value": false
            },
            {
              "frame": 2.1666666666666665,
              "value": true
            },
            {
              "frame": 2.3333333333333335,
              "value": false
            },
            {
              "frame": 2.5,
              "value": true
            },
            {
              "frame": 2.6666666666666665,
              "value": false
            },
            {
              "frame": 2.8333333333333335,
              "value": true
            },
            {
              "frame": 3,
              "value": false
            }
          ]
        }
      },
      "boder_3": {
        "props": {
          "active": [
            {
              "frame": 0,
              "value": false
            },
            {
              "frame": 3.6666666666666665,
              "value": true
            },
            {
              "frame": 3.8,
              "value": false
            },
            {
              "frame": 3.966666666666667,
              "value": true
            },
            {
              "frame": 4.133333333333334,
              "value": false
            },
            {
              "frame": 4.316666666666666,
              "value": true
            },
            {
              "frame": 4.45,
              "value": false
            },
            {
              "frame": 4.616666666666666,
              "value": true
            },
            {
              "frame": 4.766666666666667,
              "value": false
            }
          ]
        }
      },
      "hand": {
        "props": {
          "position": [
            {
              "frame": 0,
              "value": [
                -93.963,
                -69.022,
                0
              ]
            },
            {
              "frame": 1.1666666666666667,
              "value": [
                -93.963,
                -69.022,
                0
              ]
            },
            {
              "frame": 1.8333333333333333,
              "value": [
                47.428,
                -69.022,
                0
              ]
            },
            {
              "frame": 3,
              "value": [
                47.428,
                -69.022,
                0
              ]
            },
            {
              "frame": 3.6666666666666665,
              "value": [
                180,
                -69.022,
                0
              ]
            }
          ],
          "active": [
            {
              "frame": 0,
              "value": true
            },
            {
              "frame": 1.1666666666666667,
              "value": false
            },
            {
              "frame": 1.8333333333333333,
              "value": true
            },
            {
              "frame": 3,
              "value": false
            },
            {
              "frame": 3.6666666666666665,
              "value": true
            },
            {
              "frame": 4.766666666666667,
              "value": false
            }
          ]
        }
      }
    }
  },
  "events": []
}