{
  "__type__": "cc.AnimationClip",
  "_name": "e_pixel_6",
  "_objFlags": 0,
  "_native": "",
  "_duration": 0.03333333333333333,
  "sample": 60,
  "speed": 0.1,
  "wrapMode": 22,
  "curveData": {
    "comps": {
      "cc.Sprite": {
        "spriteFrame": [
          {
            "frame": 0,
            "value": {
              "__uuid__": "e07f26ac-6a23-492d-a528-880e19edb579"
            }
          },
          {
            "frame": 0.016666666666666666,
            "value": {
              "__uuid__": "6d33f9c8-eb40-4fb1-a79d-0b19f1f1aecb"
            }
          }
        ]
      }
    }
  },
  "events": []
}