{
  "__type__": "cc.AnimationClip",
  "_name": "scale",
  "_objFlags": 0,
  "_native": "",
  "_duration": 0.25,
  "sample": 60,
  "speed": 0.15,
  "wrapMode": 22,
  "curveData": {
    "props": {
      "scale": [
        {
          "frame": 0,
          "value": {
            "__type__": "cc.Vec2",
            "x": 0,
            "y": 0
          }
        },
        {
          "frame": 0.16666666666666666,
          "value": {
            "__type__": "cc.Vec2",
            "x": 1,
            "y": 1
          }
        }
      ]
    },
    "paths": {
      "NEXT_1": {
        "props": {
          "scale": [
            {
              "frame": 0,
              "value": {
                "__type__": "cc.Vec2",
                "x": 0.8,
                "y": 0.8
              }
            },
            {
              "frame": 0.08333333333333333,
              "value": {
                "__type__": "cc.Vec2",
                "x": 0.7,
                "y": 0.7
              }
            },
            {
              "frame": 0.16666666666666666,
              "value": {
                "__type__": "cc.Vec2",
                "x": 0.8,
                "y": 0.8
              }
            },
            {
              "frame": 0.25,
              "value": {
                "__type__": "cc.Vec2",
                "x": 0.7,
                "y": 0.7
              }
            }
          ]
        }
      }
    }
  },
  "events": []
}