{
  "__type__": "cc.AnimationClip",
  "_name": "scaleTxt",
  "_objFlags": 0,
  "_native": "",
  "_duration": 0.6666666666666666,
  "sample": 60,
  "speed": 0.3,
  "wrapMode": 2,
  "curveData": {
    "props": {
      "scale": [
        {
          "frame": 0,
          "value": {
            "__type__": "cc.Vec2",
            "x": 1.2,
            "y": 1.2
          }
        },
        {
          "frame": 0.16666666666666666,
          "value": {
            "__type__": "cc.Vec2",
            "x": 1.14,
            "y": 1.14
          }
        },
        {
          "frame": 0.3333333333333333,
          "value": {
            "__type__": "cc.Vec2",
            "x": 1.2,
            "y": 1.2
          }
        },
        {
          "frame": 0.5,
          "value": {
            "__type__": "cc.Vec2",
            "x": 1.14,
            "y": 1.14
          }
        },
        {
          "frame": 0.6666666666666666,
          "value": {
            "__type__": "cc.Vec2",
            "x": 1.2,
            "y": 1.2
          }
        }
      ]
    }
  },
  "events": []
}