{
"skeleton": { "hash": "Jlw4PVjx5gdpNOfc9rTHM3jznjo", "spine": "3.7.93", "width": 384.81, "height": 249.41, "images": "", "audio": "" },
"bones": [
	{ "name": "root" },
	{ "name": "scale", "parent": "root", "scaleX": 0.2, "scaleY": 0.2 },
	{ "name": "main_control", "parent": "scale", "y": 154.96 },
	{ "name": "1", "parent": "main_control", "x": 735.39, "y": -420.73, "color": "ff3f00ff" },
	{ "name": "2", "parent": "main_control", "x": -730.11, "y": -427.48, "color": "ff3f00ff" },
	{ "name": "body2", "parent": "main_control" },
	{ "name": "arm", "parent": "body2", "length": 301.84, "rotation": -26.54, "x": 296.94, "y": -95.39 },
	{ "name": "hand", "parent": "arm", "length": 253.02, "rotation": -22.61, "x": 303.45, "y": 1.86 },
	{
		"name": "arm2",
		"parent": "body2",
		"length": 301.84,
		"rotation": 27.27,
		"x": -294.81,
		"y": -95.39,
		"scaleX": -1
	},
	{ "name": "hand2", "parent": "arm2", "length": 253.02, "rotation": -22.61, "x": 303.45, "y": 1.86 },
	{ "name": "armor", "parent": "hand", "rotation": 3.92, "x": 254.99, "y": 2.98 },
	{ "name": "armor2", "parent": "hand2", "rotation": 3.92, "x": 254.99, "y": 2.98 },
	{ "name": "leg", "parent": "body2", "length": 325.33, "rotation": 23.83, "x": 477.12, "y": 10.47 },
	{ "name": "foot", "parent": "leg", "x": 366.01, "y": 2.33 },
	{ "name": "bullet1", "parent": "foot", "rotation": -23.83, "x": 73.75, "y": 287.99 },
	{ "name": "bullet2", "parent": "foot", "rotation": -23.83, "x": 71.96, "y": 193.04 },
	{ "name": "bullet3", "parent": "foot", "rotation": -23.83, "x": 66.65, "y": 92.44 },
	{ "name": "bullet4", "parent": "foot", "rotation": -23.83, "x": 64.96, "y": -4.61 },
	{ "name": "bullet5", "parent": "foot", "rotation": -23.83, "x": 61.17, "y": -101.76 },
	{
		"name": "leg2",
		"parent": "body2",
		"length": 325.33,
		"rotation": -24.58,
		"x": -476.64,
		"y": 9.91,
		"scaleX": -1
	},
	{ "name": "foot2", "parent": "leg2", "x": 344.85, "y": -1.84 },
	{ "name": "bullet7", "parent": "foot2", "rotation": 155.42, "x": 83.41, "y": -0.87 },
	{ "name": "bullet8", "parent": "foot2", "rotation": 155.42, "x": 87.79, "y": 97.63 },
	{ "name": "bullet9", "parent": "foot2", "rotation": 155.42, "x": 89.99, "y": 194.29 },
	{ "name": "bullet10", "parent": "foot2", "rotation": 155.42, "x": 95.44, "y": 293.1 },
	{ "name": "bullet11", "parent": "foot2", "rotation": 155.42, "x": 80.83, "y": -98.35 },
	{ "name": "deco", "parent": "body2", "x": 130.97, "y": -216.28 },
	{ "name": "deco2", "parent": "body2", "x": -129.17, "y": -216.28, "scaleX": -1 },
	{ "name": "face", "parent": "body2", "y": -75.06 },
	{ "name": "pipe", "parent": "body2", "length": 164.22, "rotation": 38.25, "x": 292.36, "y": 97.27 },
	{ "name": "fire", "parent": "pipe", "x": 191.53, "y": 0.58 },
	{
		"name": "pipe2",
		"parent": "body2",
		"length": 164.22,
		"rotation": -38.41,
		"x": -289.71,
		"y": 97.27,
		"scaleX": -1
	},
	{ "name": "fire3", "parent": "pipe2", "rotation": 0.88, "x": 183.2, "y": -2.84 },
	{ "name": "hair", "parent": "body2", "y": 61.51 },
	{ "name": "mouth", "parent": "body2", "x": -0.4, "y": -309.6 }
],
"slots": [
	{ "name": "deco", "bone": "deco", "attachment": "deco" },
	{ "name": "deco2", "bone": "deco2", "attachment": "deco" },
	{ "name": "mouth", "bone": "mouth", "attachment": "mouth" },
	{ "name": "fire", "bone": "fire", "attachment": "fire" },
	{ "name": "fire3", "bone": "fire3", "attachment": "fire" },
	{ "name": "pipe", "bone": "pipe", "attachment": "pipe" },
	{ "name": "pipe2", "bone": "pipe2", "attachment": "pipe" },
	{ "name": "foot", "bone": "foot", "attachment": "foot" },
	{ "name": "foot2", "bone": "foot2", "attachment": "foot" },
	{ "name": "light", "bone": "foot" },
	{ "name": "light2", "bone": "foot2" },
	{ "name": "leg", "bone": "leg", "attachment": "leg" },
	{ "name": "leg2", "bone": "leg2", "attachment": "leg" },
	{ "name": "arm", "bone": "arm", "attachment": "arm" },
	{ "name": "arm2", "bone": "arm2", "attachment": "arm" },
	{ "name": "body2", "bone": "body2", "attachment": "body" },
	{ "name": "face", "bone": "face", "attachment": "face" },
	{ "name": "hair", "bone": "hair", "attachment": "hair" },
	{ "name": "hand", "bone": "hand", "attachment": "hand" },
	{ "name": "hand2", "bone": "hand2", "attachment": "hand" },
	{ "name": "armor", "bone": "armor", "attachment": "armor" },
	{ "name": "armor2", "bone": "armor2", "attachment": "armor" }
],
"ik": [
	{
		"name": "1",
		"order": 0,
		"bones": [ "arm", "hand" ],
		"target": "1",
		"bendPositive": false
	},
	{
		"name": "2",
		"order": 1,
		"bones": [ "arm2", "hand2" ],
		"target": "2"
	}
],
"skins": {
	"default": {
		"arm": {
			"arm": { "x": 150.07, "y": -11.33, "rotation": 26.54, "width": 381, "height": 202 }
		},
		"arm2": {
			"arm": { "x": 150.07, "y": -11.33, "rotation": 26.54, "width": 381, "height": 202 }
		},
		"armor": {
			"armor": { "x": 0.29, "y": 44.6, "rotation": 45.23, "width": 201, "height": 563 }
		},
		"armor2": {
			"armor": { "x": 0.29, "y": 44.6, "rotation": 45.23, "width": 201, "height": 563 }
		},
		"body2": {
			"body": { "x": 1.12, "y": -73.09, "width": 1231, "height": 475 }
		},
		"deco": {
			"deco": { "x": 69.15, "y": -38.31, "width": 217, "height": 218 }
		},
		"deco2": {
			"deco": { "x": 69.15, "y": -38.31, "width": 217, "height": 218 }
		},
		"face": {
			"face": { "x": 0.62, "y": 21.97, "width": 368, "height": 221 }
		},
		"fire": {
			"fire": { "x": 56.19, "y": 38.61, "rotation": -38.25, "width": 238, "height": 236 }
		},
		"fire3": {
			"fire": { "x": 56.19, "y": 38.61, "rotation": -38.25, "width": 238, "height": 236 }
		},
		"foot": {
			"foot": { "x": 27.6, "y": 70.83, "rotation": -23.83, "width": 308, "height": 654 }
		},
		"foot2": {
			"foot": { "x": 48.76, "y": 75, "rotation": -23.83, "width": 308, "height": 654 }
		},
		"hair": {
			"hair": { "x": 11.12, "y": 146.91, "width": 129, "height": 310 }
		},
		"hand": {
			"hand": { "x": 146.6, "y": -89.21, "rotation": 49.16, "width": 290, "height": 508 }
		},
		"hand2": {
			"hand": { "x": 146.6, "y": -89.21, "rotation": 49.16, "width": 290, "height": 508 }
		},
		"leg": {
			"leg": { "x": 170.17, "y": -5.8, "rotation": -23.83, "width": 399, "height": 293 }
		},
		"leg2": {
			"leg": { "x": 170.17, "y": -5.8, "rotation": -23.83, "width": 399, "height": 293 }
		},
		"light": {
			"light": { "x": 79.31, "y": 127.25, "rotation": -23.83, "width": 229, "height": 507 }
		},
		"light2": {
			"light": { "x": 100.46, "y": 131.42, "rotation": -23.83, "width": 229, "height": 507 }
		},
		"mouth": {
			"mouth": { "x": 1.52, "y": -70.99, "width": 253, "height": 254 }
		},
		"pipe": {
			"pipe": { "x": 56.29, "y": -21.9, "rotation": -38.25, "width": 347, "height": 249 }
		},
		"pipe2": {
			"pipe": { "x": 56.29, "y": -21.9, "rotation": -38.25, "width": 347, "height": 249 }
		}
	}
},
"events": {
	"attack": {}
},
"animations": {
	"idle": {
		"slots": {
			"fire": {
				"attachment": [
					{ "time": 0, "name": "fire" },
					{ "time": 0.1333, "name": null },
					{ "time": 0.1667, "name": "fire" },
					{ "time": 0.3, "name": null },
					{ "time": 0.3333, "name": "fire" },
					{ "time": 0.4667, "name": null },
					{ "time": 0.5, "name": "fire" },
					{ "time": 0.6333, "name": null },
					{ "time": 0.6667, "name": "fire" },
					{ "time": 0.8, "name": null },
					{ "time": 0.8333, "name": "fire" },
					{ "time": 0.9667, "name": null },
					{ "time": 1, "name": "fire" }
				]
			},
			"fire3": {
				"attachment": [
					{ "time": 0, "name": "fire" },
					{ "time": 0.1333, "name": null },
					{ "time": 0.1667, "name": "fire" },
					{ "time": 0.3, "name": null },
					{ "time": 0.3333, "name": "fire" },
					{ "time": 0.4667, "name": null },
					{ "time": 0.5, "name": "fire" },
					{ "time": 0.6333, "name": null },
					{ "time": 0.6667, "name": "fire" },
					{ "time": 0.8, "name": null },
					{ "time": 0.8333, "name": "fire" },
					{ "time": 0.9667, "name": null },
					{ "time": 1, "name": "fire" }
				]
			}
		},
		"bones": {
			"main_control": {
				"translate": [
					{ "time": 0, "x": 0, "y": 0, "curve": "stepped" },
					{ "time": 0.5, "x": 0, "y": -92.08, "curve": "stepped" },
					{ "time": 1, "x": 0, "y": 0 }
				]
			},
			"face": {
				"translate": [
					{ "time": 0, "x": 0, "y": -9.64, "curve": "stepped" },
					{ "time": 0.1667, "x": 0, "y": 0, "curve": "stepped" },
					{ "time": 0.6667, "x": 0, "y": -28.92, "curve": "stepped" },
					{ "time": 1, "x": 0, "y": -9.64 }
				]
			},
			"hair": {
				"translate": [
					{ "time": 0, "x": 0, "y": -19.28, "curve": "stepped" },
					{ "time": 0.1667, "x": 0, "y": 0, "curve": "stepped" },
					{ "time": 0.6667, "x": 0, "y": -57.83, "curve": "stepped" },
					{ "time": 1, "x": 0, "y": -19.28 }
				]
			},
			"mouth": {
				"translate": [
					{ "time": 0, "x": 0, "y": 0, "curve": "stepped" },
					{ "time": 0.0667, "x": 0, "y": 21.4, "curve": "stepped" },
					{ "time": 0.1667, "x": 0, "y": 0, "curve": "stepped" },
					{ "time": 0.2333, "x": 0, "y": 21.4, "curve": "stepped" },
					{ "time": 0.3333, "x": 0, "y": 0, "curve": "stepped" },
					{ "time": 0.4, "x": 0, "y": 21.4, "curve": "stepped" },
					{ "time": 0.5, "x": 0, "y": 0, "curve": "stepped" },
					{ "time": 0.5667, "x": 0, "y": 21.4, "curve": "stepped" },
					{ "time": 0.6667, "x": 0, "y": 0, "curve": "stepped" },
					{ "time": 0.7333, "x": 0, "y": 21.4, "curve": "stepped" },
					{ "time": 0.8333, "x": 0, "y": 0, "curve": "stepped" },
					{ "time": 0.9, "x": 0, "y": 21.4, "curve": "stepped" },
					{ "time": 1, "x": 0, "y": 0 }
				]
			},
			"deco": {
				"translate": [
					{ "time": 0, "x": -12.68, "y": 7.17, "curve": "stepped" },
					{ "time": 0.1667, "x": 0, "y": 0, "curve": "stepped" },
					{ "time": 0.6667, "x": -38.05, "y": 21.5, "curve": "stepped" },
					{ "time": 1, "x": -12.68, "y": 7.17 }
				]
			},
			"1": {
				"translate": [
					{ "time": 0, "x": -68.72, "y": -50.17, "curve": "stepped" },
					{ "time": 0.2667, "x": 0, "y": 0, "curve": "stepped" },
					{ "time": 0.7667, "x": -128.85, "y": -94.06, "curve": "stepped" },
					{ "time": 1, "x": -68.72, "y": -50.17 }
				]
			},
			"armor": {
				"rotate": [
					{ "time": 0, "angle": 0, "curve": "stepped" },
					{ "time": 0.5, "angle": -5.39, "curve": "stepped" },
					{ "time": 1, "angle": 0 }
				]
			},
			"leg": {
				"rotate": [
					{ "time": 0, "angle": 0, "curve": "stepped" },
					{ "time": 0.5, "angle": -10.72, "curve": "stepped" },
					{ "time": 1, "angle": 0 }
				]
			},
			"pipe": {
				"translate": [
					{ "time": 0, "x": 0, "y": 0, "curve": "stepped" },
					{ "time": 0.5, "x": -22.04, "y": -17.38, "curve": "stepped" },
					{ "time": 1, "x": 0, "y": 0 }
				]
			},
			"fire": {
				"rotate": [
					{ "time": 0, "angle": 0, "curve": "stepped" },
					{ "time": 0.0667, "angle": -162.57, "curve": "stepped" },
					{ "time": 0.1333, "angle": -162.57, "curve": "stepped" },
					{ "time": 0.1667, "angle": 0, "curve": "stepped" },
					{ "time": 0.2333, "angle": -162.57, "curve": "stepped" },
					{ "time": 0.3, "angle": -162.57, "curve": "stepped" },
					{ "time": 0.3333, "angle": 0, "curve": "stepped" },
					{ "time": 0.4, "angle": -162.57, "curve": "stepped" },
					{ "time": 0.4667, "angle": -162.57, "curve": "stepped" },
					{ "time": 0.5, "angle": 0, "curve": "stepped" },
					{ "time": 0.5667, "angle": -162.57, "curve": "stepped" },
					{ "time": 0.6333, "angle": -162.57, "curve": "stepped" },
					{ "time": 0.6667, "angle": 0, "curve": "stepped" },
					{ "time": 0.7333, "angle": -162.57, "curve": "stepped" },
					{ "time": 0.8, "angle": -162.57, "curve": "stepped" },
					{ "time": 0.8333, "angle": 0, "curve": "stepped" },
					{ "time": 0.9, "angle": -162.57, "curve": "stepped" },
					{ "time": 0.9667, "angle": -162.57, "curve": "stepped" },
					{ "time": 1, "angle": 0 }
				],
				"translate": [
					{ "time": 0, "x": 0, "y": 0, "curve": "stepped" },
					{ "time": 0.0667, "x": -11.16, "y": 8.8, "curve": "stepped" },
					{ "time": 0.1333, "x": -11.16, "y": 8.8, "curve": "stepped" },
					{ "time": 0.1667, "x": 0, "y": 0, "curve": "stepped" },
					{ "time": 0.2333, "x": -11.16, "y": 8.8, "curve": "stepped" },
					{ "time": 0.3, "x": -11.16, "y": 8.8, "curve": "stepped" },
					{ "time": 0.3333, "x": 0, "y": 0, "curve": "stepped" },
					{ "time": 0.4, "x": -11.16, "y": 8.8, "curve": "stepped" },
					{ "time": 0.4667, "x": -11.16, "y": 8.8, "curve": "stepped" },
					{ "time": 0.5, "x": 0, "y": 0, "curve": "stepped" },
					{ "time": 0.5667, "x": -11.16, "y": 8.8, "curve": "stepped" },
					{ "time": 0.6333, "x": -11.16, "y": 8.8, "curve": "stepped" },
					{ "time": 0.6667, "x": 0, "y": 0, "curve": "stepped" },
					{ "time": 0.7333, "x": -11.16, "y": 8.8, "curve": "stepped" },
					{ "time": 0.8, "x": -11.16, "y": 8.8, "curve": "stepped" },
					{ "time": 0.8333, "x": 0, "y": 0, "curve": "stepped" },
					{ "time": 0.9, "x": -11.16, "y": 8.8, "curve": "stepped" },
					{ "time": 0.9667, "x": -11.16, "y": 8.8, "curve": "stepped" },
					{ "time": 1, "x": 0, "y": 0 }
				],
				"scale": [
					{ "time": 0, "x": 1, "y": 1, "curve": "stepped" },
					{ "time": 0.0667, "x": -0.8, "y": 0.8, "curve": "stepped" },
					{ "time": 0.1333, "x": -0.8, "y": 0.8, "curve": "stepped" },
					{ "time": 0.1667, "x": 1, "y": 1, "curve": "stepped" },
					{ "time": 0.2333, "x": -0.8, "y": 0.8, "curve": "stepped" },
					{ "time": 0.3, "x": -0.8, "y": 0.8, "curve": "stepped" },
					{ "time": 0.3333, "x": 1, "y": 1, "curve": "stepped" },
					{ "time": 0.4, "x": -0.8, "y": 0.8, "curve": "stepped" },
					{ "time": 0.4667, "x": -0.8, "y": 0.8, "curve": "stepped" },
					{ "time": 0.5, "x": 1, "y": 1, "curve": "stepped" },
					{ "time": 0.5667, "x": -0.8, "y": 0.8, "curve": "stepped" },
					{ "time": 0.6333, "x": -0.8, "y": 0.8, "curve": "stepped" },
					{ "time": 0.6667, "x": 1, "y": 1, "curve": "stepped" },
					{ "time": 0.7333, "x": -0.8, "y": 0.8, "curve": "stepped" },
					{ "time": 0.8, "x": -0.8, "y": 0.8, "curve": "stepped" },
					{ "time": 0.8333, "x": 1, "y": 1, "curve": "stepped" },
					{ "time": 0.9, "x": -0.8, "y": 0.8, "curve": "stepped" },
					{ "time": 0.9667, "x": -0.8, "y": 0.8, "curve": "stepped" },
					{ "time": 1, "x": 1, "y": 1 }
				]
			},
			"pipe2": {
				"translate": [
					{ "time": 0, "x": 0, "y": 0, "curve": "stepped" },
					{ "time": 0.5, "x": 24.6, "y": -19.51, "curve": "stepped" },
					{ "time": 1, "x": 0, "y": 0 }
				]
			},
			"leg2": {
				"rotate": [
					{ "time": 0, "angle": 0, "curve": "stepped" },
					{ "time": 0.5, "angle": 13.76, "curve": "stepped" },
					{ "time": 1, "angle": 0 }
				]
			},
			"deco2": {
				"translate": [
					{ "time": 0, "x": 11.67, "y": 5.67, "curve": "stepped" },
					{ "time": 0.1667, "x": 0, "y": 0, "curve": "stepped" },
					{ "time": 0.6667, "x": 35, "y": 17, "curve": "stepped" },
					{ "time": 1, "x": 11.67, "y": 5.67 }
				]
			},
			"2": {
				"translate": [
					{ "time": 0, "x": 65.14, "y": -47.14, "curve": "stepped" },
					{ "time": 0.2667, "x": 0, "y": 0, "curve": "stepped" },
					{ "time": 0.7667, "x": 122.15, "y": -88.39, "curve": "stepped" },
					{ "time": 1, "x": 65.14, "y": -47.14 }
				]
			},
			"armor2": {
				"rotate": [
					{ "time": 0, "angle": 0, "curve": "stepped" },
					{ "time": 0.5, "angle": -3.91, "curve": "stepped" },
					{ "time": 1, "angle": 0 }
				]
			},
			"fire3": {
				"rotate": [
					{ "time": 0, "angle": 0, "curve": "stepped" },
					{ "time": 0.0667, "angle": -169.35, "curve": "stepped" },
					{ "time": 0.1333, "angle": -169.35, "curve": "stepped" },
					{ "time": 0.1667, "angle": 0, "curve": "stepped" },
					{ "time": 0.2333, "angle": -169.35, "curve": "stepped" },
					{ "time": 0.3, "angle": -169.35, "curve": "stepped" },
					{ "time": 0.3333, "angle": 0, "curve": "stepped" },
					{ "time": 0.4, "angle": -169.35, "curve": "stepped" },
					{ "time": 0.4667, "angle": -169.35, "curve": "stepped" },
					{ "time": 0.5, "angle": 0, "curve": "stepped" },
					{ "time": 0.5667, "angle": -169.35, "curve": "stepped" },
					{ "time": 0.6333, "angle": -169.35, "curve": "stepped" },
					{ "time": 0.6667, "angle": 0, "curve": "stepped" },
					{ "time": 0.7333, "angle": -169.35, "curve": "stepped" },
					{ "time": 0.8, "angle": -169.35, "curve": "stepped" },
					{ "time": 0.8333, "angle": 0, "curve": "stepped" },
					{ "time": 0.9, "angle": -169.35, "curve": "stepped" },
					{ "time": 0.9667, "angle": -169.35, "curve": "stepped" },
					{ "time": 1, "angle": 0 }
				],
				"translate": [
					{ "time": 0, "x": 0, "y": 0, "curve": "stepped" },
					{ "time": 0.0667, "x": -16.72, "y": 18.23, "curve": "stepped" },
					{ "time": 0.1333, "x": -16.72, "y": 18.23, "curve": "stepped" },
					{ "time": 0.1667, "x": 0, "y": 0, "curve": "stepped" },
					{ "time": 0.2333, "x": -16.72, "y": 18.23, "curve": "stepped" },
					{ "time": 0.3, "x": -16.72, "y": 18.23, "curve": "stepped" },
					{ "time": 0.3333, "x": 0, "y": 0, "curve": "stepped" },
					{ "time": 0.4, "x": -16.72, "y": 18.23, "curve": "stepped" },
					{ "time": 0.4667, "x": -16.72, "y": 18.23, "curve": "stepped" },
					{ "time": 0.5, "x": 0, "y": 0, "curve": "stepped" },
					{ "time": 0.5667, "x": -16.72, "y": 18.23, "curve": "stepped" },
					{ "time": 0.6333, "x": -16.72, "y": 18.23, "curve": "stepped" },
					{ "time": 0.6667, "x": 0, "y": 0, "curve": "stepped" },
					{ "time": 0.7333, "x": -16.72, "y": 18.23, "curve": "stepped" },
					{ "time": 0.8, "x": -16.72, "y": 18.23, "curve": "stepped" },
					{ "time": 0.8333, "x": 0, "y": 0, "curve": "stepped" },
					{ "time": 0.9, "x": -16.72, "y": 18.23, "curve": "stepped" },
					{ "time": 0.9667, "x": -16.72, "y": 18.23, "curve": "stepped" },
					{ "time": 1, "x": 0, "y": 0 }
				],
				"scale": [
					{ "time": 0, "x": 1, "y": 1, "curve": "stepped" },
					{ "time": 0.0667, "x": -0.801, "y": 0.805, "curve": "stepped" },
					{ "time": 0.1333, "x": -0.801, "y": 0.805, "curve": "stepped" },
					{ "time": 0.1667, "x": 1, "y": 1, "curve": "stepped" },
					{ "time": 0.2333, "x": -0.801, "y": 0.805, "curve": "stepped" },
					{ "time": 0.3, "x": -0.801, "y": 0.805, "curve": "stepped" },
					{ "time": 0.3333, "x": 1, "y": 1, "curve": "stepped" },
					{ "time": 0.4, "x": -0.801, "y": 0.805, "curve": "stepped" },
					{ "time": 0.4667, "x": -0.801, "y": 0.805, "curve": "stepped" },
					{ "time": 0.5, "x": 1, "y": 1, "curve": "stepped" },
					{ "time": 0.5667, "x": -0.801, "y": 0.805, "curve": "stepped" },
					{ "time": 0.6333, "x": -0.801, "y": 0.805, "curve": "stepped" },
					{ "time": 0.6667, "x": 1, "y": 1, "curve": "stepped" },
					{ "time": 0.7333, "x": -0.801, "y": 0.805, "curve": "stepped" },
					{ "time": 0.8, "x": -0.801, "y": 0.805, "curve": "stepped" },
					{ "time": 0.8333, "x": 1, "y": 1, "curve": "stepped" },
					{ "time": 0.9, "x": -0.801, "y": 0.805, "curve": "stepped" },
					{ "time": 0.9667, "x": -0.801, "y": 0.805, "curve": "stepped" },
					{ "time": 1, "x": 1, "y": 1 }
				]
			}
		}
	}
}
}