[
  {
    "__type__": "cc.Prefab",
    "_name": "",
    "_objFlags": 0,
    "_native": "",
    "data": {
      "__id__": 1
    },
    "optimizationPolicy": 0,
    "asyncLoadAssets": false,
    "readonly": false
  },
  {
    "__type__": "cc.Node",
    "_name": "SoundManager",
    "_objFlags": 0,
    "_parent": null,
    "_children": [],
    "_active": true,
    "_level": 2,
    "_components": [
      {
        "__id__": 2
      }
    ],
    "_prefab": {
      "__id__": 3
    },
    "_opacity": 255,
    "_color": {
      "__type__": "cc.Color",
      "r": 255,
      "g": 255,
      "b": 255,
      "a": 255
    },
    "_contentSize": {
      "__type__": "cc.Size",
      "width": 0,
      "height": 0
    },
    "_anchorPoint": {
      "__type__": "cc.Vec2",
      "x": 0.5,
      "y": 0.5
    },
    "_position": {
      "__type__": "cc.Vec3",
      "x": -640,
      "y": -960,
      "z": 0
    },
    "_scale": {
      "__type__": "cc.Vec3",
      "x": 1,
      "y": 1,
      "z": 1
    },
    "_skewX": 0,
    "_skewY": 0,
    "_zIndex": 0,
    "_is3DNode": false,
    "groupIndex": 0,
    "_id": "",
    "_eulerAngles": {
      "__type__": "cc.Vec3",
      "x": 0,
      "y": 0,
      "z": 0
    }
  },
  {
    "__type__": "753439tZtFH4Y37kWeXFvuB",
    "_name": "",
    "_objFlags": 0,
    "node": {
      "__id__": 1
    },
    "_enabled": true,
    "bg": {
      "__uuid__": "4f7b80aa-e038-4dbe-bb9c-58653c33e3c0"
    },
    "enemyShoot": {
      "__uuid__": "20937015-0078-443a-92d7-12fff063ba48"
    },
    "finalWin": {
      "__uuid__": "3ca1da30-c5e6-4e20-a647-78892bf19de2"
    },
    "flyDie": {
      "__uuid__": "1b9d6107-f81e-4819-9366-6ef512609605"
    },
    "hitBullet": {
      "__uuid__": "c934acb7-743d-4028-ba45-067210cc04c0"
    },
    "_id": ""
  },
  {
    "__type__": "cc.PrefabInfo",
    "root": {
      "__id__": 1
    },
    "asset": {
      "__uuid__": "d83e5173-a7cc-4708-b734-da4bb0fb7a51"
    },
    "fileId": "f3ttonYVtJDbJ3Zoo9aa7o",
    "sync": false
  }
]