
canh_xanh.png
size: 372,179
format: RGBA8888
filter: Linear,Linear
repeat: none
1
  rotate: false
  xy: 157, 79
  size: 129, 98
  orig: 129, 98
  offset: 0, 0
  index: -1
2
  rotate: false
  xy: 288, 71
  size: 82, 106
  orig: 82, 106
  offset: 0, 0
  index: -1
3
  rotate: false
  xy: 2, 32
  size: 153, 145
  orig: 153, 145
  offset: 0, 0
  index: -1
4
  rotate: false
  xy: 242, 4
  size: 66, 65
  orig: 66, 65
  offset: 0, 0
  index: -1
5
  rotate: false
  xy: 157, 2
  size: 83, 75
  orig: 83, 75
  offset: 0, 0
  index: -1
