
6 han.png
size: 256,128
format: RGBA8888
filter: Linear,Linear
repeat: none
5
  rotate: false
  xy: 33, 18
  size: 35, 15
  orig: 35, 15
  offset: 0, 0
  index: -1
6
  rotate: false
  xy: 186, 87
  size: 21, 40
  orig: 21, 40
  offset: 0, 0
  index: -1
Group 21
  rotate: false
  xy: 76, 18
  size: 54, 109
  orig: 54, 109
  offset: 0, 0
  index: -1
canh1
  rotate: false
  xy: 0, 35
  size: 74, 92
  orig: 74, 92
  offset: 0, 0
  index: -1
eye2
  rotate: false
  xy: 132, 42
  size: 31, 31
  orig: 31, 31
  offset: 0, 0
  index: -1
head
  rotate: false
  xy: 132, 75
  size: 52, 52
  orig: 52, 52
  offset: 0, 0
  index: -1
rang2
  rotate: false
  xy: 0, 0
  size: 31, 33
  orig: 31, 33
  offset: 0, 0
  index: -1
