
hand.png
size: 208,208
format: RGBA8888
filter: Linear,Linear
repeat: none
claimCoin
  rotate: false
  xy: 2, 90
  size: 113, 114
  orig: 113, 114
  offset: 0, 0
  index: -1
hand
  rotate: true
  xy: 2, 2
  size: 86, 103
  orig: 86, 103
  offset: 0, 0
  index: -1
