{
"skeleton": { "hash": "o+nYzUEI+0KQLv7H3hwsoBDVtMs", "spine": "3.7.94", "width": 214.99, "height": 288.11, "images": "", "audio": "" },
"bones": [
	{ "name": "root" },
	{ "name": "scale", "parent": "root", "scaleX": 0.1, "scaleY": 0.1 },
	{ "name": "move", "parent": "scale", "x": -1.45, "y": -44.76 },
	{ "name": "Leg", "parent": "move", "length": 494.02, "rotation": 89.65, "x": -3.7, "y": -515.14 },
	{ "name": "Body", "parent": "Leg", "length": 1032.93, "rotation": 0.35, "x": 649.7, "y": 0.94 },
	{ "name": "ArmHand", "parent": "Body", "length": 313.52, "rotation": 147.71, "x": 382.42, "y": 423.44 },
	{ "name": "Arm", "parent": "ArmHand", "length": 303.61, "rotation": -34.03, "x": 307.66, "y": 0.14 },
	{ "name": "ArmHand2", "parent": "Body", "length": 314.71, "rotation": -146.52, "x": 383.98, "y": -417.85 },
	{ "name": "Arm2", "parent": "ArmHand2", "length": 304.16, "rotation": 32.28, "x": 310.47, "y": -2.58 },
	{ "name": "BallLeft", "parent": "scale", "rotation": 173.81, "x": -913, "y": 317.38 },
	{ "name": "BallLeft2", "parent": "scale", "rotation": 4.64, "x": 948.99, "y": 315.75 },
	{ "name": "CircleTop", "parent": "Body", "x": 1316.22, "y": -16.32 },
	{ "name": "CircleTop2", "parent": "Body", "x": 950.69, "y": 704.07 },
	{ "name": "CircleTop3", "parent": "Body", "x": 952.09, "y": -674.65 },
	{ "name": "FlareBody", "parent": "Body", "rotation": -30.54, "x": 595.19, "y": 234.56 },
	{ "name": "FlareBody2", "parent": "Body", "rotation": -53.54, "x": 384.48, "y": 123.08 },
	{ "name": "FlareBody3", "parent": "Body", "rotation": -147.09, "x": 594.9, "y": -246.52 },
	{ "name": "FlareBody4", "parent": "Body", "rotation": -126.89, "x": 386.57, "y": -131.06 },
	{ "name": "FootLeft", "parent": "Leg", "length": 929.48, "rotation": -163.69, "x": 376.82, "y": 300.23 },
	{ "name": "FootLeft2", "parent": "Leg", "length": 942.35, "rotation": 164.49, "x": 394.99, "y": -310.85 },
	{ "name": "Gem", "parent": "Body", "x": 545.41, "y": -3.03 },
	{ "name": "GemCenter", "parent": "Leg", "x": -325.3, "y": -8.58 },
	{
		"name": "Hand",
		"parent": "Arm",
		"length": 135.75,
		"rotation": -29.24,
		"x": 296.35,
		"y": -0.37,
		"color": "abe323ff"
	},
	{
		"name": "Hand2",
		"parent": "Arm2",
		"length": 157.17,
		"rotation": 28.88,
		"x": 294.7,
		"y": 0.38,
		"color": "abe323ff"
	},
	{ "name": "KC1", "parent": "CircleTop2" },
	{ "name": "KC2", "parent": "CircleTop" },
	{ "name": "KC3", "parent": "CircleTop3" },
	{ "name": "KC4", "parent": "Gem" },
	{ "name": "Move_BallRight", "parent": "BallLeft2" },
	{ "name": "Move_BoneLeft", "parent": "BallLeft", "x": 10.66, "y": -3.67 },
	{ "name": "footIn", "parent": "Leg", "length": 627.52, "rotation": -173.37, "x": 178.68, "y": 129.27 },
	{ "name": "footIn2", "parent": "Leg", "length": 625.5, "rotation": 173.55, "x": 193.6, "y": -150.8 }
],
"slots": [
	{ "name": "GemCenter", "bone": "GemCenter", "attachment": "GemCenter" },
	{ "name": "footIn", "bone": "footIn", "attachment": "footIn" },
	{ "name": "footIn2", "bone": "footIn2", "attachment": "footIn" },
	{ "name": "Circle", "bone": "Body", "attachment": "Circle" },
	{ "name": "CircleTop", "bone": "CircleTop", "attachment": "CircleTop" },
	{ "name": "CircleTop2", "bone": "CircleTop2", "attachment": "CircleTop" },
	{ "name": "CircleTop3", "bone": "CircleTop3", "attachment": "CircleTop" },
	{ "name": "Gem2", "bone": "KC1", "attachment": "Gem" },
	{ "name": "Gem3", "bone": "KC3", "attachment": "Gem" },
	{ "name": "Gem4", "bone": "KC2", "attachment": "Gem" },
	{ "name": "FlareGem2", "bone": "KC2", "color": "ffffff00", "attachment": "FlareGem" },
	{ "name": "FlareGem3", "bone": "KC1", "color": "ffffff00", "attachment": "FlareGem" },
	{ "name": "FlareGem4", "bone": "KC3", "color": "ffffff00", "attachment": "FlareGem" },
	{ "name": "star", "bone": "CircleTop", "attachment": "star" },
	{ "name": "star2", "bone": "CircleTop2", "attachment": "star" },
	{ "name": "star3", "bone": "CircleTop3", "attachment": "star" },
	{ "name": "BallLeft", "bone": "Move_BoneLeft", "attachment": "BallLeft" },
	{ "name": "BallLeft2", "bone": "Move_BallRight", "attachment": "BallLeft" },
	{ "name": "BallFlare", "bone": "Move_BoneLeft", "color": "ffffff00", "attachment": "BallFlare" },
	{ "name": "BallFlare2", "bone": "Move_BallRight", "color": "ffffff00", "attachment": "BallFlare" },
	{ "name": "FootLeft2", "bone": "FootLeft2", "attachment": "FootLeft" },
	{ "name": "FootLeft", "bone": "FootLeft", "attachment": "FootLeft" },
	{ "name": "Leg", "bone": "Leg", "attachment": "Leg" },
	{ "name": "Body", "bone": "Body", "attachment": "Body" },
	{ "name": "Gem", "bone": "KC4", "attachment": "Gem" },
	{ "name": "FlareGem", "bone": "KC4", "color": "ffffff00", "attachment": "FlareGem" },
	{ "name": "ArmHand", "bone": "ArmHand", "attachment": "ArmHand" },
	{ "name": "ArmHand2", "bone": "ArmHand2", "attachment": "ArmHand" },
	{ "name": "Arm", "bone": "Arm", "attachment": "Arm" },
	{ "name": "Arm2", "bone": "Arm2", "attachment": "Arm" },
	{ "name": "Hand", "bone": "Hand", "attachment": "Hand" },
	{ "name": "Hand2", "bone": "Hand2", "attachment": "Hand" },
	{ "name": "FlareBody", "bone": "FlareBody" },
	{ "name": "FlareBody3", "bone": "FlareBody3" },
	{ "name": "FlareBody4", "bone": "FlareBody4" },
	{ "name": "FlareBody2", "bone": "FlareBody2" },
	{ "name": "star4", "bone": "Gem", "attachment": "star" },
	{ "name": "1", "bone": "Body", "attachment": "1" },
	{ "name": "2", "bone": "Body", "attachment": "2" },
	{ "name": "3", "bone": "Body", "attachment": "3" },
	{ "name": "4", "bone": "Body", "attachment": "4" },
	{ "name": "body", "bone": "Body" },
	{ "name": "blur", "bone": "Hand" },
	{ "name": "blur2", "bone": "Hand2" }
],
"transform": [
	{
		"name": "Hand",
		"order": 5,
		"bones": [ "BallLeft" ],
		"target": "Hand",
		"x": 73.08,
		"y": -217.97,
		"rotateMix": 0
	},
	{
		"name": "Hand2",
		"order": 6,
		"bones": [ "BallLeft2" ],
		"target": "Hand2",
		"x": 113.05,
		"y": 214.61,
		"rotateMix": 0
	}
],
"path": [
	{
		"name": "1",
		"order": 0,
		"bones": [ "FlareBody2" ],
		"target": "1",
		"rotation": -89.8
	},
	{
		"name": "2",
		"order": 1,
		"bones": [ "FlareBody" ],
		"target": "2",
		"rotation": -96.5
	},
	{
		"name": "3",
		"order": 2,
		"bones": [ "FlareBody3" ],
		"target": "3",
		"rotation": -89.8
	},
	{
		"name": "4",
		"order": 3,
		"bones": [ "FlareBody4" ],
		"target": "4",
		"rotation": -91.5
	},
	{
		"name": "body",
		"order": 4,
		"bones": [ "CircleTop", "CircleTop2", "CircleTop3" ],
		"target": "body",
		"spacingMode": "percent",
		"rotateMode": "chain",
		"position": 0.6406,
		"spacing": 0.1844,
		"rotateMix": 0
	}
],
"skins": {
	"default": {
		"1": {
			"1": {
				"type": "path",
				"lengths": [ 25.92, 31.84, 41.85, 81.79 ],
				"vertexCount": 12,
				"vertices": [ 424.85, 58.02, 366.96, 108.36, 475.76, 179.28, 521.43, 266.91, 534.76, 301.33, 525.11, 316.89, 516.74, 330.4, 501.2, 349.99, 508.29, 373.02, 530.58, 404.23, 549.86, 437.25, 565.15, 463.44 ]
			}
		},
		"2": {
			"2": {
				"type": "path",
				"lengths": [ 7.38, 10.37, 18.02, 36.67 ],
				"vertexCount": 12,
				"vertices": [ 571.38, 199.13, 584.32, 217.21, 602.15, 242.15, 613.77, 267.41, 617.45, 282.72, 610.99, 292.75, 607.47, 294.45, 597.87, 305.31, 605.03, 322.79, 623.07, 350.62, 633.26, 373.08, 653.59, 362.47 ]
			}
		},
		"3": {
			"3": {
				"type": "path",
				"lengths": [ 7.43, 10.57, 18.38, 37.3 ],
				"vertexCount": 12,
				"vertices": [ 569.71, -211.83, 583.14, -230.18, 598.43, -250.11, 614.22, -283.22, 617.47, -295.77, 607.57, -307.45, 600.47, -311.23, 596.62, -319.07, 609.42, -336.98, 625.05, -369.2, 633.04, -388.06, 653.74, -377.13 ]
			}
		},
		"4": {
			"4": {
				"type": "path",
				"lengths": [ 26.09, 32.04, 41.89, 78.86 ],
				"vertexCount": 12,
				"vertices": [ 311.89, -169.58, 370.15, -119.07, 461.61, -177.66, 518.67, -257.49, 538.49, -313.27, 524.05, -335.33, 513.32, -347.63, 504.61, -362.24, 518.57, -385.29, 537.74, -419.48, 552.01, -448.48, 577.88, -434.26 ]
			}
		},
		"Arm": {
			"Arm": { "x": 144.32, "y": 3.64, "rotation": 156.32, "width": 319, "height": 174 }
		},
		"Arm2": {
			"Arm": { "x": 149.46, "y": -1.37, "scaleX": -1, "rotation": 24.25, "width": 319, "height": 174 }
		},
		"ArmHand": {
			"ArmHand": { "x": 131.56, "y": 5.14, "rotation": 122.29, "width": 243, "height": 325 }
		},
		"ArmHand2": {
			"ArmHand": { "x": 134.39, "y": -6.2, "scaleX": -1, "rotation": 56.52, "width": 243, "height": 325 }
		},
		"BallFlare": {
			"BallFlare": { "x": 21.62, "y": -1.71, "rotation": -173.81, "width": 226, "height": 226 }
		},
		"BallFlare2": {
			"BallFlare": { "x": 31.15, "y": 8.51, "scaleX": -1, "rotation": -4.64, "width": 226, "height": 226 }
		},
		"BallLeft": {
			"BallLeft": { "x": -16.91, "y": 5.68, "rotation": -173.81, "width": 225, "height": 225 }
		},
		"BallLeft2": {
			"BallLeft": { "x": -6.54, "y": 0.03, "scaleX": -1, "rotation": -4.64, "width": 225, "height": 225 }
		},
		"Body": {
			"Body": { "x": 454.46, "y": 0.88, "rotation": -90, "width": 1206, "height": 1333 }
		},
		"Circle": {
			"Circle": { "x": 606.96, "y": -0.12, "rotation": -90, "width": 1554, "height": 1554 }
		},
		"CircleTop": {
			"CircleTop": { "x": 7.24, "y": 4.7, "rotation": -90, "width": 373, "height": 371 }
		},
		"CircleTop2": {
			"CircleTop": { "x": 7.09, "y": -2.92, "rotation": -90, "width": 373, "height": 371 }
		},
		"CircleTop3": {
			"CircleTop": { "x": 5.69, "y": 2.38, "rotation": -90, "width": 373, "height": 371 }
		},
		"FlareBody": {
			"FlareBody": { "x": -0.25, "y": 0.16, "rotation": -36.46, "width": 39, "height": 41 }
		},
		"FlareBody2": {
			"FlareBody": { "x": -0.25, "y": 0.16, "rotation": -36.46, "width": 39, "height": 41 }
		},
		"FlareBody3": {
			"FlareBody": { "x": -0.25, "y": 0.16, "rotation": -36.46, "width": 39, "height": 41 }
		},
		"FlareBody4": {
			"FlareBody": { "x": -0.25, "y": 0.16, "rotation": -36.46, "width": 39, "height": 41 }
		},
		"FlareGem": {
			"FlareGem": { "x": 4.05, "y": 0.9, "rotation": -90, "width": 456, "height": 525 }
		},
		"FlareGem2": {
			"FlareGem": { "x": 6.68, "y": 2.18, "rotation": -90, "width": 456, "height": 525 }
		},
		"FlareGem3": {
			"FlareGem": { "x": 7.9, "y": 1.98, "rotation": -90, "width": 456, "height": 525 }
		},
		"FlareGem4": {
			"FlareGem": { "x": 6.5, "y": 3.39, "rotation": -90, "width": 456, "height": 525 }
		},
		"FootLeft": {
			"FootLeft": { "x": 493.88, "y": 0.35, "rotation": 104.15, "width": 485, "height": 990 }
		},
		"FootLeft2": {
			"FootLeft": { "x": 507.65, "y": -2.92, "scaleX": -1, "rotation": 76.08, "width": 485, "height": 990 }
		},
		"Gem": {
			"Gem": { "x": 4.55, "y": 0.9, "rotation": -90, "width": 250, "height": 320 }
		},
		"Gem2": {
			"Gem": { "x": 8.56, "y": 2.13, "rotation": -90, "width": 250, "height": 320 }
		},
		"Gem3": {
			"Gem": { "x": 7.16, "y": 2.77, "rotation": -90, "width": 250, "height": 320 }
		},
		"Gem4": {
			"Gem": { "x": 7.28, "y": 1, "rotation": -90, "width": 250, "height": 320 }
		},
		"GemCenter": {
			"GemCenter": { "x": 26.51, "y": 0.15, "rotation": -89.65, "width": 305, "height": 413 }
		},
		"Hand": {
			"Hand": { "x": 71.95, "y": 5.89, "rotation": -173.81, "width": 181, "height": 119 }
		},
		"Hand2": {
			"Hand": { "x": 81.45, "y": -4.05, "scaleX": -1, "rotation": -4.64, "width": 181, "height": 119 }
		},
		"Leg": {
			"Leg": { "x": 297.19, "y": -4.32, "rotation": -89.65, "width": 726, "height": 789 }
		},
		"blur": {
			"blur": { "x": 83.62, "y": -395.75, "rotation": -174.45, "width": 225, "height": 610 }
		},
		"blur2": {
			"blur": { "x": 122.51, "y": 395.08, "scaleX": -1, "rotation": -4.64, "width": 225, "height": 610 }
		},
		"body": {
			"body": {
				"type": "path",
				"closed": true,
				"lengths": [ 154.51, 308.99, 387.64, 436.79 ],
				"vertexCount": 12,
				"vertices": [ 1277.54, 473.9, 950.13, 705.47, 769.62, 833.15, -132.06, 875.82, -142.24, 1.81, -152.21, -853.4, 756.21, -825.15, 949.87, -673.66, 1303.78, -396.8, 1307.65, -222.97, 1317.27, -15.09, 1328.14, 219.85 ]
			}
		},
		"footIn": {
			"footIn": { "x": 317.89, "y": -25.85, "rotation": 83.71, "width": 250, "height": 814 }
		},
		"footIn2": {
			"footIn": { "x": 332.1, "y": 19.02, "scaleX": -1, "rotation": 96.79, "width": 250, "height": 814 }
		},
		"star": {
			"star": { "x": 5.74, "y": 4.7, "rotation": -90, "width": 203, "height": 262 }
		},
		"star2": {
			"star": { "x": 13.77, "y": 2.03, "rotation": -90, "width": 203, "height": 262 }
		},
		"star3": {
			"star": { "x": 12.37, "y": -0.12, "rotation": -90, "width": 203, "height": 262 }
		},
		"star4": {
			"star": { "x": -9.4, "y": -5.87, "rotation": -90, "width": 203, "height": 262 }
		}
	}
},
"events": {
	"start": {}
},
"animations": {
	"attack": {
		"slots": {
			"FlareGem": {
				"color": [
					{ "time": 0, "color": "ffffff00" },
					{ "time": 0.2, "color": "ffffffff" },
					{ "time": 0.4, "color": "ffffff00" },
					{ "time": 0.5667, "color": "ffffffff" },
					{ "time": 0.7333, "color": "ffffff00" },
					{ "time": 0.9, "color": "ffffffff" },
					{ "time": 1.6, "color": "ffffff00" }
				]
			},
			"FlareGem2": {
				"color": [
					{ "time": 0, "color": "ffffff00" },
					{ "time": 0.4333, "color": "ffffffff" },
					{ "time": 0.6333, "color": "ffffff00" },
					{ "time": 0.8, "color": "ffffffff" },
					{ "time": 0.9667, "color": "ffffff00" },
					{ "time": 1.1333, "color": "ffffffff" },
					{ "time": 1.6, "color": "ffffff00" }
				]
			},
			"FlareGem3": {
				"color": [
					{ "time": 0, "color": "ffffff00" },
					{ "time": 0.3333, "color": "ffffffff" },
					{ "time": 0.5333, "color": "ffffff00" },
					{ "time": 0.7, "color": "ffffffff" },
					{ "time": 0.8667, "color": "ffffff00" },
					{ "time": 1.0333, "color": "ffffffff" },
					{ "time": 1.6, "color": "ffffff00" }
				]
			},
			"FlareGem4": {
				"color": [
					{ "time": 0, "color": "ffffff00" },
					{ "time": 0.5, "color": "ffffffff" },
					{ "time": 0.7, "color": "ffffff00" },
					{ "time": 0.8667, "color": "ffffffff" },
					{ "time": 1.0333, "color": "ffffff00" },
					{ "time": 1.2, "color": "ffffffff" },
					{ "time": 1.6, "color": "ffffff00" }
				]
			}
		},
		"bones": {
			"Leg": {
				"translate": [
					{ "time": 0.3333, "x": 0, "y": 0 },
					{ "time": 0.3667, "x": 25.47, "y": 0 },
					{ "time": 0.4, "x": -20.38, "y": 0 },
					{ "time": 0.4333, "x": 25.47, "y": 0 },
					{ "time": 0.4667, "x": -20.38, "y": 0 },
					{ "time": 0.5, "x": 25.47, "y": 0 },
					{ "time": 0.5333, "x": -20.38, "y": 0 },
					{ "time": 0.5667, "x": 25.47, "y": 0 },
					{ "time": 0.6, "x": -20.38, "y": 0 },
					{ "time": 0.6333, "x": 25.47, "y": 0 },
					{ "time": 0.6667, "x": -20.38, "y": 0 },
					{ "time": 0.7, "x": 25.47, "y": 0 },
					{ "time": 0.7333, "x": -20.38, "y": 0 },
					{ "time": 0.7667, "x": 25.47, "y": 0 },
					{ "time": 0.8, "x": -20.38, "y": 0 },
					{ "time": 0.8333, "x": 25.47, "y": 0 },
					{ "time": 0.8667, "x": -20.38, "y": 0 },
					{ "time": 0.9, "x": 25.47, "y": 0 },
					{ "time": 0.9333, "x": -20.38, "y": 0 },
					{ "time": 0.9667, "x": 25.47, "y": 0 },
					{ "time": 1, "x": -20.38, "y": 0 },
					{ "time": 1.0333, "x": 25.47, "y": 0 },
					{ "time": 1.0667, "x": -20.38, "y": 0 },
					{ "time": 1.1, "x": 25.47, "y": 0 },
					{ "time": 1.1333, "x": 0, "y": 0 }
				]
			},
			"FlareBody": {
				"rotate": [
					{ "time": 0, "angle": -2.52 },
					{ "time": 1.1333, "angle": -20.96 },
					{ "time": 1.6, "angle": -2.52 }
				]
			},
			"ArmHand": {
				"rotate": [
					{ "time": 0, "angle": 0 },
					{ "time": 0.1667, "angle": 19.39, "curve": "stepped" },
					{ "time": 0.3333, "angle": 19.39 },
					{
						"time": 1.1333,
						"angle": -59.36,
						"curve": [ 0.583, 0.03, 0.661, 0.96 ]
					},
					{ "time": 1.6, "angle": 0 }
				],
				"translate": [
					{ "time": 0, "x": 0, "y": 0 },
					{ "time": 0.1667, "x": -5.84, "y": 0, "curve": "stepped" },
					{ "time": 0.3333, "x": -5.84, "y": 0 },
					{
						"time": 1.1333,
						"x": -17.51,
						"y": 0,
						"curve": [ 0.583, 0.03, 0.661, 0.96 ]
					},
					{ "time": 1.6, "x": 0, "y": 0 }
				]
			},
			"Arm": {
				"rotate": [
					{ "time": 0, "angle": 0 },
					{ "time": 0.1667, "angle": -29.31 },
					{ "time": 0.3333, "angle": -1.77 },
					{
						"time": 1.1333,
						"angle": -4.35,
						"curve": [ 0.583, 0.03, 0.661, 0.96 ]
					},
					{
						"time": 1.4333,
						"angle": -16.11,
						"curve": [ 0.583, 0.03, 0.661, 0.96 ]
					},
					{ "time": 1.6, "angle": 0 }
				]
			},
			"Hand": {
				"rotate": [
					{ "time": 0, "angle": 0 },
					{ "time": 0.1667, "angle": 19.83 },
					{ "time": 0.3333, "angle": -8.49 },
					{ "time": 1.1333, "angle": 79.45 },
					{ "time": 1.4333, "angle": 54.27 },
					{ "time": 1.6, "angle": 0 }
				]
			},
			"BallLeft": {
				"translate": [
					{ "time": 0, "x": 0, "y": 0 },
					{ "time": 1.1333, "x": -137.86, "y": 617.93 },
					{ "time": 1.6, "x": 0, "y": 0 }
				]
			},
			"ArmHand2": {
				"rotate": [
					{ "time": 0, "angle": 0 },
					{ "time": 0.1667, "angle": -20.21, "curve": "stepped" },
					{ "time": 0.3333, "angle": -20.21 },
					{
						"time": 1.1333,
						"angle": 58.98,
						"curve": [ 0.583, 0.03, 0.661, 0.96 ]
					},
					{ "time": 1.6, "angle": 0 }
				],
				"translate": [
					{ "time": 0, "x": 0, "y": 0 },
					{ "time": 0.1667, "x": -9.73, "y": 0, "curve": "stepped" },
					{ "time": 0.3333, "x": -9.73, "y": 0 },
					{
						"time": 1.1333,
						"x": -29.19,
						"y": 0,
						"curve": [ 0.583, 0.03, 0.661, 0.96 ]
					},
					{ "time": 1.6, "x": 0, "y": 0 }
				]
			},
			"Arm2": {
				"rotate": [
					{ "time": 0, "angle": 0 },
					{ "time": 0.1667, "angle": 30.73 },
					{ "time": 0.3333, "angle": 6.5 },
					{
						"time": 1.1333,
						"angle": 5.9,
						"curve": [ 0.583, 0.03, 0.661, 0.96 ]
					},
					{
						"time": 1.4333,
						"angle": 12.65,
						"curve": [ 0.583, 0.03, 0.661, 0.96 ]
					},
					{ "time": 1.6, "angle": 0 }
				]
			},
			"Hand2": {
				"rotate": [
					{ "time": 0, "angle": 0 },
					{ "time": 0.1667, "angle": -9.75 },
					{ "time": 0.3333, "angle": 11.84 },
					{ "time": 1.1333, "angle": -63.39 },
					{ "time": 1.4333, "angle": -23.94 },
					{ "time": 1.6, "angle": 0 }
				]
			},
			"BallLeft2": {
				"translate": [
					{ "time": 0, "x": 0, "y": 0 },
					{ "time": 0.3333, "x": -118.03, "y": -354.19 },
					{ "time": 1.1333, "x": 31.09, "y": 630.96 },
					{ "time": 1.6, "x": 0, "y": 0 }
				]
			},
			"FlareBody2": {
				"rotate": [
					{ "time": 0, "angle": -2.95 },
					{ "time": 1.1333, "angle": -2.18 },
					{ "time": 1.6, "angle": -2.95 }
				]
			},
			"FlareBody3": {
				"rotate": [
					{ "time": 0, "angle": 0.98 },
					{ "time": 1.1333, "angle": -1.1 },
					{ "time": 1.6, "angle": 0.98 }
				]
			},
			"FlareBody4": {
				"rotate": [
					{ "time": 0, "angle": 2.7 },
					{ "time": 1.1333, "angle": 3.04 },
					{ "time": 1.6, "angle": 2.7 }
				]
			},
			"move": {
				"translate": [
					{ "time": 0, "x": 0, "y": 0 },
					{ "time": 0.3333, "x": 0, "y": -232.84 },
					{
						"time": 1.1333,
						"x": 0,
						"y": 124.52,
						"curve": [ 0.545, 0.07, 0.711, 0.94 ]
					},
					{ "time": 1.6, "x": 0, "y": 0 }
				]
			}
		},
		"events": [
			{ "time": 0.3333, "name": "start" }
		]
	},
	"idle": {
		"slots": {
			"FlareBody": {
				"attachment": [
					{ "time": 0.0667, "name": "FlareBody" },
					{ "time": 0.8333, "name": null }
				]
			},
			"FlareBody2": {
				"attachment": [
					{ "time": 0.0667, "name": "FlareBody" },
					{ "time": 0.8333, "name": null }
				]
			},
			"FlareBody3": {
				"attachment": [
					{ "time": 0.0667, "name": "FlareBody" },
					{ "time": 0.8333, "name": null }
				]
			},
			"FlareBody4": {
				"attachment": [
					{ "time": 0.0667, "name": "FlareBody" },
					{ "time": 0.8333, "name": null }
				]
			},
			"footIn2": {
				"color": [
					{ "time": 0.9667, "color": "000000ff" }
				]
			},
			"star": {
				"color": [
					{ "time": 0, "color": "ffffffba" },
					{ "time": 0.2, "color": "ffffffff" },
					{ "time": 0.7, "color": "ffffff53" },
					{ "time": 1, "color": "ffffffba" }
				]
			},
			"star2": {
				"color": [
					{ "time": 0, "color": "ffffffba" },
					{ "time": 0.2, "color": "ffffffff" },
					{ "time": 0.7, "color": "ffffff53" },
					{ "time": 1, "color": "ffffffba" }
				]
			},
			"star3": {
				"color": [
					{ "time": 0, "color": "ffffffba" },
					{ "time": 0.2, "color": "ffffffff" },
					{ "time": 0.7, "color": "ffffff53" },
					{ "time": 1, "color": "ffffffba" }
				]
			},
			"star4": {
				"color": [
					{ "time": 0, "color": "ffffffa8" },
					{ "time": 0.2667, "color": "ffffff44" },
					{ "time": 0.7667, "color": "ffffffff" },
					{ "time": 1, "color": "ffffffa8" }
				]
			}
		},
		"bones": {
			"Leg": {
				"translate": [
					{
						"time": 0,
						"x": 0,
						"y": 0,
						"curve": [ 0.397, 0.08, 0.661, 0.94 ]
					},
					{
						"time": 0.5,
						"x": 0,
						"y": 270.43,
						"curve": [ 0.397, 0.08, 0.661, 0.94 ]
					},
					{ "time": 1, "x": 0, "y": 0 }
				]
			},
			"FlareBody": {
				"rotate": [
					{ "time": 0, "angle": -2.52 },
					{ "time": 0.0667, "angle": -0.36 },
					{ "time": 1, "angle": -2.52 }
				],
				"translate": [
					{ "time": 0, "x": -10.87, "y": -17.35 },
					{ "time": 0.0667, "x": 38.07, "y": 138.52 },
					{ "time": 1, "x": -10.87, "y": -17.35 }
				]
			},
			"ArmHand": {
				"rotate": [
					{ "time": 0, "angle": -9.82 },
					{ "time": 0.2667, "angle": 4.48 },
					{ "time": 0.7333, "angle": -22.34 },
					{ "time": 1, "angle": -9.82 }
				],
				"translate": [
					{ "time": 0, "x": 13.92, "y": 20.88 },
					{ "time": 0.2667, "x": -2.08, "y": -3.94 },
					{ "time": 0.5, "x": 18.08, "y": 13.26 },
					{ "time": 0.7333, "x": 26.1, "y": 39.15 },
					{ "time": 1, "x": 13.92, "y": 20.88 }
				]
			},
			"Arm": {
				"rotate": [
					{ "time": 0, "angle": -6.7 },
					{ "time": 0.2667, "angle": -20.78 },
					{ "time": 0.5, "angle": -8.04 },
					{ "time": 0.7333, "angle": 0 },
					{ "time": 1, "angle": -6.7 }
				]
			},
			"Hand": {
				"rotate": [
					{ "time": 0, "angle": 22.25 },
					{ "time": 0.5, "angle": 18.96 },
					{ "time": 1, "angle": 22.25 }
				]
			},
			"ArmHand2": {
				"rotate": [
					{ "time": 0, "angle": 8.24 },
					{ "time": 0.2667, "angle": -5.88 },
					{ "time": 0.7333, "angle": 20.59 },
					{ "time": 1, "angle": 8.24 }
				],
				"translate": [
					{ "time": 0, "x": 9.28, "y": -20.88 },
					{ "time": 0.2667, "x": 0, "y": 0 },
					{ "time": 0.5, "x": 16.45, "y": -11.3 },
					{ "time": 0.7333, "x": 17.4, "y": -39.15 },
					{ "time": 1, "x": 9.28, "y": -20.88 }
				]
			},
			"Arm2": {
				"rotate": [
					{ "time": 0, "angle": 8.92 },
					{ "time": 0.2667, "angle": 21.59 },
					{ "time": 0.7333, "angle": -2.17 },
					{ "time": 1, "angle": 8.92 }
				]
			},
			"Hand2": {
				"rotate": [
					{ "time": 0, "angle": -18.64 },
					{ "time": 0.5, "angle": -18.27 },
					{ "time": 1, "angle": -18.64 }
				]
			},
			"FlareBody2": {
				"rotate": [
					{ "time": 0, "angle": -2.95 },
					{ "time": 0.0667, "angle": 23.47 },
					{ "time": 1, "angle": -2.95 }
				],
				"translate": [
					{ "time": 0, "x": -17.52, "y": -14.71 },
					{ "time": 0.0667, "x": 165.38, "y": 314.17 },
					{ "time": 1, "x": -17.52, "y": -14.71 }
				]
			},
			"FlareBody3": {
				"rotate": [
					{ "time": 0, "angle": 0.98 },
					{ "time": 0.0667, "angle": -9.74 },
					{ "time": 1, "angle": 0.98 }
				],
				"translate": [
					{ "time": 0, "x": -11.76, "y": 16.33 },
					{ "time": 0.0667, "x": 38.14, "y": -141.54 },
					{ "time": 1, "x": -11.76, "y": 16.33 }
				]
			},
			"FlareBody4": {
				"rotate": [
					{ "time": 0, "angle": 2.7 },
					{ "time": 0.0667, "angle": -28.4 },
					{ "time": 1, "angle": 2.7 }
				],
				"translate": [
					{ "time": 0, "x": -16.42, "y": 11.98 },
					{ "time": 0.0667, "x": 165.45, "y": -317.42 },
					{ "time": 1, "x": -16.42, "y": 11.98 }
				]
			},
			"KC1": {
				"translate": [
					{ "time": 0, "x": -13.32, "y": 0 },
					{ "time": 0.3667, "x": 30.64, "y": 0 },
					{ "time": 0.8667, "x": -29.3, "y": 0 },
					{ "time": 1, "x": -13.32, "y": 0 }
				]
			},
			"KC2": {
				"translate": [
					{ "time": 0, "x": 6.66, "y": 0 },
					{ "time": 0.2, "x": 30.64, "y": 0 },
					{ "time": 0.7, "x": -29.3, "y": 0 },
					{ "time": 1, "x": 6.66, "y": 0 }
				]
			},
			"KC3": {
				"translate": [
					{ "time": 0, "x": 18.65, "y": 0 },
					{ "time": 0.1, "x": 30.64, "y": 0 },
					{ "time": 0.6, "x": -29.3, "y": 0 },
					{ "time": 1, "x": 18.65, "y": 0 }
				]
			},
			"KC4": {
				"translate": [
					{
						"time": 0,
						"x": 37.92,
						"y": 0,
						"curve": [ 0.362, 0.13, 0.715, 0.94 ]
					},
					{
						"time": 0.5,
						"x": -53.09,
						"y": 0,
						"curve": [ 0.362, 0.13, 0.715, 0.94 ]
					},
					{ "time": 1, "x": 37.92, "y": 0 }
				]
			},
			"Move_BoneLeft": {
				"translate": [
					{
						"time": 0,
						"x": 14.72,
						"y": -135.75,
						"curve": [ 0.362, 0.13, 0.715, 0.91 ]
					},
					{
						"time": 0.2667,
						"x": 2.6,
						"y": -23.96,
						"curve": [ 0.362, 0.13, 0.715, 0.91 ]
					},
					{
						"time": 0.7333,
						"x": 25.33,
						"y": -233.57,
						"curve": [ 0.362, 0.13, 0.715, 0.91 ]
					},
					{ "time": 1, "x": 14.72, "y": -135.75 }
				]
			},
			"Move_BallRight": {
				"translate": [
					{
						"time": 0,
						"x": 11.04,
						"y": 136.1,
						"curve": [ 0.362, 0.13, 0.715, 0.91 ]
					},
					{
						"time": 0.2667,
						"x": 1.95,
						"y": 24.02,
						"curve": [ 0.362, 0.13, 0.715, 0.91 ]
					},
					{
						"time": 0.7333,
						"x": 18.99,
						"y": 234.17,
						"curve": [ 0.362, 0.13, 0.715, 0.91 ]
					},
					{ "time": 1, "x": 11.04, "y": 136.1 }
				]
			}
		},
		"paths": {
			"1": {
				"position": [
					{
						"time": 0.0667,
						"curve": [ 0.273, 0.01, 0.746, 0.99 ]
					},
					{
						"time": 0.8333,
						"position": 1,
						"curve": [ 0.273, 0.01, 0.746, 0.99 ]
					},
					{ "time": 1 }
				]
			},
			"2": {
				"position": [
					{
						"time": 0.0667,
						"curve": [ 0.273, 0.01, 0.746, 0.99 ]
					},
					{
						"time": 0.8333,
						"position": 1,
						"curve": [ 0.273, 0.01, 0.746, 0.99 ]
					},
					{ "time": 1 }
				]
			},
			"3": {
				"position": [
					{
						"time": 0.0667,
						"curve": [ 0.273, 0.01, 0.746, 0.99 ]
					},
					{
						"time": 0.8333,
						"position": 1,
						"curve": [ 0.273, 0.01, 0.746, 0.99 ]
					},
					{ "time": 1 }
				]
			},
			"4": {
				"position": [
					{
						"time": 0.0667,
						"curve": [ 0.273, 0.01, 0.746, 0.99 ]
					},
					{
						"time": 0.8333,
						"position": 1,
						"curve": [ 0.273, 0.01, 0.746, 0.99 ]
					},
					{ "time": 1 }
				]
			}
		}
	}
}
}